%!PS-Adobe-3.0 EPSF-3.0
%%Creator: MATLAB, The MathWorks, Inc. Version 7.11.0.584 (R2010b). Operating System: Microsoft Windows 7.
%%Title: D:\Dropbox\document\work\ELE747\Cours\cours3\content\matlab\2d freqz.eps
%%CreationDate: 01/17/2011  11:12:49
%%DocumentNeededFonts: Helvetica
%%DocumentProcessColors: Cyan Magenta Yellow Black
%%LanguageLevel: 2
%%Pages: 1
%%BoundingBox:    96   238   515   553
%%EndComments

%%BeginProlog
% MathWorks dictionary
/MathWorks 160 dict begin
% definition operators
/bdef {bind def} bind def
/ldef {load def} bind def
/xdef {exch def} bdef
/xstore {exch store} bdef
% operator abbreviations
/c  /clip ldef
/cc /concat ldef
/cp /closepath ldef
/gr /grestore ldef
/gs /gsave ldef
/mt /moveto ldef
/np /newpath ldef
/cm /currentmatrix ldef
/sm /setmatrix ldef
/rm /rmoveto ldef
/rl /rlineto ldef
/s {show newpath} bdef
/sc {setcmykcolor} bdef
/sr /setrgbcolor ldef
/sg /setgray ldef
/w /setlinewidth ldef
/j /setlinejoin ldef
/cap /setlinecap ldef
/rc {rectclip} bdef
/rf {rectfill} bdef
% page state control
/pgsv () def
/bpage {/pgsv save def} bdef
/epage {pgsv restore} bdef
/bplot /gsave ldef
/eplot {stroke grestore} bdef
% orientation switch
/portraitMode 0 def /landscapeMode 1 def /rotateMode 2 def
% coordinate system mappings
/dpi2point 0 def
% font control
/FontSize 0 def
/FMS {/FontSize xstore findfont [FontSize 0 0 FontSize neg 0 0]
  makefont setfont} bdef
/ISOLatin1Encoding where {pop /WindowsLatin1Encoding 256 array bdef
ISOLatin1Encoding WindowsLatin1Encoding copy pop
/.notdef/.notdef/quotesinglbase/florin/quotedblbase/ellipsis/dagger
/daggerdbl/circumflex/perthousand/Scaron/guilsinglleft/OE/.notdef/.notdef
/.notdef/.notdef/quoteleft/quoteright/quotedblleft/quotedblright/bullet
/endash/emdash/tilde/trademark/scaron/guilsinglright/oe/.notdef/.notdef
/Ydieresis WindowsLatin1Encoding 128 32 getinterval astore pop}
{/WindowsLatin1Encoding StandardEncoding bdef} ifelse
/reencode {exch dup where {pop load} {pop StandardEncoding} ifelse
  exch dup 3 1 roll findfont dup length dict begin
  { 1 index /FID ne {def}{pop pop} ifelse } forall
  /Encoding exch def currentdict end definefont pop} bdef
/isroman {findfont /CharStrings get /Agrave known} bdef
/FMSR {3 1 roll 1 index dup isroman {reencode} {pop pop} ifelse
  exch FMS} bdef
/csm {1 dpi2point div -1 dpi2point div scale neg translate
 dup landscapeMode eq {pop -90 rotate}
  {rotateMode eq {90 rotate} if} ifelse} bdef
% line types: solid, dotted, dashed, dotdash
/SO { [] 0 setdash } bdef
/DO { [.5 dpi2point mul 4 dpi2point mul] 0 setdash } bdef
/DA { [6 dpi2point mul] 0 setdash } bdef
/DD { [.5 dpi2point mul 4 dpi2point mul 6 dpi2point mul 4
  dpi2point mul] 0 setdash } bdef
% macros for lines and objects
/L {lineto stroke} bdef
/MP {3 1 roll moveto 1 sub {rlineto} repeat} bdef
/AP {{rlineto} repeat} bdef
/PDlw -1 def
/W {/PDlw currentlinewidth def setlinewidth} def
/PP {closepath eofill} bdef
/DP {closepath stroke} bdef
/MR {4 -2 roll moveto dup  0 exch rlineto exch 0 rlineto
  neg 0 exch rlineto closepath} bdef
/FR {MR stroke} bdef
/PR {MR fill} bdef
/L1i {{currentfile picstr readhexstring pop} image} bdef
/tMatrix matrix def
/MakeOval {newpath tMatrix currentmatrix pop translate scale
0 0 1 0 360 arc tMatrix setmatrix} bdef
/FO {MakeOval stroke} bdef
/PO {MakeOval fill} bdef
/PD {currentlinewidth 2 div 0 360 arc fill
   PDlw -1 eq not {PDlw w /PDlw -1 def} if} def
/FA {newpath tMatrix currentmatrix pop translate scale
  0 0 1 5 -2 roll arc tMatrix setmatrix stroke} bdef
/PA {newpath tMatrix currentmatrix pop	translate 0 0 moveto scale
  0 0 1 5 -2 roll arc closepath tMatrix setmatrix fill} bdef
/FAn {newpath tMatrix currentmatrix pop translate scale
  0 0 1 5 -2 roll arcn tMatrix setmatrix stroke} bdef
/PAn {newpath tMatrix currentmatrix pop translate 0 0 moveto scale
  0 0 1 5 -2 roll arcn closepath tMatrix setmatrix fill} bdef
/vradius 0 def /hradius 0 def /lry 0 def
/lrx 0 def /uly 0 def /ulx 0 def /rad 0 def
/MRR {/vradius xdef /hradius xdef /lry xdef /lrx xdef /uly xdef
  /ulx xdef newpath tMatrix currentmatrix pop ulx hradius add uly
  vradius add translate hradius vradius scale 0 0 1 180 270 arc 
  tMatrix setmatrix lrx hradius sub uly vradius add translate
  hradius vradius scale 0 0 1 270 360 arc tMatrix setmatrix
  lrx hradius sub lry vradius sub translate hradius vradius scale
  0 0 1 0 90 arc tMatrix setmatrix ulx hradius add lry vradius sub
  translate hradius vradius scale 0 0 1 90 180 arc tMatrix setmatrix
  closepath} bdef
/FRR {MRR stroke } bdef
/PRR {MRR fill } bdef
/MlrRR {/lry xdef /lrx xdef /uly xdef /ulx xdef /rad lry uly sub 2 div def
  newpath tMatrix currentmatrix pop ulx rad add uly rad add translate
  rad rad scale 0 0 1 90 270 arc tMatrix setmatrix lrx rad sub lry rad
  sub translate rad rad scale 0 0 1 270 90 arc tMatrix setmatrix
  closepath} bdef
/FlrRR {MlrRR stroke } bdef
/PlrRR {MlrRR fill } bdef
/MtbRR {/lry xdef /lrx xdef /uly xdef /ulx xdef /rad lrx ulx sub 2 div def
  newpath tMatrix currentmatrix pop ulx rad add uly rad add translate
  rad rad scale 0 0 1 180 360 arc tMatrix setmatrix lrx rad sub lry rad
  sub translate rad rad scale 0 0 1 0 180 arc tMatrix setmatrix
  closepath} bdef
/FtbRR {MtbRR stroke } bdef
/PtbRR {MtbRR fill } bdef
/stri 6 array def /dtri 6 array def
/smat 6 array def /dmat 6 array def
/tmat1 6 array def /tmat2 6 array def /dif 3 array def
/asub {/ind2 exch def /ind1 exch def dup dup
  ind1 get exch ind2 get sub exch } bdef
/tri_to_matrix {
  2 0 asub 3 1 asub 4 0 asub 5 1 asub
  dup 0 get exch 1 get 7 -1 roll astore } bdef
/compute_transform {
  dmat dtri tri_to_matrix tmat1 invertmatrix 
  smat stri tri_to_matrix tmat2 concatmatrix } bdef
/ds {stri astore pop} bdef
/dt {dtri astore pop} bdef
/db {2 copy /cols xdef /rows xdef mul dup 3 mul string
  currentfile 
  3 index 0 eq {/ASCIIHexDecode filter}
  {/ASCII85Decode filter 3 index 2 eq {/RunLengthDecode filter} if }
  ifelse exch readstring pop
  dup 0 3 index getinterval /rbmap xdef
  dup 2 index dup getinterval /gbmap xdef
  1 index dup 2 mul exch getinterval /bbmap xdef pop pop}bdef
/it {gs np dtri aload pop moveto lineto lineto cp c
  cols rows 8 compute_transform 
  rbmap gbmap bbmap true 3 colorimage gr}bdef
/il {newpath moveto lineto stroke}bdef
currentdict end def
%%EndProlog

%%BeginSetup
MathWorks begin

0 cap

end
%%EndSetup

%%Page: 1 1
%%BeginPageSetup
%%PageBoundingBox:    96   238   515   553
MathWorks begin
bpage
%%EndPageSetup

%%BeginObject: obj1
bplot

/dpi2point 12 def
portraitMode 1152 6636 csm

    0     0  5039  3780 rc
85 dict begin %Colortable dictionary
/c0 { 0.000000 0.000000 0.000000 sr} bdef
/c1 { 1.000000 1.000000 1.000000 sr} bdef
/c2 { 0.900000 0.000000 0.000000 sr} bdef
/c3 { 0.000000 0.820000 0.000000 sr} bdef
/c4 { 0.000000 0.000000 0.800000 sr} bdef
/c5 { 0.910000 0.820000 0.320000 sr} bdef
/c6 { 1.000000 0.260000 0.820000 sr} bdef
/c7 { 0.000000 0.820000 0.820000 sr} bdef
c0
1 j
1 sg
   0    0 5040 3781 rf
6 w
0 3081 3905 0 0 -3081 655 3364 4 MP
PP
-3905 0 0 3081 3905 0 0 -3081 655 3364 5 MP stroke
4 w
DO
SO
6 w
0 sg
 655  283 mt 4560  283 L
 655 3364 mt 4560 3364 L
4560 3364 mt 4560  283 L
 655 3364 mt  655  283 L
 655 3364 mt 4560 3364 L
 655 3364 mt  655  283 L
 655 3364 mt  655 3324 L
 655  283 mt  655  322 L
%%IncludeResource: font Helvetica
/Helvetica /WindowsLatin1Encoding 120 FMSR

 552 3509 mt 
(-1) s
1631 3364 mt 1631 3324 L
1631  283 mt 1631  322 L
1478 3509 mt 
(-0.5) s
2607 3364 mt 2607 3324 L
2607  283 mt 2607  322 L
2574 3509 mt 
(0) s
3583 3364 mt 3583 3324 L
3583  283 mt 3583  322 L
3500 3509 mt 
(0.5) s
4560 3364 mt 4560 3324 L
4560  283 mt 4560  322 L
4527 3509 mt 
(1) s
 655 3364 mt  694 3364 L
4560 3364 mt 4520 3364 L
 554 3408 mt 
(0) s
 655 3055 mt  694 3055 L
4560 3055 mt 4520 3055 L
 454 3099 mt 
(0.1) s
 655 2747 mt  694 2747 L
4560 2747 mt 4520 2747 L
 454 2791 mt 
(0.2) s
 655 2439 mt  694 2439 L
4560 2439 mt 4520 2439 L
 454 2483 mt 
(0.3) s
 655 2131 mt  694 2131 L
4560 2131 mt 4520 2131 L
 454 2175 mt 
(0.4) s
 655 1823 mt  694 1823 L
4560 1823 mt 4520 1823 L
 454 1867 mt 
(0.5) s
 655 1515 mt  694 1515 L
4560 1515 mt 4520 1515 L
 454 1559 mt 
(0.6) s
 655 1207 mt  694 1207 L
4560 1207 mt 4520 1207 L
 454 1251 mt 
(0.7) s
 655  899 mt  694  899 L
4560  899 mt 4520  899 L
 454  943 mt 
(0.8) s
 655  591 mt  694  591 L
4560  591 mt 4520  591 L
 454  635 mt 
(0.9) s
 655  283 mt  694  283 L
4560  283 mt 4520  283 L
 554  327 mt 
(1) s
 655  283 mt 4560  283 L
 655 3364 mt 4560 3364 L
4560 3364 mt 4560  283 L
 655 3364 mt  655  283 L
gs 655 283 3906 3082 rc
/c8 { 0.000000 0.000000 1.000000 sr} bdef
c8
16 -2 15 -3 15 -5 16 -5 15 -7 15 -8 16 -9 15 -11 
15 -11 16 -13 15 -14 15 -15 16 -17 15 -17 15 -19 16 -20 
15 -21 15 -22 15 -23 16 -24 15 -26 15 -26 16 -28 15 -28 
15 -30 16 -30 15 -32 15 -32 16 -34 15 -34 15 -35 16 -36 
15 -37 15 -38 15 -39 16 -39 15 -40 15 -41 16 -41 15 -43 
15 -43 16 -14 15 44 15 45 16 45 15 46 15 46 16 47 
15 47 15 48 15 48 16 49 15 48 15 49 16 50 15 49 
15 50 16 50 15 50 15 50 16 51 15 50 15 50 16 51 
15 50 15 50 16 51 15 50 15 50 15 49 16 50 15 49 
15 49 16 49 15 48 15 48 16 48 15 47 15 47 16 46 
15 46 15 46 16 44 15 45 15 43 15 43 16 42 15 42 
15 41 16 40 15 39 15 39 16 37 15 37 15 36 16 36 
15 34 15 33 16 33 15 31 15 31 15 29 16 29 15 27 
15 27 16 25 15 24 15 24 16 22 15 21 15 20 16 18 
15 18 15 16 16 15 15 14 15 13 16 12 15 10 15 10 
15 8 16 6 15 6 15 4 16 3 15 2 15 1 16 -1 
15 -2 15 -3 16 -4 15 -6 15 -6 16 -8 15 -10 15 -10 
15 -12 16 -13 15 -14 15 -15 16 -16 15 -18 15 -18 16 -20 
15 -21 15 -22 16 -24 15 -24 15 -25 16 -27 15 -27 15 -29 
15 -29 16 -31 15 -31 15 -33 16 -33 15 -34 15 -36 16 -36 
15 -37 15 -37 16 -39 15 -39 15 -40 16 -41 15 -42 15 -42 
16 -43 15 -43 15 -45 15 -44 16 -46 15 -46 15 -46 16 -47 
15 -47 15 -48 16 -48 15 -48 15 -49 16 -49 15 -49 15 -50 
16 -49 15 -50 15 -50 15 -51 16 -50 15 -50 15 -51 16 -50 
15 -50 15 -51 16 -50 15 -50 15 -50 16 -50 15 -49 15 -50 
16 -49 15 -48 15 -49 15 -48 16 -48 15 -47 15 -47 16 -46 
15 -46 15 -45 16 -45 15 -44 15 14 16 43 15 43 15 41 
16 41 15 40 15 39 16 39 15 38 15 37 15 36 16 35 
15 34 15 34 16 32 15 32 15 30 16 30 15 28 15 28 
16 26 15 26 15 24 16 23 15 22 15 21 15 20 16 19 
15 17 15 17 16 15 15 14 15 13 16 11 15 11 15 9 
16 8 15 7 15 5 16 5 15 3 15 2 15 0 655 2337 256 MP stroke
/c9 { 0.000000 0.500000 0.000000 sr} bdef
c9
16 -3 15 -6 15 -7 16 -10 15 -12 15 -15 16 -16 15 -18 
15 -20 16 -22 15 -24 15 -26 16 -27 15 -29 15 -31 16 -32 
15 -33 15 -34 15 -36 16 -36 15 -37 15 -39 16 -38 15 -40 
15 -8 16 40 15 40 15 41 16 40 15 39 15 40 16 38 
15 39 15 37 15 36 16 36 15 34 15 33 16 31 15 30 
15 28 16 27 15 25 15 22 16 21 15 18 15 16 16 14 
15 11 15 8 15 6 16 4 15 0 15 -2 16 -5 15 -8 
15 -11 16 -14 15 -17 15 -19 16 -23 15 -26 15 -29 16 -31 
15 -35 15 -38 16 -40 15 -43 15 -46 15 -49 16 -52 15 -54 
15 -56 16 -59 15 -62 15 -38 16 66 15 68 15 70 16 71 
15 74 15 74 16 77 15 77 15 79 15 80 16 80 15 82 
15 81 16 83 15 82 15 83 16 83 15 82 15 82 16 82 
15 81 15 80 16 79 15 78 15 76 15 75 16 74 15 72 
15 69 16 68 15 66 15 63 16 61 15 58 15 56 16 53 
15 50 15 47 16 44 15 41 15 37 16 34 15 31 15 28 
15 23 16 20 15 17 15 13 16 9 15 6 15 2 16 -2 
15 -6 15 -9 16 -13 15 -17 15 -20 16 -23 15 -28 15 -31 
15 -34 16 -37 15 -41 15 -44 16 -47 15 -50 15 -53 16 -56 
15 -58 15 -61 16 -63 15 -66 15 -68 16 -69 15 -72 15 -74 
15 -75 16 -76 15 -78 15 -79 16 -80 15 -81 15 -82 16 -82 
15 -82 15 -83 16 -83 15 -82 15 -83 16 -81 15 -82 15 -80 
16 -80 15 -79 15 -77 15 -77 16 -74 15 -74 15 -71 16 -70 
15 -68 15 -66 16 38 15 62 15 59 16 56 15 54 15 52 
16 49 15 46 15 43 15 40 16 38 15 35 15 31 16 29 
15 26 15 23 16 19 15 17 15 14 16 11 15 8 15 5 
16 2 15 0 15 -4 15 -6 16 -8 15 -11 15 -14 16 -16 
15 -18 15 -21 16 -22 15 -25 15 -27 16 -28 15 -30 15 -31 
16 -33 15 -34 15 -36 16 -36 15 -37 15 -39 15 -38 16 -40 
15 -39 15 -40 16 -41 15 -40 15 -40 16 8 15 40 15 38 
16 39 15 37 15 36 16 36 15 34 15 33 15 32 16 31 
15 29 15 27 16 26 15 24 15 22 16 20 15 18 15 16 
16 15 15 12 15 10 16 7 15 6 15 3 15 1 655 2748 256 MP stroke
/c10 { 1.000000 0.000000 0.000000 sr} bdef
c10
16 -6 15 -10 15 -14 16 -18 15 -21 15 -25 16 -28 15 -30 
15 -33 16 -34 15 -37 15 -37 16 -38 15 21 15 38 16 38 
15 36 15 35 15 33 16 31 15 28 15 25 16 21 15 18 
15 14 16 10 15 6 15 1 16 -3 15 -7 15 -12 16 -16 
15 -20 15 -24 15 -28 16 -31 15 -34 15 -37 16 -39 15 -41 
15 -43 16 -14 15 44 15 44 16 43 15 42 15 41 16 38 
15 36 15 33 15 29 16 26 15 21 15 17 16 11 15 7 
15 1 16 -4 15 -9 15 -15 16 -21 15 -26 15 -31 16 -36 
15 -40 15 -45 16 -49 15 -52 15 -55 15 -58 16 46 15 61 
15 61 16 60 15 60 15 59 16 56 15 53 15 49 16 45 
15 39 15 34 16 28 15 21 15 13 15 5 16 -3 15 -12 
15 -20 16 -30 15 -39 15 -49 16 -58 15 -67 15 -77 16 -85 
15 -94 15 -102 16 -11 15 117 15 124 15 130 16 134 15 139 
15 143 16 146 15 147 15 148 16 148 15 147 15 145 16 142 
15 138 15 134 16 127 15 121 15 113 16 106 15 96 15 86 
15 77 16 65 15 54 15 43 16 31 15 18 15 6 16 -6 
15 -18 15 -31 16 -43 15 -54 15 -65 16 -77 15 -86 15 -96 
15 -106 16 -113 15 -121 15 -127 16 -134 15 -138 15 -142 16 -145 
15 -147 15 -148 16 -148 15 -147 15 -146 16 -143 15 -139 15 -134 
15 -130 16 -124 15 -117 15 11 16 102 15 94 15 85 16 77 
15 67 15 58 16 49 15 39 15 30 16 20 15 12 15 3 
16 -5 15 -13 15 -21 15 -28 16 -34 15 -39 15 -45 16 -49 
15 -53 15 -56 16 -59 15 -60 15 -60 16 -61 15 -61 15 -46 
16 58 15 55 15 52 15 49 16 45 15 40 15 36 16 31 
15 26 15 21 16 15 15 9 15 4 16 -1 15 -7 15 -11 
16 -17 15 -21 15 -26 15 -29 16 -33 15 -36 15 -38 16 -41 
15 -42 15 -43 16 -44 15 -44 15 14 16 43 15 41 15 39 
16 37 15 34 15 31 16 28 15 24 15 20 15 16 16 12 
15 7 15 3 16 -1 15 -6 15 -10 16 -14 15 -18 15 -21 
16 -25 15 -28 15 -31 16 -33 15 -35 15 -36 15 -38 16 -38 
15 -21 15 38 16 37 15 37 15 34 16 33 15 30 15 28 
16 25 15 21 15 18 16 14 15 10 15 6 15 2 655 3022 256 MP stroke
gr

c10
0 sg
 638 3407 mt 
( ) s
4544  325 mt 
( ) s
1 sg
0 480 700 0 0 -480 3801 823 4 MP
PP
-700 0 0 480 700 0 0 -480 3801 823 5 MP stroke
4 w
DO
SO
6 w
0 sg
3801  343 mt 4501  343 L
3801  823 mt 4501  823 L
4501  823 mt 4501  343 L
3801  823 mt 3801  343 L
3801  823 mt 4501  823 L
3801  823 mt 3801  343 L
3801  343 mt 4501  343 L
3801  823 mt 4501  823 L
4501  823 mt 4501  343 L
3801  823 mt 3801  343 L
4262  478 mt 
(3x3) s
gs 3801 343 701 481 rc
c8
355 0 3871 435 2 MP stroke
gr

c8
0 sg
4262  626 mt 
(5x5) s
gs 3801 343 701 481 rc
c9
355 0 3871 583 2 MP stroke
gr

c9
0 sg
4262  774 mt 
(9x9) s
gs 3801 343 701 481 rc
c10
355 0 3871 730 2 MP stroke
gr

c10

end %%Color Dict

eplot
%%EndObject

epage
end

showpage

%%Trailer
%%EOF
