%!PS-Adobe-3.0 EPSF-3.0
%%Creator: MATLAB, The MathWorks, Inc. Version 7.11.0.584 (R2010b). Operating System: Microsoft Windows 7.
%%Title: D:\Dropbox\document\work\ELE747\Cours\cours3\content\matlab\mesh_gauss_5_2.eps
%%CreationDate: 01/17/2011  13:33:11
%%DocumentNeededFonts: Helvetica
%%DocumentProcessColors: Cyan Magenta Yellow Black
%%LanguageLevel: 2
%%Pages: 1
%%BoundingBox:    96   238   515   553
%%EndComments

%%BeginProlog
% MathWorks dictionary
/MathWorks 160 dict begin
% definition operators
/bdef {bind def} bind def
/ldef {load def} bind def
/xdef {exch def} bdef
/xstore {exch store} bdef
% operator abbreviations
/c  /clip ldef
/cc /concat ldef
/cp /closepath ldef
/gr /grestore ldef
/gs /gsave ldef
/mt /moveto ldef
/np /newpath ldef
/cm /currentmatrix ldef
/sm /setmatrix ldef
/rm /rmoveto ldef
/rl /rlineto ldef
/s {show newpath} bdef
/sc {setcmykcolor} bdef
/sr /setrgbcolor ldef
/sg /setgray ldef
/w /setlinewidth ldef
/j /setlinejoin ldef
/cap /setlinecap ldef
/rc {rectclip} bdef
/rf {rectfill} bdef
% page state control
/pgsv () def
/bpage {/pgsv save def} bdef
/epage {pgsv restore} bdef
/bplot /gsave ldef
/eplot {stroke grestore} bdef
% orientation switch
/portraitMode 0 def /landscapeMode 1 def /rotateMode 2 def
% coordinate system mappings
/dpi2point 0 def
% font control
/FontSize 0 def
/FMS {/FontSize xstore findfont [FontSize 0 0 FontSize neg 0 0]
  makefont setfont} bdef
/ISOLatin1Encoding where {pop /WindowsLatin1Encoding 256 array bdef
ISOLatin1Encoding WindowsLatin1Encoding copy pop
/.notdef/.notdef/quotesinglbase/florin/quotedblbase/ellipsis/dagger
/daggerdbl/circumflex/perthousand/Scaron/guilsinglleft/OE/.notdef/.notdef
/.notdef/.notdef/quoteleft/quoteright/quotedblleft/quotedblright/bullet
/endash/emdash/tilde/trademark/scaron/guilsinglright/oe/.notdef/.notdef
/Ydieresis WindowsLatin1Encoding 128 32 getinterval astore pop}
{/WindowsLatin1Encoding StandardEncoding bdef} ifelse
/reencode {exch dup where {pop load} {pop StandardEncoding} ifelse
  exch dup 3 1 roll findfont dup length dict begin
  { 1 index /FID ne {def}{pop pop} ifelse } forall
  /Encoding exch def currentdict end definefont pop} bdef
/isroman {findfont /CharStrings get /Agrave known} bdef
/FMSR {3 1 roll 1 index dup isroman {reencode} {pop pop} ifelse
  exch FMS} bdef
/csm {1 dpi2point div -1 dpi2point div scale neg translate
 dup landscapeMode eq {pop -90 rotate}
  {rotateMode eq {90 rotate} if} ifelse} bdef
% line types: solid, dotted, dashed, dotdash
/SO { [] 0 setdash } bdef
/DO { [.5 dpi2point mul 4 dpi2point mul] 0 setdash } bdef
/DA { [6 dpi2point mul] 0 setdash } bdef
/DD { [.5 dpi2point mul 4 dpi2point mul 6 dpi2point mul 4
  dpi2point mul] 0 setdash } bdef
% macros for lines and objects
/L {lineto stroke} bdef
/MP {3 1 roll moveto 1 sub {rlineto} repeat} bdef
/AP {{rlineto} repeat} bdef
/PDlw -1 def
/W {/PDlw currentlinewidth def setlinewidth} def
/PP {closepath eofill} bdef
/DP {closepath stroke} bdef
/MR {4 -2 roll moveto dup  0 exch rlineto exch 0 rlineto
  neg 0 exch rlineto closepath} bdef
/FR {MR stroke} bdef
/PR {MR fill} bdef
/L1i {{currentfile picstr readhexstring pop} image} bdef
/tMatrix matrix def
/MakeOval {newpath tMatrix currentmatrix pop translate scale
0 0 1 0 360 arc tMatrix setmatrix} bdef
/FO {MakeOval stroke} bdef
/PO {MakeOval fill} bdef
/PD {currentlinewidth 2 div 0 360 arc fill
   PDlw -1 eq not {PDlw w /PDlw -1 def} if} def
/FA {newpath tMatrix currentmatrix pop translate scale
  0 0 1 5 -2 roll arc tMatrix setmatrix stroke} bdef
/PA {newpath tMatrix currentmatrix pop	translate 0 0 moveto scale
  0 0 1 5 -2 roll arc closepath tMatrix setmatrix fill} bdef
/FAn {newpath tMatrix currentmatrix pop translate scale
  0 0 1 5 -2 roll arcn tMatrix setmatrix stroke} bdef
/PAn {newpath tMatrix currentmatrix pop translate 0 0 moveto scale
  0 0 1 5 -2 roll arcn closepath tMatrix setmatrix fill} bdef
/vradius 0 def /hradius 0 def /lry 0 def
/lrx 0 def /uly 0 def /ulx 0 def /rad 0 def
/MRR {/vradius xdef /hradius xdef /lry xdef /lrx xdef /uly xdef
  /ulx xdef newpath tMatrix currentmatrix pop ulx hradius add uly
  vradius add translate hradius vradius scale 0 0 1 180 270 arc 
  tMatrix setmatrix lrx hradius sub uly vradius add translate
  hradius vradius scale 0 0 1 270 360 arc tMatrix setmatrix
  lrx hradius sub lry vradius sub translate hradius vradius scale
  0 0 1 0 90 arc tMatrix setmatrix ulx hradius add lry vradius sub
  translate hradius vradius scale 0 0 1 90 180 arc tMatrix setmatrix
  closepath} bdef
/FRR {MRR stroke } bdef
/PRR {MRR fill } bdef
/MlrRR {/lry xdef /lrx xdef /uly xdef /ulx xdef /rad lry uly sub 2 div def
  newpath tMatrix currentmatrix pop ulx rad add uly rad add translate
  rad rad scale 0 0 1 90 270 arc tMatrix setmatrix lrx rad sub lry rad
  sub translate rad rad scale 0 0 1 270 90 arc tMatrix setmatrix
  closepath} bdef
/FlrRR {MlrRR stroke } bdef
/PlrRR {MlrRR fill } bdef
/MtbRR {/lry xdef /lrx xdef /uly xdef /ulx xdef /rad lrx ulx sub 2 div def
  newpath tMatrix currentmatrix pop ulx rad add uly rad add translate
  rad rad scale 0 0 1 180 360 arc tMatrix setmatrix lrx rad sub lry rad
  sub translate rad rad scale 0 0 1 0 180 arc tMatrix setmatrix
  closepath} bdef
/FtbRR {MtbRR stroke } bdef
/PtbRR {MtbRR fill } bdef
/stri 6 array def /dtri 6 array def
/smat 6 array def /dmat 6 array def
/tmat1 6 array def /tmat2 6 array def /dif 3 array def
/asub {/ind2 exch def /ind1 exch def dup dup
  ind1 get exch ind2 get sub exch } bdef
/tri_to_matrix {
  2 0 asub 3 1 asub 4 0 asub 5 1 asub
  dup 0 get exch 1 get 7 -1 roll astore } bdef
/compute_transform {
  dmat dtri tri_to_matrix tmat1 invertmatrix 
  smat stri tri_to_matrix tmat2 concatmatrix } bdef
/ds {stri astore pop} bdef
/dt {dtri astore pop} bdef
/db {2 copy /cols xdef /rows xdef mul dup 3 mul string
  currentfile 
  3 index 0 eq {/ASCIIHexDecode filter}
  {/ASCII85Decode filter 3 index 2 eq {/RunLengthDecode filter} if }
  ifelse exch readstring pop
  dup 0 3 index getinterval /rbmap xdef
  dup 2 index dup getinterval /gbmap xdef
  1 index dup 2 mul exch getinterval /bbmap xdef pop pop}bdef
/it {gs np dtri aload pop moveto lineto lineto cp c
  cols rows 8 compute_transform 
  rbmap gbmap bbmap true 3 colorimage gr}bdef
/il {newpath moveto lineto stroke}bdef
currentdict end def
%%EndProlog

%%BeginSetup
MathWorks begin

0 cap

end
%%EndSetup

%%Page: 1 1
%%BeginPageSetup
%%PageBoundingBox:    96   238   515   553
MathWorks begin
bpage
%%EndPageSetup

%%BeginObject: obj1
bplot

/dpi2point 12 def
portraitMode 1152 6636 csm

    0     0  5039  3780 rc
85 dict begin %Colortable dictionary
/c0 { 0.000000 0.000000 0.000000 sr} bdef
/c1 { 1.000000 1.000000 1.000000 sr} bdef
/c2 { 0.900000 0.000000 0.000000 sr} bdef
/c3 { 0.000000 0.820000 0.000000 sr} bdef
/c4 { 0.000000 0.000000 0.800000 sr} bdef
/c5 { 0.910000 0.820000 0.320000 sr} bdef
/c6 { 1.000000 0.260000 0.820000 sr} bdef
/c7 { 0.000000 0.820000 0.820000 sr} bdef
c0
1 j
1 sg
   0    0 5040 3781 rf
6 w
0 1703 -1696 -780 0 -1703 4560 2765 4 MP
PP
1696 780 0 1703 -1696 -780 0 -1703 4560 2765 5 MP stroke
1696 780 2209 -599 -1695 -779 2350 3363 4 MP
PP
-2210 598 1696 780 2209 -599 -1695 -779 2350 3363 5 MP stroke
0 1703 2209 -599 0 -1703 655 2584 4 MP
PP
-2209 599 0 1703 2209 -599 0 -1703 655 2584 5 MP stroke
4 w
DO
SO
6 w
0 sg
2350 3363 mt 4560 2765 L
2350 3363 mt  655 2584 L
 655 2584 mt  655  881 L
2350 3363 mt 2402 3387 L
%%IncludeResource: font Helvetica
/Helvetica /WindowsLatin1Encoding 120 FMSR

2433 3513 mt 
(0) s
2902 3214 mt 2954 3238 L
2986 3363 mt 
(1) s
3455 3064 mt 3507 3088 L
3538 3214 mt 
(2) s
4007 2915 mt 4059 2939 L
4091 3064 mt 
(3) s
4560 2765 mt 4612 2789 L
4643 2914 mt 
(4) s
2350 3363 mt 2295 3378 L
2195 3498 mt 
(0) s
1926 3169 mt 1871 3183 L
1771 3304 mt 
(1) s
1502 2974 mt 1447 2989 L
1348 3109 mt 
(2) s
1078 2779 mt 1023 2794 L
 924 2914 mt 
(3) s
 655 2584 mt  599 2599 L
 500 2719 mt 
(4) s
 655 2584 mt  602 2560 L
 338 2589 mt 
(0.02) s
 655 2243 mt  602 2219 L
 338 2249 mt 
(0.03) s
 655 1903 mt  602 1879 L
 338 1908 mt 
(0.04) s
 655 1562 mt  602 1538 L
 338 1568 mt 
(0.05) s
 655 1221 mt  602 1198 L
 338 1227 mt 
(0.06) s
 655  881 mt  602  857 L
 338  887 mt 
(0.07) s
gs 655 282 3906 3082 rc
1 sg
0 0 0 0 4560 2654 3 MP
PP
/c8 { 0.562500 1.000000 0.437500 sr} bdef
c8
4560 2654 mt 4560 2654 L
4560 2654 mt 4560 2654 L
4560 2654 mt 4560 2654 L
1 sg
0 0 -424 -555 4560 2654 3 MP
PP
/c9 { 0.000000 0.000000 0.562500 sr} bdef
c9
4560 2654 mt 4136 2099 L
/c10 { 0.000000 0.562500 1.000000 sr} bdef
c10
4136 2099 mt 4136 2099 L
c8
4136 2099 mt 4560 2654 L
1 sg
0 0 0 0 4560 2654 3 MP
PP
c8
4560 2654 mt 4560 2654 L
4560 2654 mt 4560 2654 L
4560 2654 mt 4560 2654 L
1 sg
0 0 0 0 4560 2654 3 MP
PP
c8
4560 2654 mt 4560 2654 L
c9
4560 2654 mt 4560 2654 L
c8
4560 2654 mt 4560 2654 L
1 sg
0 0 553 -150 4007 2804 3 MP
PP
c8
4007 2804 mt 4560 2654 L
4560 2654 mt 4560 2654 L
1 sg
553 210 0 -360 4007 2804 3 MP
PP
c8
4007 2804 mt 4007 2444 L
4007 2444 mt 4560 2654 L
4560 2654 mt 4007 2804 L
1 sg
0 0 553 210 4007 2444 3 MP
PP
c8
4007 2444 mt 4560 2654 L
4560 2654 mt 4560 2654 L
c9
4560 2654 mt 4007 2444 L
1 sg
553 210 0 0 4007 2444 3 MP
PP
c8
4007 2444 mt 4007 2444 L
c10
4007 2444 mt 4560 2654 L
c9
4560 2654 mt 4007 2444 L
1 sg
0 0 0 0 4560 2654 3 MP
PP
c8
4560 2654 mt 4560 2654 L
4560 2654 mt 4560 2654 L
4560 2654 mt 4560 2654 L
1 sg
0 0 0 0 4560 2654 3 MP
PP
c8
4560 2654 mt 4560 2654 L
4560 2654 mt 4560 2654 L
4560 2654 mt 4560 2654 L
1 sg
0 361 -424 -555 4560 2654 3 MP
PP
c8
4560 2654 mt 4136 2099 L
4136 2099 mt 4136 2460 L
4136 2460 mt 4560 2654 L
1 sg
-424 -194 0 0 4560 2654 3 MP
PP
c8
4560 2654 mt 4560 2654 L
4560 2654 mt 4136 2460 L
1 sg
0 0 0 0 4560 2654 3 MP
PP
c8
4560 2654 mt 4560 2654 L
4560 2654 mt 4560 2654 L
4560 2654 mt 4560 2654 L
1 sg
0 0 0 0 4560 2654 3 MP
PP
c8
4560 2654 mt 4560 2654 L
4560 2654 mt 4560 2654 L
4560 2654 mt 4560 2654 L
1 sg
-424 -555 0 0 4560 2654 3 MP
PP
c9
4560 2654 mt 4560 2654 L
c8
4560 2654 mt 4136 2099 L
4136 2099 mt 4560 2654 L
1 sg
0 0 0 0 4560 2654 3 MP
PP
c8
4560 2654 mt 4560 2654 L
4560 2654 mt 4560 2654 L
4560 2654 mt 4560 2654 L
1 sg
-424 -195 0 361 4136 2099 3 MP
PP
c8
4136 2099 mt 4136 2460 L
4136 2460 mt 3712 2265 L
1 sg
-424 -555 553 210 4007 2444 3 MP
PP
c10
4007 2444 mt 4560 2654 L
c9
4560 2654 mt 4136 2099 L
1 sg
-424 -195 0 514 3712 1751 3 MP
PP
c8
3712 1751 mt 3712 2265 L
3712 2265 mt 3288 2070 L
1 sg
0 361 -424 -42 3712 1751 3 MP
PP
c8
3712 1751 mt 3288 1709 L
3288 1709 mt 3288 2070 L
1 sg
-424 -42 553 444 3159 1307 3 MP
PP
/c11 { 1.000000 0.187500 0.000000 sr} bdef
c11
3159 1307 mt 3712 1751 L
/c12 { 0.062500 1.000000 0.937500 sr} bdef
c12
3712 1751 mt 3288 1709 L
1 sg
0 0 -424 -42 3712 1751 3 MP
PP
c12
3712 1751 mt 3288 1709 L
c10
3288 1709 mt 3288 1709 L
c8
3288 1709 mt 3712 1751 L
1 sg
-424 -42 0 0 3712 1751 3 MP
PP
c12
3712 1751 mt 3712 1751 L
c8
3712 1751 mt 3288 1709 L
3288 1709 mt 3712 1751 L
1 sg
0 514 -424 -348 4136 2099 3 MP
PP
c8
4136 2099 mt 3712 1751 L
3712 1751 mt 3712 2265 L
1 sg
553 374 -424 -719 4007 2444 3 MP
PP
c10
4007 2444 mt 3583 1725 L
/c13 { 1.000000 0.875000 0.000000 sr} bdef
c13
3583 1725 mt 4136 2099 L
1 sg
-424 -348 553 374 3583 1725 3 MP
PP
c13
3583 1725 mt 4136 2099 L
c10
4136 2099 mt 3712 1751 L
1 sg
0 0 -424 -348 4136 2099 3 MP
PP
c10
4136 2099 mt 3712 1751 L
c12
3712 1751 mt 3712 1751 L
c8
3712 1751 mt 4136 2099 L
1 sg
-424 -348 0 0 4136 2099 3 MP
PP
c10
4136 2099 mt 4136 2099 L
c8
4136 2099 mt 3712 1751 L
3712 1751 mt 4136 2099 L
1 sg
-424 -719 552 4 3455 2440 3 MP
PP
c12
3455 2440 mt 4007 2444 L
c10
4007 2444 mt 3583 1725 L
1 sg
0 0 552 4 3455 2440 3 MP
PP
c8
3455 2440 mt 4007 2444 L
4007 2444 mt 4007 2444 L
c10
4007 2444 mt 3455 2440 L
1 sg
552 4 0 -514 3455 2954 3 MP
PP
c8
3455 2954 mt 3455 2440 L
3455 2440 mt 4007 2444 L
1 sg
552 4 0 0 3455 2440 3 MP
PP
c8
3455 2440 mt 3455 2440 L
c12
3455 2440 mt 4007 2444 L
c10
4007 2444 mt 3455 2440 L
1 sg
0 -360 552 -150 3455 2954 3 MP
PP
c8
3455 2954 mt 4007 2804 L
4007 2804 mt 4007 2444 L
1 sg
553 444 -424 -418 3583 1725 3 MP
PP
c13
3583 1725 mt 3159 1307 L
c11
3159 1307 mt 3712 1751 L
1 sg
0 0 -424 166 3288 1709 3 MP
PP
c8
3288 1709 mt 2864 1875 L
2864 1875 mt 2864 1875 L
1 sg
-424 -195 0 361 3288 1709 3 MP
PP
c8
3288 1709 mt 3288 2070 L
3288 2070 mt 2864 1875 L
2864 1875 mt 3288 1709 L
1 sg
0 0 -424 166 3288 1709 3 MP
PP
c10
3288 1709 mt 2864 1875 L
c9
2864 1875 mt 2864 1875 L
c8
2864 1875 mt 3288 1709 L
1 sg
552 374 -423 28 3159 1307 3 MP
PP
c11
3159 1307 mt 2736 1335 L
c13
2736 1335 mt 3288 1709 L
1 sg
-424 166 552 374 2736 1335 3 MP
PP
c13
2736 1335 mt 3288 1709 L
c10
3288 1709 mt 2864 1875 L
1 sg
-424 166 0 0 3288 1709 3 MP
PP
c10
3288 1709 mt 3288 1709 L
c8
3288 1709 mt 2864 1875 L
2864 1875 mt 3288 1709 L
1 sg
552 74 -424 -789 3455 2440 3 MP
PP
c12
3455 2440 mt 3031 1651 L
c11
3031 1651 mt 3583 1725 L
1 sg
-424 -418 552 74 3031 1651 3 MP
PP
c11
3031 1651 mt 3583 1725 L
c13
3583 1725 mt 3159 1307 L
1 sg
553 -303 0 -360 2902 3103 3 MP
PP
c8
2902 3103 mt 2902 2743 L
2902 2743 mt 3455 2440 L
1 sg
0 -514 553 -149 2902 3103 3 MP
PP
c8
2902 3103 mt 3455 2954 L
3455 2954 mt 3455 2440 L
1 sg
0 0 553 -303 2902 2743 3 MP
PP
c8
2902 2743 mt 3455 2440 L
3455 2440 mt 3455 2440 L
c12
3455 2440 mt 2902 2743 L
1 sg
-424 -789 553 -303 2902 2743 3 MP
PP
c10
2902 2743 mt 3455 2440 L
c12
3455 2440 mt 3031 1651 L
1 sg
553 -303 0 0 2902 2743 3 MP
PP
c8
2902 2743 mt 2902 2743 L
c10
2902 2743 mt 3455 2440 L
c12
3455 2440 mt 2902 2743 L
1 sg
553 74 -424 57 2607 1204 3 MP
PP
/c14 { 0.500000 0.000000 0.000000 sr} bdef
c14
2607 1204 mt 2183 1261 L
c11
2183 1261 mt 2736 1335 L
1 sg
-424 329 553 74 2183 1261 3 MP
PP
c11
2183 1261 mt 2736 1335 L
c13
2736 1335 mt 2312 1664 L
1 sg
552 211 -424 329 2736 1335 3 MP
PP
c13
2736 1335 mt 2312 1664 L
c10
2312 1664 mt 2864 1875 L
1 sg
-423 28 552 103 2607 1204 3 MP
PP
c14
2607 1204 mt 3159 1307 L
c11
3159 1307 mt 2736 1335 L
1 sg
552 103 -424 -447 3031 1651 3 MP
PP
c11
3031 1651 mt 2607 1204 L
c14
2607 1204 mt 3159 1307 L
1 sg
0 0 0 0 2864 1875 3 MP
PP
c8
2864 1875 mt 2864 1875 L
2864 1875 mt 2864 1875 L
2864 1875 mt 2864 1875 L
1 sg
0 0 0 0 2864 1875 3 MP
PP
c8
2864 1875 mt 2864 1875 L
2864 1875 mt 2864 1875 L
2864 1875 mt 2864 1875 L
1 sg
0 0 0 0 2864 1875 3 MP
PP
c8
2864 1875 mt 2864 1875 L
2864 1875 mt 2864 1875 L
2864 1875 mt 2864 1875 L
1 sg
0 0 0 0 2864 1875 3 MP
PP
c8
2864 1875 mt 2864 1875 L
2864 1875 mt 2864 1875 L
2864 1875 mt 2864 1875 L
1 sg
0 0 0 0 2864 1875 3 MP
PP
c8
2864 1875 mt 2864 1875 L
2864 1875 mt 2864 1875 L
2864 1875 mt 2864 1875 L
1 sg
0 0 0 0 2864 1875 3 MP
PP
c9
2864 1875 mt 2864 1875 L
c8
2864 1875 mt 2864 1875 L
2864 1875 mt 2864 1875 L
1 sg
0 0 552 211 2312 1664 3 MP
PP
c10
2312 1664 mt 2864 1875 L
c9
2864 1875 mt 2864 1875 L
c8
2864 1875 mt 2312 1664 L
1 sg
552 211 0 0 2312 1664 3 MP
PP
c10
2312 1664 mt 2312 1664 L
c8
2312 1664 mt 2864 1875 L
2864 1875 mt 2312 1664 L
1 sg
0 0 0 0 2864 1875 3 MP
PP
c9
2864 1875 mt 2864 1875 L
c8
2864 1875 mt 2864 1875 L
2864 1875 mt 2864 1875 L
1 sg
0 0 0 0 2864 1875 3 MP
PP
c8
2864 1875 mt 2864 1875 L
2864 1875 mt 2864 1875 L
2864 1875 mt 2864 1875 L
1 sg
0 0 552 211 2312 1664 3 MP
PP
c8
2312 1664 mt 2864 1875 L
2864 1875 mt 2864 1875 L
1 sg
552 -149 0 360 2312 1664 3 MP
PP
c8
2312 1664 mt 2312 2024 L
2312 2024 mt 2864 1875 L
2864 1875 mt 2312 1664 L
1 sg
553 -373 -424 -719 2902 2743 3 MP
PP
c10
2902 2743 mt 2478 2024 L
c13
2478 2024 mt 3031 1651 L
1 sg
-424 -447 553 -373 2478 2024 3 MP
PP
c13
2478 2024 mt 3031 1651 L
c11
3031 1651 mt 2607 1204 L
1 sg
0 0 552 -510 2350 3253 3 MP
PP
c8
2350 3253 mt 2902 2743 L
2902 2743 mt 2902 2743 L
c10
2902 2743 mt 2350 3253 L
1 sg
552 -510 0 0 2350 3253 3 MP
PP
c8
2350 3253 mt 2350 3253 L
c9
2350 3253 mt 2902 2743 L
c10
2902 2743 mt 2350 3253 L
1 sg
-424 -719 552 -510 2350 3253 3 MP
PP
c9
2350 3253 mt 2902 2743 L
c10
2902 2743 mt 2478 2024 L
1 sg
0 -360 552 -150 2350 3253 3 MP
PP
c8
2350 3253 mt 2902 3103 L
2902 3103 mt 2902 2743 L
2902 2743 mt 2350 3253 L
1 sg
552 -510 0 0 2350 3253 3 MP
PP
c8
2350 3253 mt 2350 3253 L
2350 3253 mt 2902 2743 L
1 sg
553 4 -424 399 2183 1261 3 MP
PP
c11
2183 1261 mt 1759 1660 L
c12
1759 1660 mt 2312 1664 L
1 sg
-424 57 552 -402 2055 1606 3 MP
PP
c11
2055 1606 mt 2607 1204 L
c14
2607 1204 mt 2183 1261 L
1 sg
553 4 0 0 1759 1660 3 MP
PP
c12
1759 1660 mt 1759 1660 L
c8
1759 1660 mt 2312 1664 L
2312 1664 mt 1759 1660 L
1 sg
0 360 553 4 1759 1660 3 MP
PP
c8
1759 1660 mt 2312 1664 L
2312 1664 mt 2312 2024 L
1 sg
0 0 553 4 1759 1660 3 MP
PP
c12
1759 1660 mt 2312 1664 L
c10
2312 1664 mt 2312 1664 L
c8
2312 1664 mt 1759 1660 L
1 sg
552 -402 -423 -418 2478 2024 3 MP
PP
c13
2478 2024 mt 2055 1606 L
c11
2055 1606 mt 2607 1204 L
1 sg
553 -150 0 514 1759 1660 3 MP
PP
c8
1759 1660 mt 1759 2174 L
1759 2174 mt 2312 2024 L
1 sg
-423 -418 552 -674 1926 2698 3 MP
PP
c10
1926 2698 mt 2478 2024 L
c13
2478 2024 mt 2055 1606 L
1 sg
552 -674 -424 -555 2350 3253 3 MP
PP
c9
2350 3253 mt 1926 2698 L
c10
1926 2698 mt 2478 2024 L
1 sg
0 0 -424 -555 2350 3253 3 MP
PP
c8
2350 3253 mt 1926 2698 L
1926 2698 mt 1926 2698 L
c10
1926 2698 mt 2350 3253 L
1 sg
0 0 0 0 2350 3253 3 MP
PP
c8
2350 3253 mt 2350 3253 L
2350 3253 mt 2350 3253 L
c9
2350 3253 mt 2350 3253 L
1 sg
0 0 0 0 2350 3253 3 MP
PP
c8
2350 3253 mt 2350 3253 L
2350 3253 mt 2350 3253 L
c9
2350 3253 mt 2350 3253 L
1 sg
0 0 0 0 2350 3253 3 MP
PP
c8
2350 3253 mt 2350 3253 L
2350 3253 mt 2350 3253 L
2350 3253 mt 2350 3253 L
1 sg
-424 -555 0 0 2350 3253 3 MP
PP
c8
2350 3253 mt 2350 3253 L
c9
2350 3253 mt 1926 2698 L
c10
1926 2698 mt 2350 3253 L
1 sg
0 -360 -424 -195 2350 3253 3 MP
PP
c8
2350 3253 mt 1926 3058 L
1926 3058 mt 1926 2698 L
1926 2698 mt 2350 3253 L
1 sg
-424 -555 0 0 2350 3253 3 MP
PP
c8
2350 3253 mt 2350 3253 L
2350 3253 mt 1926 2698 L
1 sg
0 0 0 0 2350 3253 3 MP
PP
c8
2350 3253 mt 2350 3253 L
2350 3253 mt 2350 3253 L
2350 3253 mt 2350 3253 L
1 sg
0 0 0 0 2350 3253 3 MP
PP
c8
2350 3253 mt 2350 3253 L
2350 3253 mt 2350 3253 L
2350 3253 mt 2350 3253 L
1 sg
0 0 0 0 2350 3253 3 MP
PP
c8
2350 3253 mt 2350 3253 L
2350 3253 mt 2350 3253 L
2350 3253 mt 2350 3253 L
1 sg
0 0 0 0 2350 3253 3 MP
PP
c8
2350 3253 mt 2350 3253 L
2350 3253 mt 2350 3253 L
2350 3253 mt 2350 3253 L
1 sg
0 0 0 0 2350 3253 3 MP
PP
c8
2350 3253 mt 2350 3253 L
2350 3253 mt 2350 3253 L
2350 3253 mt 2350 3253 L
1 sg
-424 399 552 -373 1631 1634 3 MP
PP
c13
1631 1634 mt 2183 1261 L
c11
2183 1261 mt 1759 1660 L
1 sg
552 -373 -424 28 2055 1606 3 MP
PP
c11
2055 1606 mt 1631 1634 L
c13
1631 1634 mt 2183 1261 L
1 sg
0 0 552 -303 1207 1963 3 MP
PP
c10
1207 1963 mt 1759 1660 L
c12
1759 1660 mt 1759 1660 L
c8
1759 1660 mt 1207 1963 L
1 sg
552 -303 -424 329 1631 1634 3 MP
PP
c13
1631 1634 mt 1207 1963 L
c10
1207 1963 mt 1759 1660 L
1 sg
552 -149 0 360 1207 1963 3 MP
PP
c8
1207 1963 mt 1207 2323 L
1207 2323 mt 1759 2174 L
1 sg
0 514 552 -303 1207 1963 3 MP
PP
c8
1207 1963 mt 1759 1660 L
1759 1660 mt 1759 2174 L
1 sg
552 -303 0 0 1207 1963 3 MP
PP
c10
1207 1963 mt 1207 1963 L
c8
1207 1963 mt 1759 1660 L
1759 1660 mt 1207 1963 L
1 sg
-424 28 553 -743 1502 2349 3 MP
PP
c12
1502 2349 mt 2055 1606 L
c11
2055 1606 mt 1631 1634 L
1 sg
553 -743 -424 -349 1926 2698 3 MP
PP
c10
1926 2698 mt 1502 2349 L
c12
1502 2349 mt 2055 1606 L
1 sg
0 -514 -424 -195 1926 3058 3 MP
PP
c8
1926 3058 mt 1502 2863 L
1502 2863 mt 1502 2349 L
1 sg
-424 -349 0 -360 1926 3058 3 MP
PP
c8
1926 3058 mt 1926 2698 L
1926 2698 mt 1502 2349 L
1 sg
-424 -349 0 0 1926 2698 3 MP
PP
c8
1926 2698 mt 1926 2698 L
c10
1926 2698 mt 1502 2349 L
c12
1502 2349 mt 1926 2698 L
1 sg
0 0 -424 -349 1926 2698 3 MP
PP
c8
1926 2698 mt 1502 2349 L
1502 2349 mt 1502 2349 L
c12
1502 2349 mt 1926 2698 L
1 sg
0 360 552 -510 655 2473 3 MP
PP
c8
 655 2473 mt 1207 1963 L
1207 1963 mt 1207 2323 L
1207 2323 mt  655 2473 L
1 sg
553 -674 -424 -41 1502 2349 3 MP
PP
c12
1502 2349 mt 1078 2308 L
c10
1078 2308 mt 1631 1634 L
1 sg
-424 329 553 -674 1078 2308 3 MP
PP
c10
1078 2308 mt 1631 1634 L
c13
1631 1634 mt 1207 1963 L
1 sg
552 -150 0 0 655 2473 3 MP
PP
c8
 655 2473 mt  655 2473 L
 655 2473 mt 1207 2323 L
1 sg
0 -360 -424 -195 1502 2863 3 MP
PP
c8
1502 2863 mt 1078 2668 L
1078 2668 mt 1078 2308 L
1 sg
0 0 -424 -41 1502 2349 3 MP
PP
c8
1502 2349 mt 1078 2308 L
1078 2308 mt 1078 2308 L
c10
1078 2308 mt 1502 2349 L
1 sg
-424 -41 0 0 1502 2349 3 MP
PP
c8
1502 2349 mt 1502 2349 L
c12
1502 2349 mt 1078 2308 L
c10
1078 2308 mt 1502 2349 L
1 sg
-424 -41 0 -514 1502 2863 3 MP
PP
c8
1502 2863 mt 1502 2349 L
1502 2349 mt 1078 2308 L
1 sg
552 -510 0 0 655 2473 3 MP
PP
c9
 655 2473 mt  655 2473 L
c8
 655 2473 mt 1207 1963 L
1207 1963 mt  655 2473 L
1 sg
552 -510 -423 165 1078 2308 3 MP
PP
c10
1078 2308 mt  655 2473 L
c9
 655 2473 mt 1207 1963 L
1 sg
0 0 552 -510 655 2473 3 MP
PP
c9
 655 2473 mt 1207 1963 L
c10
1207 1963 mt 1207 1963 L
c8
1207 1963 mt  655 2473 L
1 sg
-423 165 0 -360 1078 2668 3 MP
PP
c8
1078 2668 mt 1078 2308 L
1078 2308 mt  655 2473 L
 655 2473 mt 1078 2668 L
1 sg
-423 165 0 0 1078 2308 3 MP
PP
c8
1078 2308 mt 1078 2308 L
c10
1078 2308 mt  655 2473 L
c9
 655 2473 mt 1078 2308 L
1 sg
0 0 -423 165 1078 2308 3 MP
PP
c8
1078 2308 mt  655 2473 L
 655 2473 mt  655 2473 L
c9
 655 2473 mt 1078 2308 L
1 sg
0 0 -423 -195 1078 2668 3 MP
PP
c8
1078 2668 mt  655 2473 L
 655 2473 mt  655 2473 L
1 sg
0 0 0 0 655 2473 3 MP
PP
c8
 655 2473 mt  655 2473 L
 655 2473 mt  655 2473 L
 655 2473 mt  655 2473 L
1 sg
0 0 0 0 655 2473 3 MP
PP
c8
 655 2473 mt  655 2473 L
 655 2473 mt  655 2473 L
 655 2473 mt  655 2473 L
1 sg
0 0 0 0 655 2473 3 MP
PP
c8
 655 2473 mt  655 2473 L
c9
 655 2473 mt  655 2473 L
c8
 655 2473 mt  655 2473 L
1 sg
0 0 0 0 655 2473 3 MP
PP
c8
 655 2473 mt  655 2473 L
 655 2473 mt  655 2473 L
 655 2473 mt  655 2473 L
1 sg
0 0 0 0 655 2473 3 MP
PP
c8
 655 2473 mt  655 2473 L
 655 2473 mt  655 2473 L
 655 2473 mt  655 2473 L
1 sg
0 0 0 0 655 2473 3 MP
PP
c8
 655 2473 mt  655 2473 L
 655 2473 mt  655 2473 L
 655 2473 mt  655 2473 L
1 sg
0 0 0 0 655 2473 3 MP
PP
c8
 655 2473 mt  655 2473 L
 655 2473 mt  655 2473 L
 655 2473 mt  655 2473 L
1 sg
0 0 0 0 655 2473 3 MP
PP
c8
 655 2473 mt  655 2473 L
 655 2473 mt  655 2473 L
 655 2473 mt  655 2473 L
gr

c8

end %%Color Dict

eplot
%%EndObject

epage
end

showpage

%%Trailer
%%EOF
