%!PS-Adobe-3.0 EPSF-3.0
%%Creator: MATLAB, The MathWorks, Inc. Version 7.11.0.584 (R2010b). Operating System: Microsoft Windows 7.
%%Title: D:\Dropbox\document\work\ELE747\Cours\cours3\content\matlab\mesh_gauss_9_2.eps
%%CreationDate: 01/17/2011  13:34:57
%%DocumentNeededFonts: Helvetica
%%DocumentProcessColors: Cyan Magenta Yellow Black
%%LanguageLevel: 2
%%Pages: 1
%%BoundingBox:    96   238   515   553
%%EndComments

%%BeginProlog
% MathWorks dictionary
/MathWorks 160 dict begin
% definition operators
/bdef {bind def} bind def
/ldef {load def} bind def
/xdef {exch def} bdef
/xstore {exch store} bdef
% operator abbreviations
/c  /clip ldef
/cc /concat ldef
/cp /closepath ldef
/gr /grestore ldef
/gs /gsave ldef
/mt /moveto ldef
/np /newpath ldef
/cm /currentmatrix ldef
/sm /setmatrix ldef
/rm /rmoveto ldef
/rl /rlineto ldef
/s {show newpath} bdef
/sc {setcmykcolor} bdef
/sr /setrgbcolor ldef
/sg /setgray ldef
/w /setlinewidth ldef
/j /setlinejoin ldef
/cap /setlinecap ldef
/rc {rectclip} bdef
/rf {rectfill} bdef
% page state control
/pgsv () def
/bpage {/pgsv save def} bdef
/epage {pgsv restore} bdef
/bplot /gsave ldef
/eplot {stroke grestore} bdef
% orientation switch
/portraitMode 0 def /landscapeMode 1 def /rotateMode 2 def
% coordinate system mappings
/dpi2point 0 def
% font control
/FontSize 0 def
/FMS {/FontSize xstore findfont [FontSize 0 0 FontSize neg 0 0]
  makefont setfont} bdef
/ISOLatin1Encoding where {pop /WindowsLatin1Encoding 256 array bdef
ISOLatin1Encoding WindowsLatin1Encoding copy pop
/.notdef/.notdef/quotesinglbase/florin/quotedblbase/ellipsis/dagger
/daggerdbl/circumflex/perthousand/Scaron/guilsinglleft/OE/.notdef/.notdef
/.notdef/.notdef/quoteleft/quoteright/quotedblleft/quotedblright/bullet
/endash/emdash/tilde/trademark/scaron/guilsinglright/oe/.notdef/.notdef
/Ydieresis WindowsLatin1Encoding 128 32 getinterval astore pop}
{/WindowsLatin1Encoding StandardEncoding bdef} ifelse
/reencode {exch dup where {pop load} {pop StandardEncoding} ifelse
  exch dup 3 1 roll findfont dup length dict begin
  { 1 index /FID ne {def}{pop pop} ifelse } forall
  /Encoding exch def currentdict end definefont pop} bdef
/isroman {findfont /CharStrings get /Agrave known} bdef
/FMSR {3 1 roll 1 index dup isroman {reencode} {pop pop} ifelse
  exch FMS} bdef
/csm {1 dpi2point div -1 dpi2point div scale neg translate
 dup landscapeMode eq {pop -90 rotate}
  {rotateMode eq {90 rotate} if} ifelse} bdef
% line types: solid, dotted, dashed, dotdash
/SO { [] 0 setdash } bdef
/DO { [.5 dpi2point mul 4 dpi2point mul] 0 setdash } bdef
/DA { [6 dpi2point mul] 0 setdash } bdef
/DD { [.5 dpi2point mul 4 dpi2point mul 6 dpi2point mul 4
  dpi2point mul] 0 setdash } bdef
% macros for lines and objects
/L {lineto stroke} bdef
/MP {3 1 roll moveto 1 sub {rlineto} repeat} bdef
/AP {{rlineto} repeat} bdef
/PDlw -1 def
/W {/PDlw currentlinewidth def setlinewidth} def
/PP {closepath eofill} bdef
/DP {closepath stroke} bdef
/MR {4 -2 roll moveto dup  0 exch rlineto exch 0 rlineto
  neg 0 exch rlineto closepath} bdef
/FR {MR stroke} bdef
/PR {MR fill} bdef
/L1i {{currentfile picstr readhexstring pop} image} bdef
/tMatrix matrix def
/MakeOval {newpath tMatrix currentmatrix pop translate scale
0 0 1 0 360 arc tMatrix setmatrix} bdef
/FO {MakeOval stroke} bdef
/PO {MakeOval fill} bdef
/PD {currentlinewidth 2 div 0 360 arc fill
   PDlw -1 eq not {PDlw w /PDlw -1 def} if} def
/FA {newpath tMatrix currentmatrix pop translate scale
  0 0 1 5 -2 roll arc tMatrix setmatrix stroke} bdef
/PA {newpath tMatrix currentmatrix pop	translate 0 0 moveto scale
  0 0 1 5 -2 roll arc closepath tMatrix setmatrix fill} bdef
/FAn {newpath tMatrix currentmatrix pop translate scale
  0 0 1 5 -2 roll arcn tMatrix setmatrix stroke} bdef
/PAn {newpath tMatrix currentmatrix pop translate 0 0 moveto scale
  0 0 1 5 -2 roll arcn closepath tMatrix setmatrix fill} bdef
/vradius 0 def /hradius 0 def /lry 0 def
/lrx 0 def /uly 0 def /ulx 0 def /rad 0 def
/MRR {/vradius xdef /hradius xdef /lry xdef /lrx xdef /uly xdef
  /ulx xdef newpath tMatrix currentmatrix pop ulx hradius add uly
  vradius add translate hradius vradius scale 0 0 1 180 270 arc 
  tMatrix setmatrix lrx hradius sub uly vradius add translate
  hradius vradius scale 0 0 1 270 360 arc tMatrix setmatrix
  lrx hradius sub lry vradius sub translate hradius vradius scale
  0 0 1 0 90 arc tMatrix setmatrix ulx hradius add lry vradius sub
  translate hradius vradius scale 0 0 1 90 180 arc tMatrix setmatrix
  closepath} bdef
/FRR {MRR stroke } bdef
/PRR {MRR fill } bdef
/MlrRR {/lry xdef /lrx xdef /uly xdef /ulx xdef /rad lry uly sub 2 div def
  newpath tMatrix currentmatrix pop ulx rad add uly rad add translate
  rad rad scale 0 0 1 90 270 arc tMatrix setmatrix lrx rad sub lry rad
  sub translate rad rad scale 0 0 1 270 90 arc tMatrix setmatrix
  closepath} bdef
/FlrRR {MlrRR stroke } bdef
/PlrRR {MlrRR fill } bdef
/MtbRR {/lry xdef /lrx xdef /uly xdef /ulx xdef /rad lrx ulx sub 2 div def
  newpath tMatrix currentmatrix pop ulx rad add uly rad add translate
  rad rad scale 0 0 1 180 360 arc tMatrix setmatrix lrx rad sub lry rad
  sub translate rad rad scale 0 0 1 0 180 arc tMatrix setmatrix
  closepath} bdef
/FtbRR {MtbRR stroke } bdef
/PtbRR {MtbRR fill } bdef
/stri 6 array def /dtri 6 array def
/smat 6 array def /dmat 6 array def
/tmat1 6 array def /tmat2 6 array def /dif 3 array def
/asub {/ind2 exch def /ind1 exch def dup dup
  ind1 get exch ind2 get sub exch } bdef
/tri_to_matrix {
  2 0 asub 3 1 asub 4 0 asub 5 1 asub
  dup 0 get exch 1 get 7 -1 roll astore } bdef
/compute_transform {
  dmat dtri tri_to_matrix tmat1 invertmatrix 
  smat stri tri_to_matrix tmat2 concatmatrix } bdef
/ds {stri astore pop} bdef
/dt {dtri astore pop} bdef
/db {2 copy /cols xdef /rows xdef mul dup 3 mul string
  currentfile 
  3 index 0 eq {/ASCIIHexDecode filter}
  {/ASCII85Decode filter 3 index 2 eq {/RunLengthDecode filter} if }
  ifelse exch readstring pop
  dup 0 3 index getinterval /rbmap xdef
  dup 2 index dup getinterval /gbmap xdef
  1 index dup 2 mul exch getinterval /bbmap xdef pop pop}bdef
/it {gs np dtri aload pop moveto lineto lineto cp c
  cols rows 8 compute_transform 
  rbmap gbmap bbmap true 3 colorimage gr}bdef
/il {newpath moveto lineto stroke}bdef
currentdict end def
%%EndProlog

%%BeginSetup
MathWorks begin

0 cap

end
%%EndSetup

%%Page: 1 1
%%BeginPageSetup
%%PageBoundingBox:    96   238   515   553
MathWorks begin
bpage
%%EndPageSetup

%%BeginObject: obj1
bplot

/dpi2point 12 def
portraitMode 1152 6636 csm

    0     0  5039  3780 rc
85 dict begin %Colortable dictionary
/c0 { 0.000000 0.000000 0.000000 sr} bdef
/c1 { 1.000000 1.000000 1.000000 sr} bdef
/c2 { 0.900000 0.000000 0.000000 sr} bdef
/c3 { 0.000000 0.820000 0.000000 sr} bdef
/c4 { 0.000000 0.000000 0.800000 sr} bdef
/c5 { 0.910000 0.820000 0.320000 sr} bdef
/c6 { 1.000000 0.260000 0.820000 sr} bdef
/c7 { 0.000000 0.820000 0.820000 sr} bdef
c0
1 j
1 sg
   0    0 5040 3781 rf
6 w
0 1703 -1696 -780 0 -1703 4560 2765 4 MP
PP
1696 780 0 1703 -1696 -780 0 -1703 4560 2765 5 MP stroke
1696 780 2209 -599 -1695 -779 2350 3363 4 MP
PP
-2210 598 1696 780 2209 -599 -1695 -779 2350 3363 5 MP stroke
0 1703 2209 -599 0 -1703 655 2584 4 MP
PP
-2209 599 0 1703 2209 -599 0 -1703 655 2584 5 MP stroke
4 w
DO
SO
6 w
0 sg
2350 3363 mt 4560 2765 L
2350 3363 mt  655 2584 L
 655 2584 mt  655  881 L
2350 3363 mt 2402 3387 L
%%IncludeResource: font Helvetica
/Helvetica /WindowsLatin1Encoding 120 FMSR

2433 3513 mt 
(0) s
2902 3214 mt 2954 3238 L
2986 3363 mt 
(2) s
3455 3064 mt 3507 3088 L
3538 3214 mt 
(4) s
4007 2915 mt 4059 2939 L
4091 3064 mt 
(6) s
4560 2765 mt 4612 2789 L
4643 2914 mt 
(8) s
2350 3363 mt 2295 3378 L
2195 3498 mt 
(0) s
1926 3169 mt 1871 3183 L
1771 3304 mt 
(2) s
1502 2974 mt 1447 2989 L
1348 3109 mt 
(4) s
1078 2779 mt 1023 2794 L
 924 2914 mt 
(6) s
 655 2584 mt  599 2599 L
 500 2719 mt 
(8) s
 655 2584 mt  602 2560 L
 505 2589 mt 
(0) s
 655 2243 mt  602 2219 L
 338 2249 mt 
(0.01) s
 655 1903 mt  602 1879 L
 338 1908 mt 
(0.02) s
 655 1562 mt  602 1538 L
 338 1568 mt 
(0.03) s
 655 1221 mt  602 1198 L
 338 1227 mt 
(0.04) s
 655  881 mt  602  857 L
 338  887 mt 
(0.05) s
gs 655 282 3906 3082 rc
1 sg
277 -39 0 0 4283 2778 3 MP
PP
/c8 { 0.562500 1.000000 0.437500 sr} bdef
c8
4283 2778 mt 4283 2778 L
/c9 { 0.000000 0.000000 0.625000 sr} bdef
c9
4283 2778 mt 4560 2739 L
/c10 { 0.000000 0.000000 0.562500 sr} bdef
c10
4560 2739 mt 4283 2778 L
1 sg
0 0 0 0 4560 2739 3 MP
PP
c8
4560 2739 mt 4560 2739 L
4560 2739 mt 4560 2739 L
4560 2739 mt 4560 2739 L
1 sg
0 0 0 0 4560 2739 3 MP
PP
c8
4560 2739 mt 4560 2739 L
4560 2739 mt 4560 2739 L
4560 2739 mt 4560 2739 L
1 sg
-212 -98 0 37 4348 2605 3 MP
PP
c8
4348 2605 mt 4348 2642 L
4348 2642 mt 4136 2544 L
1 sg
0 37 -212 -134 4560 2739 3 MP
PP
c8
4560 2739 mt 4348 2605 L
4348 2605 mt 4348 2642 L
4348 2642 mt 4560 2739 L
1 sg
-212 -97 0 0 4560 2739 3 MP
PP
c8
4560 2739 mt 4560 2739 L
4560 2739 mt 4348 2642 L
1 sg
-212 -134 277 -39 4283 2778 3 MP
PP
c9
4283 2778 mt 4560 2739 L
c10
4560 2739 mt 4348 2605 L
1 sg
0 0 0 0 4560 2739 3 MP
PP
c8
4560 2739 mt 4560 2739 L
c10
4560 2739 mt 4560 2739 L
c8
4560 2739 mt 4560 2739 L
1 sg
0 0 0 0 4560 2739 3 MP
PP
c8
4560 2739 mt 4560 2739 L
4560 2739 mt 4560 2739 L
4560 2739 mt 4560 2739 L
1 sg
0 0 0 0 4560 2739 3 MP
PP
c8
4560 2739 mt 4560 2739 L
4560 2739 mt 4560 2739 L
4560 2739 mt 4560 2739 L
1 sg
0 0 0 0 4560 2739 3 MP
PP
c8
4560 2739 mt 4560 2739 L
4560 2739 mt 4560 2739 L
4560 2739 mt 4560 2739 L
1 sg
-212 -134 0 0 4560 2739 3 MP
PP
c10
4560 2739 mt 4560 2739 L
c8
4560 2739 mt 4348 2605 L
4348 2605 mt 4560 2739 L
1 sg
0 0 -212 -134 4560 2739 3 MP
PP
c10
4560 2739 mt 4348 2605 L
c9
4348 2605 mt 4348 2605 L
c8
4348 2605 mt 4560 2739 L
1 sg
0 0 0 0 4560 2739 3 MP
PP
c8
4560 2739 mt 4560 2739 L
4560 2739 mt 4560 2739 L
4560 2739 mt 4560 2739 L
1 sg
0 0 0 0 4560 2739 3 MP
PP
c8
4560 2739 mt 4560 2739 L
4560 2739 mt 4560 2739 L
4560 2739 mt 4560 2739 L
1 sg
0 0 277 -39 4283 2778 3 MP
PP
c8
4283 2778 mt 4560 2739 L
4560 2739 mt 4560 2739 L
c10
4560 2739 mt 4283 2778 L
1 sg
277 -39 0 -36 4283 2814 3 MP
PP
c8
4283 2814 mt 4283 2778 L
4283 2778 mt 4560 2739 L
4560 2739 mt 4283 2814 L
1 sg
0 0 277 -75 4283 2814 3 MP
PP
c8
4283 2814 mt 4560 2739 L
4560 2739 mt 4560 2739 L
1 sg
0 90 -212 -151 4348 2605 3 MP
PP
c8
4348 2605 mt 4136 2454 L
4136 2454 mt 4136 2544 L
1 sg
0 0 -212 -151 4348 2605 3 MP
PP
c9
4348 2605 mt 4136 2454 L
/c11 { 0.000000 0.000000 0.812500 sr} bdef
c11
4136 2454 mt 4136 2454 L
c8
4136 2454 mt 4348 2605 L
1 sg
-212 -151 0 0 4348 2605 3 MP
PP
c9
4348 2605 mt 4348 2605 L
c8
4348 2605 mt 4136 2454 L
4136 2454 mt 4348 2605 L
1 sg
277 12 -212 -185 4283 2778 3 MP
PP
c9
4283 2778 mt 4071 2593 L
/c12 { 0.000000 0.000000 0.875000 sr} bdef
c12
4071 2593 mt 4348 2605 L
1 sg
-212 -97 0 90 4136 2454 3 MP
PP
c8
4136 2454 mt 4136 2544 L
4136 2544 mt 3924 2447 L
1 sg
-212 -151 277 12 4071 2593 3 MP
PP
c12
4071 2593 mt 4348 2605 L
c9
4348 2605 mt 4136 2454 L
1 sg
0 -36 276 -75 4007 2889 3 MP
PP
c8
4007 2889 mt 4283 2814 L
4283 2814 mt 4283 2778 L
1 sg
276 -20 0 -91 4007 2889 3 MP
PP
c8
4007 2889 mt 4007 2798 L
4007 2798 mt 4283 2778 L
1 sg
0 0 276 -20 4007 2798 3 MP
PP
c8
4007 2798 mt 4283 2778 L
4283 2778 mt 4283 2778 L
c9
4283 2778 mt 4007 2798 L
1 sg
276 -20 0 0 4007 2798 3 MP
PP
c8
4007 2798 mt 4007 2798 L
c11
4007 2798 mt 4283 2778 L
c9
4283 2778 mt 4007 2798 L
1 sg
-212 -185 276 -20 4007 2798 3 MP
PP
c11
4007 2798 mt 4283 2778 L
c9
4283 2778 mt 4071 2593 L
1 sg
-212 -98 0 144 3924 2303 3 MP
PP
c8
3924 2303 mt 3924 2447 L
3924 2447 mt 3712 2349 L
1 sg
0 144 -212 -151 4136 2454 3 MP
PP
c8
4136 2454 mt 3924 2303 L
3924 2303 mt 3924 2447 L
1 sg
277 89 -212 -228 4071 2593 3 MP
PP
c12
4071 2593 mt 3859 2365 L
/c13 { 0.000000 0.250000 1.000000 sr} bdef
c13
3859 2365 mt 4136 2454 L
1 sg
0 0 -212 -151 4136 2454 3 MP
PP
c11
4136 2454 mt 3924 2303 L
/c14 { 0.000000 0.000000 0.937500 sr} bdef
c14
3924 2303 mt 3924 2303 L
c8
3924 2303 mt 4136 2454 L
1 sg
-212 -151 277 89 3859 2365 3 MP
PP
c13
3859 2365 mt 4136 2454 L
c11
4136 2454 mt 3924 2303 L
1 sg
-212 -151 0 0 4136 2454 3 MP
PP
c11
4136 2454 mt 4136 2454 L
c8
4136 2454 mt 3924 2303 L
3924 2303 mt 4136 2454 L
1 sg
276 55 -212 -260 4007 2798 3 MP
PP
c11
4007 2798 mt 3795 2538 L
c13
3795 2538 mt 4071 2593 L
1 sg
-212 -228 276 55 3795 2538 3 MP
PP
c13
3795 2538 mt 4071 2593 L
c12
4071 2593 mt 3859 2365 L
1 sg
276 -22 0 -143 3731 2963 3 MP
PP
c8
3731 2963 mt 3731 2820 L
3731 2820 mt 4007 2798 L
1 sg
0 0 276 -22 3731 2820 3 MP
PP
c8
3731 2820 mt 4007 2798 L
4007 2798 mt 4007 2798 L
c11
4007 2798 mt 3731 2820 L
1 sg
276 -22 0 0 3731 2820 3 MP
PP
c8
3731 2820 mt 3731 2820 L
c14
3731 2820 mt 4007 2798 L
c11
4007 2798 mt 3731 2820 L
1 sg
-212 -260 276 -22 3731 2820 3 MP
PP
c14
3731 2820 mt 4007 2798 L
c11
4007 2798 mt 3795 2538 L
1 sg
0 -91 276 -74 3731 2963 3 MP
PP
c8
3731 2963 mt 4007 2889 L
4007 2889 mt 4007 2798 L
1 sg
0 166 -212 -120 3924 2303 3 MP
PP
c8
3924 2303 mt 3712 2183 L
3712 2183 mt 3712 2349 L
1 sg
0 0 -212 -120 3924 2303 3 MP
PP
c14
3924 2303 mt 3712 2183 L
/c15 { 0.000000 0.000000 1.000000 sr} bdef
c15
3712 2183 mt 3712 2183 L
c8
3712 2183 mt 3924 2303 L
1 sg
-212 -75 0 0 3712 2183 3 MP
PP
c15
3712 2183 mt 3712 2183 L
c8
3712 2183 mt 3500 2108 L
3500 2108 mt 3712 2183 L
1 sg
-212 -75 276 194 3436 1989 3 MP
PP
/c16 { 0.000000 0.750000 1.000000 sr} bdef
c16
3436 1989 mt 3712 2183 L
c15
3712 2183 mt 3500 2108 L
1 sg
276 194 -212 -152 3648 2141 3 MP
PP
/c17 { 0.000000 0.625000 1.000000 sr} bdef
c17
3648 2141 mt 3436 1989 L
c16
3436 1989 mt 3712 2183 L
1 sg
0 0 -212 -75 3712 2183 3 MP
PP
c15
3712 2183 mt 3500 2108 L
c14
3500 2108 mt 3500 2108 L
c8
3500 2108 mt 3712 2183 L
1 sg
-212 -97 0 166 3712 2183 3 MP
PP
c8
3712 2183 mt 3712 2349 L
3712 2349 mt 3500 2252 L
1 sg
0 144 -212 -75 3712 2183 3 MP
PP
c8
3712 2183 mt 3500 2108 L
3500 2108 mt 3500 2252 L
1 sg
-212 -120 276 162 3648 2141 3 MP
PP
c17
3648 2141 mt 3924 2303 L
c14
3924 2303 mt 3712 2183 L
1 sg
-212 -120 0 0 3924 2303 3 MP
PP
c14
3924 2303 mt 3924 2303 L
c8
3924 2303 mt 3712 2183 L
3712 2183 mt 3924 2303 L
1 sg
276 162 -211 -224 3859 2365 3 MP
PP
c13
3859 2365 mt 3648 2141 L
c17
3648 2141 mt 3924 2303 L
1 sg
276 167 -212 -340 3795 2538 3 MP
PP
c13
3795 2538 mt 3583 2198 L
/c18 { 0.000000 0.937500 1.000000 sr} bdef
c18
3583 2198 mt 3859 2365 L
1 sg
-211 -224 276 167 3583 2198 3 MP
PP
c18
3583 2198 mt 3859 2365 L
c13
3859 2365 mt 3648 2141 L
1 sg
-212 -340 276 53 3519 2485 3 MP
PP
c17
3519 2485 mt 3795 2538 L
c13
3795 2538 mt 3583 2198 L
1 sg
276 53 -212 -335 3731 2820 3 MP
PP
c14
3731 2820 mt 3519 2485 L
c17
3519 2485 mt 3795 2538 L
1 sg
0 -143 276 -75 3455 3038 3 MP
PP
c8
3455 3038 mt 3731 2963 L
3731 2963 mt 3731 2820 L
1 sg
0 0 276 -52 3455 2872 3 MP
PP
c8
3455 2872 mt 3731 2820 L
3731 2820 mt 3731 2820 L
c14
3731 2820 mt 3455 2872 L
1 sg
276 -52 0 0 3455 2872 3 MP
PP
c8
3455 2872 mt 3455 2872 L
c15
3455 2872 mt 3731 2820 L
c14
3731 2820 mt 3455 2872 L
1 sg
-212 -335 276 -52 3455 2872 3 MP
PP
c15
3455 2872 mt 3731 2820 L
c14
3731 2820 mt 3519 2485 L
1 sg
276 -52 0 -166 3455 3038 3 MP
PP
c8
3455 3038 mt 3455 2872 L
3455 2872 mt 3731 2820 L
1 sg
-212 -152 277 279 3371 1862 3 MP
PP
/c19 { 0.625000 1.000000 0.375000 sr} bdef
c19
3371 1862 mt 3648 2141 L
c17
3648 2141 mt 3436 1989 L
1 sg
277 279 -212 -336 3583 2198 3 MP
PP
c18
3583 2198 mt 3371 1862 L
c19
3371 1862 mt 3648 2141 L
1 sg
277 325 -212 -198 3371 1862 3 MP
PP
c19
3371 1862 mt 3159 1664 L
/c20 { 0.937500 1.000000 0.062500 sr} bdef
c20
3159 1664 mt 3436 1989 L
1 sg
-212 -43 277 325 3159 1664 3 MP
PP
c20
3159 1664 mt 3436 1989 L
c16
3436 1989 mt 3224 1946 L
1 sg
-212 -44 276 162 3224 1946 3 MP
PP
c17
3224 1946 mt 3500 2108 L
c14
3500 2108 mt 3288 2064 L
1 sg
0 90 -212 -44 3500 2108 3 MP
PP
c8
3500 2108 mt 3288 2064 L
3288 2064 mt 3288 2154 L
1 sg
0 0 -212 -44 3500 2108 3 MP
PP
c14
3500 2108 mt 3288 2064 L
c11
3288 2064 mt 3288 2064 L
c8
3288 2064 mt 3500 2108 L
1 sg
-212 -44 0 0 3500 2108 3 MP
PP
c14
3500 2108 mt 3500 2108 L
c8
3500 2108 mt 3288 2064 L
3288 2064 mt 3500 2108 L
1 sg
276 162 -212 -43 3436 1989 3 MP
PP
c16
3436 1989 mt 3224 1946 L
c17
3224 1946 mt 3500 2108 L
1 sg
-212 -98 0 144 3500 2108 3 MP
PP
c8
3500 2108 mt 3500 2252 L
3500 2252 mt 3288 2154 L
1 sg
-212 -336 276 163 3307 2035 3 MP
PP
c19
3307 2035 mt 3583 2198 L
c18
3583 2198 mt 3371 1862 L
1 sg
276 163 -212 -450 3519 2485 3 MP
PP
c17
3519 2485 mt 3307 2035 L
c19
3307 2035 mt 3583 2198 L
1 sg
276 -21 -212 -366 3455 2872 3 MP
PP
c15
3455 2872 mt 3243 2506 L
c16
3243 2506 mt 3519 2485 L
1 sg
-212 -450 276 -21 3243 2506 3 MP
PP
c16
3243 2506 mt 3519 2485 L
c17
3519 2485 mt 3307 2035 L
1 sg
-212 -366 276 -98 3179 2970 3 MP
PP
c14
3179 2970 mt 3455 2872 L
c15
3455 2872 mt 3243 2506 L
1 sg
276 -98 0 -143 3179 3113 3 MP
PP
c8
3179 3113 mt 3179 2970 L
3179 2970 mt 3455 2872 L
1 sg
0 0 276 -98 3179 2970 3 MP
PP
c8
3179 2970 mt 3455 2872 L
3455 2872 mt 3455 2872 L
c15
3455 2872 mt 3179 2970 L
1 sg
276 -98 0 0 3179 2970 3 MP
PP
c8
3179 2970 mt 3179 2970 L
c14
3179 2970 mt 3455 2872 L
c15
3455 2872 mt 3179 2970 L
1 sg
0 -166 276 -75 3179 3113 3 MP
PP
c8
3179 3113 mt 3455 3038 L
3455 3038 mt 3455 2872 L
1 sg
-212 3 276 317 2883 1347 3 MP
PP
/c21 { 0.937500 0.000000 0.000000 sr} bdef
c21
2883 1347 mt 3159 1664 L
c20
3159 1664 mt 2947 1667 L
1 sg
276 317 -212 -245 3095 1592 3 MP
PP
/c22 { 1.000000 0.375000 0.000000 sr} bdef
c22
3095 1592 mt 2883 1347 L
c21
2883 1347 mt 3159 1664 L
1 sg
277 279 -212 3 3159 1664 3 MP
PP
c20
3159 1664 mt 2947 1667 L
c19
2947 1667 mt 3224 1946 L
1 sg
-212 -198 276 270 3095 1592 3 MP
PP
c22
3095 1592 mt 3371 1862 L
c19
3371 1862 mt 3159 1664 L
1 sg
276 270 -212 -443 3307 2035 3 MP
PP
c19
3307 2035 mt 3095 1592 L
c22
3095 1592 mt 3371 1862 L
1 sg
-212 -98 0 37 3076 2020 3 MP
PP
c8
3076 2020 mt 3076 2057 L
3076 2057 mt 2864 1959 L
2864 1959 mt 3076 2020 L
1 sg
0 0 -212 -61 3076 2020 3 MP
PP
c8
3076 2020 mt 2864 1959 L
2864 1959 mt 2864 1959 L
1 sg
-212 -61 276 12 2800 2008 3 MP
PP
c12
2800 2008 mt 3076 2020 L
c9
3076 2020 mt 2864 1959 L
1 sg
-212 -61 0 0 3076 2020 3 MP
PP
c9
3076 2020 mt 3076 2020 L
c8
3076 2020 mt 2864 1959 L
2864 1959 mt 3076 2020 L
1 sg
0 0 -212 -61 3076 2020 3 MP
PP
c9
3076 2020 mt 2864 1959 L
c10
2864 1959 mt 2864 1959 L
c8
2864 1959 mt 3076 2020 L
1 sg
276 12 -212 33 3012 1975 3 MP
PP
c13
3012 1975 mt 2800 2008 L
c12
2800 2008 mt 3076 2020 L
1 sg
0 37 -212 -44 3288 2064 3 MP
PP
c8
3288 2064 mt 3076 2020 L
3076 2020 mt 3076 2057 L
1 sg
-212 -44 276 89 3012 1975 3 MP
PP
c13
3012 1975 mt 3288 2064 L
c11
3288 2064 mt 3076 2020 L
1 sg
276 89 -212 29 3224 1946 3 MP
PP
c17
3224 1946 mt 3012 1975 L
c13
3012 1975 mt 3288 2064 L
1 sg
-212 -97 0 90 3288 2064 3 MP
PP
c8
3288 2064 mt 3288 2154 L
3288 2154 mt 3076 2057 L
1 sg
-212 -44 0 0 3288 2064 3 MP
PP
c11
3288 2064 mt 3288 2064 L
c8
3288 2064 mt 3076 2020 L
3076 2020 mt 3288 2064 L
1 sg
0 0 -212 -44 3288 2064 3 MP
PP
c11
3288 2064 mt 3076 2020 L
c9
3076 2020 mt 3076 2020 L
c8
3076 2020 mt 3288 2064 L
1 sg
276 27 -212 -498 3243 2506 3 MP
PP
c16
3243 2506 mt 3031 2008 L
c20
3031 2008 mt 3307 2035 L
1 sg
-212 29 277 279 2947 1667 3 MP
PP
c19
2947 1667 mt 3224 1946 L
c17
3224 1946 mt 3012 1975 L
1 sg
-212 -443 276 27 3031 2008 3 MP
PP
c20
3031 2008 mt 3307 2035 L
c19
3307 2035 mt 3095 1592 L
1 sg
276 -129 -212 -335 3179 2970 3 MP
PP
c14
3179 2970 mt 2967 2635 L
c17
2967 2635 mt 3243 2506 L
1 sg
-212 -498 276 -129 2967 2635 3 MP
PP
c17
2967 2635 mt 3243 2506 L
c16
3243 2506 mt 3031 2008 L
1 sg
-212 -335 277 -127 2902 3097 3 MP
PP
c11
2902 3097 mt 3179 2970 L
c14
3179 2970 mt 2967 2635 L
1 sg
277 -127 0 0 2902 3097 3 MP
PP
c8
2902 3097 mt 2902 3097 L
c11
2902 3097 mt 3179 2970 L
c14
3179 2970 mt 2902 3097 L
1 sg
277 -127 0 -91 2902 3188 3 MP
PP
c8
2902 3188 mt 2902 3097 L
2902 3097 mt 3179 2970 L
1 sg
0 0 277 -127 2902 3097 3 MP
PP
c8
2902 3097 mt 3179 2970 L
3179 2970 mt 3179 2970 L
c14
3179 2970 mt 2902 3097 L
1 sg
0 -143 277 -75 2902 3188 3 MP
PP
c8
2902 3188 mt 3179 3113 L
3179 3113 mt 3179 2970 L
1 sg
276 270 -212 50 2883 1347 3 MP
PP
c21
2883 1347 mt 2671 1397 L
c22
2671 1397 mt 2947 1667 L
1 sg
-212 -245 276 73 2819 1519 3 MP
PP
c21
2819 1519 mt 3095 1592 L
c22
3095 1592 mt 2883 1347 L
1 sg
-211 141 276 270 2671 1397 3 MP
PP
c22
2671 1397 mt 2947 1667 L
c19
2947 1667 mt 2736 1808 L
1 sg
276 167 -211 141 2947 1667 3 MP
PP
c19
2947 1667 mt 2736 1808 L
c18
2736 1808 mt 3012 1975 L
1 sg
276 73 -212 -489 3031 2008 3 MP
PP
c20
3031 2008 mt 2819 1519 L
c21
2819 1519 mt 3095 1592 L
1 sg
276 -176 -212 -451 2967 2635 3 MP
PP
c17
2967 2635 mt 2755 2184 L
c19
2755 2184 mt 3031 2008 L
1 sg
276 -75 0 36 2588 1998 3 MP
PP
c8
2588 1998 mt 2588 2034 L
2588 2034 mt 2864 1959 L
2864 1959 mt 2588 1998 L
1 sg
276 -39 -212 -10 2800 2008 3 MP
PP
c12
2800 2008 mt 2588 1998 L
c9
2588 1998 mt 2864 1959 L
1 sg
0 0 276 -39 2588 1998 3 MP
PP
c9
2588 1998 mt 2864 1959 L
c10
2864 1959 mt 2864 1959 L
c8
2864 1959 mt 2588 1998 L
1 sg
0 0 276 -39 2588 1998 3 MP
PP
c8
2588 1998 mt 2864 1959 L
2864 1959 mt 2864 1959 L
1 sg
276 -39 0 0 2588 1998 3 MP
PP
c9
2588 1998 mt 2588 1998 L
c8
2588 1998 mt 2864 1959 L
2864 1959 mt 2588 1998 L
1 sg
276 55 -212 145 2736 1808 3 MP
PP
c18
2736 1808 mt 2524 1953 L
c13
2524 1953 mt 2800 2008 L
1 sg
-212 -10 276 55 2524 1953 3 MP
PP
c13
2524 1953 mt 2800 2008 L
c12
2800 2008 mt 2588 1998 L
1 sg
0 0 0 0 2864 1959 3 MP
PP
c8
2864 1959 mt 2864 1959 L
2864 1959 mt 2864 1959 L
2864 1959 mt 2864 1959 L
1 sg
0 0 0 0 2864 1959 3 MP
PP
c8
2864 1959 mt 2864 1959 L
2864 1959 mt 2864 1959 L
2864 1959 mt 2864 1959 L
1 sg
0 0 0 0 2864 1959 3 MP
PP
c8
2864 1959 mt 2864 1959 L
2864 1959 mt 2864 1959 L
2864 1959 mt 2864 1959 L
1 sg
0 0 0 0 2864 1959 3 MP
PP
c8
2864 1959 mt 2864 1959 L
2864 1959 mt 2864 1959 L
2864 1959 mt 2864 1959 L
1 sg
0 0 0 0 2864 1959 3 MP
PP
c8
2864 1959 mt 2864 1959 L
2864 1959 mt 2864 1959 L
2864 1959 mt 2864 1959 L
1 sg
0 0 0 0 2864 1959 3 MP
PP
c8
2864 1959 mt 2864 1959 L
2864 1959 mt 2864 1959 L
2864 1959 mt 2864 1959 L
1 sg
0 0 0 0 2864 1959 3 MP
PP
c10
2864 1959 mt 2864 1959 L
c8
2864 1959 mt 2864 1959 L
2864 1959 mt 2864 1959 L
1 sg
0 0 0 0 2864 1959 3 MP
PP
c10
2864 1959 mt 2864 1959 L
c8
2864 1959 mt 2864 1959 L
2864 1959 mt 2864 1959 L
1 sg
-212 33 276 167 2736 1808 3 MP
PP
c18
2736 1808 mt 3012 1975 L
c13
3012 1975 mt 2800 2008 L
1 sg
-212 -489 276 -176 2755 2184 3 MP
PP
c19
2755 2184 mt 3031 2008 L
c20
3031 2008 mt 2819 1519 L
1 sg
-212 -451 277 -202 2690 2837 3 MP
PP
c13
2690 2837 mt 2967 2635 L
c17
2967 2635 mt 2755 2184 L
1 sg
277 -202 -212 -260 2902 3097 3 MP
PP
c11
2902 3097 mt 2690 2837 L
c13
2690 2837 mt 2967 2635 L
1 sg
276 -129 0 0 2626 3226 3 MP
PP
c8
2626 3226 mt 2626 3226 L
c9
2626 3226 mt 2902 3097 L
c11
2902 3097 mt 2626 3226 L
1 sg
276 -129 0 -37 2626 3263 3 MP
PP
c8
2626 3263 mt 2626 3226 L
2626 3226 mt 2902 3097 L
1 sg
0 -91 276 -75 2626 3263 3 MP
PP
c8
2626 3263 mt 2902 3188 L
2902 3188 mt 2902 3097 L
1 sg
0 0 276 -129 2626 3226 3 MP
PP
c8
2626 3226 mt 2902 3097 L
2902 3097 mt 2902 3097 L
c11
2902 3097 mt 2626 3226 L
1 sg
-212 -260 276 -129 2626 3226 3 MP
PP
c9
2626 3226 mt 2902 3097 L
c11
2902 3097 mt 2690 2837 L
1 sg
-212 50 276 92 2607 1255 3 MP
PP
/c23 { 0.500000 0.000000 0.000000 sr} bdef
c23
2607 1255 mt 2883 1347 L
c21
2883 1347 mt 2671 1397 L
1 sg
276 92 -212 -264 2819 1519 3 MP
PP
c21
2819 1519 mt 2607 1255 L
c23
2607 1255 mt 2883 1347 L
1 sg
-212 248 276 73 2395 1324 3 MP
PP
c21
2395 1324 mt 2671 1397 L
c22
2671 1397 mt 2459 1645 L
1 sg
276 73 -212 69 2607 1255 3 MP
PP
c23
2607 1255 mt 2395 1324 L
c21
2395 1324 mt 2671 1397 L
1 sg
-212 145 277 163 2459 1645 3 MP
PP
c19
2459 1645 mt 2736 1808 L
c18
2736 1808 mt 2524 1953 L
1 sg
277 163 -212 248 2671 1397 3 MP
PP
c22
2671 1397 mt 2459 1645 L
c19
2459 1645 mt 2736 1808 L
1 sg
-212 -264 276 -222 2543 1741 3 MP
PP
c22
2543 1741 mt 2819 1519 L
c21
2819 1519 mt 2607 1255 L
1 sg
276 -222 -212 -443 2755 2184 3 MP
PP
c19
2755 2184 mt 2543 1741 L
c22
2543 1741 mt 2819 1519 L
1 sg
277 -313 -212 -340 2690 2837 3 MP
PP
c13
2690 2837 mt 2478 2497 L
c18
2478 2497 mt 2755 2184 L
1 sg
276 -75 0 91 2312 2018 3 MP
PP
c8
2312 2018 mt 2312 2109 L
2312 2109 mt 2588 2034 L
1 sg
0 36 276 -20 2312 2018 3 MP
PP
c8
2312 2018 mt 2588 1998 L
2588 1998 mt 2588 2034 L
1 sg
276 -20 0 0 2312 2018 3 MP
PP
c11
2312 2018 mt 2312 2018 L
c8
2312 2018 mt 2588 1998 L
2588 1998 mt 2312 2018 L
1 sg
276 -20 -212 65 2524 1953 3 MP
PP
c13
2524 1953 mt 2312 2018 L
c11
2312 2018 mt 2588 1998 L
1 sg
0 0 276 -20 2312 2018 3 MP
PP
c11
2312 2018 mt 2588 1998 L
c9
2588 1998 mt 2588 1998 L
c8
2588 1998 mt 2312 2018 L
1 sg
-212 -443 277 -313 2478 2497 3 MP
PP
c18
2478 2497 mt 2755 2184 L
c19
2755 2184 mt 2543 1741 L
1 sg
-212 -340 276 -205 2414 3042 3 MP
PP
c12
2414 3042 mt 2690 2837 L
c13
2690 2837 mt 2478 2497 L
1 sg
276 -205 -212 -184 2626 3226 3 MP
PP
c9
2626 3226 mt 2414 3042 L
c12
2414 3042 mt 2690 2837 L
1 sg
276 -112 0 0 2350 3338 3 MP
PP
c8
2350 3338 mt 2350 3338 L
c10
2350 3338 mt 2626 3226 L
c9
2626 3226 mt 2350 3338 L
1 sg
276 -112 0 0 2350 3338 3 MP
PP
c8
2350 3338 mt 2350 3338 L
2350 3338 mt 2626 3226 L
1 sg
0 0 276 -112 2350 3338 3 MP
PP
c8
2350 3338 mt 2626 3226 L
2626 3226 mt 2626 3226 L
c9
2626 3226 mt 2350 3338 L
1 sg
0 -37 276 -75 2350 3338 3 MP
PP
c8
2350 3338 mt 2626 3263 L
2626 3263 mt 2626 3226 L
2626 3226 mt 2350 3338 L
1 sg
-212 -184 276 -112 2350 3338 3 MP
PP
c10
2350 3338 mt 2626 3226 L
c9
2626 3226 mt 2414 3042 L
1 sg
276 27 -212 294 2395 1324 3 MP
PP
c21
2395 1324 mt 2183 1618 L
c20
2183 1618 mt 2459 1645 L
1 sg
-212 69 276 -241 2331 1496 3 MP
PP
c21
2331 1496 mt 2607 1255 L
c23
2607 1255 mt 2395 1324 L
1 sg
-212 255 276 27 2183 1618 3 MP
PP
c20
2183 1618 mt 2459 1645 L
c19
2459 1645 mt 2247 1900 L
1 sg
277 53 -212 255 2459 1645 3 MP
PP
c19
2459 1645 mt 2247 1900 L
c17
2247 1900 mt 2524 1953 L
1 sg
276 -241 -212 -245 2543 1741 3 MP
PP
c22
2543 1741 mt 2331 1496 L
c21
2331 1496 mt 2607 1255 L
1 sg
277 -22 -212 140 2247 1900 3 MP
PP
c17
2247 1900 mt 2035 2040 L
c14
2035 2040 mt 2312 2018 L
1 sg
0 0 277 -22 2035 2040 3 MP
PP
c14
2035 2040 mt 2312 2018 L
c11
2312 2018 mt 2312 2018 L
c8
2312 2018 mt 2035 2040 L
1 sg
277 -75 0 144 2035 2040 3 MP
PP
c8
2035 2040 mt 2035 2184 L
2035 2184 mt 2312 2109 L
1 sg
0 91 277 -22 2035 2040 3 MP
PP
c8
2035 2040 mt 2312 2018 L
2312 2018 mt 2312 2109 L
1 sg
277 -22 0 0 2035 2040 3 MP
PP
c14
2035 2040 mt 2035 2040 L
c8
2035 2040 mt 2312 2018 L
2312 2018 mt 2035 2040 L
1 sg
-212 65 277 53 2247 1900 3 MP
PP
c17
2247 1900 mt 2524 1953 L
c13
2524 1953 mt 2312 2018 L
1 sg
-212 -245 276 -421 2267 2162 3 MP
PP
c19
2267 2162 mt 2543 1741 L
c22
2543 1741 mt 2331 1496 L
1 sg
276 -421 -211 -335 2478 2497 3 MP
PP
c18
2478 2497 mt 2267 2162 L
c19
2267 2162 mt 2543 1741 L
1 sg
-211 -335 276 -317 2202 2814 3 MP
PP
c13
2202 2814 mt 2478 2497 L
c18
2478 2497 mt 2267 2162 L
1 sg
276 -317 -212 -228 2414 3042 3 MP
PP
c12
2414 3042 mt 2202 2814 L
c13
2202 2814 mt 2478 2497 L
1 sg
276 -162 -212 -134 2350 3338 3 MP
PP
c10
2350 3338 mt 2138 3204 L
c9
2138 3204 mt 2414 3042 L
1 sg
-212 -228 276 -162 2138 3204 3 MP
PP
c9
2138 3204 mt 2414 3042 L
c12
2414 3042 mt 2202 2814 L
1 sg
-212 294 276 -222 2119 1546 3 MP
PP
c22
2119 1546 mt 2395 1324 L
c21
2395 1324 mt 2183 1618 L
1 sg
276 -222 -212 50 2331 1496 3 MP
PP
c21
2331 1496 mt 2119 1546 L
c22
2119 1546 mt 2395 1324 L
1 sg
0 0 0 0 2350 3338 3 MP
PP
c8
2350 3338 mt 2350 3338 L
2350 3338 mt 2350 3338 L
2350 3338 mt 2350 3338 L
1 sg
0 -36 -212 -98 2350 3338 3 MP
PP
c8
2350 3338 mt 2138 3240 L
2138 3240 mt 2138 3204 L
2138 3204 mt 2350 3338 L
1 sg
0 0 0 0 2350 3338 3 MP
PP
c8
2350 3338 mt 2350 3338 L
2350 3338 mt 2350 3338 L
c10
2350 3338 mt 2350 3338 L
1 sg
-212 -134 0 0 2350 3338 3 MP
PP
c8
2350 3338 mt 2350 3338 L
c10
2350 3338 mt 2138 3204 L
c9
2138 3204 mt 2350 3338 L
1 sg
0 0 0 0 2350 3338 3 MP
PP
c8
2350 3338 mt 2350 3338 L
2350 3338 mt 2350 3338 L
2350 3338 mt 2350 3338 L
1 sg
-212 -134 0 0 2350 3338 3 MP
PP
c8
2350 3338 mt 2350 3338 L
2350 3338 mt 2138 3204 L
1 sg
0 0 0 0 2350 3338 3 MP
PP
c8
2350 3338 mt 2350 3338 L
2350 3338 mt 2350 3338 L
c10
2350 3338 mt 2350 3338 L
1 sg
0 0 0 0 2350 3338 3 MP
PP
c8
2350 3338 mt 2350 3338 L
2350 3338 mt 2350 3338 L
2350 3338 mt 2350 3338 L
1 sg
0 0 -212 -134 2350 3338 3 MP
PP
c8
2350 3338 mt 2138 3204 L
2138 3204 mt 2138 3204 L
c9
2138 3204 mt 2350 3338 L
1 sg
0 0 0 0 2350 3338 3 MP
PP
c8
2350 3338 mt 2350 3338 L
2350 3338 mt 2350 3338 L
2350 3338 mt 2350 3338 L
1 sg
0 0 0 0 2350 3338 3 MP
PP
c8
2350 3338 mt 2350 3338 L
2350 3338 mt 2350 3338 L
2350 3338 mt 2350 3338 L
1 sg
0 0 0 0 2350 3338 3 MP
PP
c8
2350 3338 mt 2350 3338 L
2350 3338 mt 2350 3338 L
2350 3338 mt 2350 3338 L
1 sg
276 -21 -212 303 2183 1618 3 MP
PP
c20
2183 1618 mt 1971 1921 L
c16
1971 1921 mt 2247 1900 L
1 sg
-212 140 276 -21 1971 1921 3 MP
PP
c16
1971 1921 mt 2247 1900 L
c17
2247 1900 mt 2035 2040 L
1 sg
276 -467 -212 -199 2267 2162 3 MP
PP
c19
2267 2162 mt 2055 1963 L
c20
2055 1963 mt 2331 1496 L
1 sg
-212 303 276 -176 1907 1794 3 MP
PP
c19
1907 1794 mt 2183 1618 L
c20
2183 1618 mt 1971 1921 L
1 sg
276 -176 -212 248 2119 1546 3 MP
PP
c22
2119 1546 mt 1907 1794 L
c19
1907 1794 mt 2183 1618 L
1 sg
-212 50 276 -467 2055 1963 3 MP
PP
c20
2055 1963 mt 2331 1496 L
c21
2331 1496 mt 2119 1546 L
1 sg
277 -428 -212 -224 2202 2814 3 MP
PP
c13
2202 2814 mt 1990 2590 L
c17
1990 2590 mt 2267 2162 L
1 sg
276 -74 0 166 1759 2092 3 MP
PP
c8
1759 2092 mt 1759 2258 L
1759 2258 mt 2035 2184 L
1 sg
0 144 276 -52 1759 2092 3 MP
PP
c8
1759 2092 mt 2035 2040 L
2035 2040 mt 2035 2184 L
1 sg
-212 -199 277 -428 1990 2590 3 MP
PP
c17
1990 2590 mt 2267 2162 L
c19
2267 2162 mt 2055 1963 L
1 sg
-212 -224 276 -238 1926 3052 3 MP
PP
c11
1926 3052 mt 2202 2814 L
c13
2202 2814 mt 1990 2590 L
1 sg
276 -238 -212 -152 2138 3204 3 MP
PP
c9
2138 3204 mt 1926 3052 L
c11
1926 3052 mt 2202 2814 L
1 sg
0 -91 -212 -97 2138 3240 3 MP
PP
c8
2138 3240 mt 1926 3143 L
1926 3143 mt 1926 3052 L
1 sg
-212 -152 0 -36 2138 3240 3 MP
PP
c8
2138 3240 mt 2138 3204 L
2138 3204 mt 1926 3052 L
1 sg
0 0 -212 -152 2138 3204 3 MP
PP
c8
2138 3204 mt 1926 3052 L
1926 3052 mt 1926 3052 L
c11
1926 3052 mt 2138 3204 L
1 sg
-212 -152 0 0 2138 3204 3 MP
PP
c8
2138 3204 mt 2138 3204 L
c9
2138 3204 mt 1926 3052 L
c11
1926 3052 mt 2138 3204 L
1 sg
276 -129 -212 256 1907 1794 3 MP
PP
c19
1907 1794 mt 1695 2050 L
c17
1695 2050 mt 1971 1921 L
1 sg
-212 171 276 -129 1695 2050 3 MP
PP
c17
1695 2050 mt 1971 1921 L
c16
1971 1921 mt 1759 2092 L
1 sg
276 -52 -212 171 1971 1921 3 MP
PP
c16
1971 1921 mt 1759 2092 L
c15
1759 2092 mt 2035 2040 L
1 sg
276 -421 -212 4 2055 1963 3 MP
PP
c20
2055 1963 mt 1843 1967 L
c19
1843 1967 mt 2119 1546 L
1 sg
-212 248 276 -421 1843 1967 3 MP
PP
c19
1843 1967 mt 2119 1546 L
c22
2119 1546 mt 1907 1794 L
1 sg
276 -52 0 0 1759 2092 3 MP
PP
c15
1759 2092 mt 1759 2092 L
c8
1759 2092 mt 2035 2040 L
2035 2040 mt 1759 2092 L
1 sg
0 0 276 -52 1759 2092 3 MP
PP
c15
1759 2092 mt 2035 2040 L
c14
2035 2040 mt 2035 2040 L
c8
2035 2040 mt 1759 2092 L
1 sg
-212 4 277 -475 1778 2438 3 MP
PP
c16
1778 2438 mt 2055 1963 L
c20
2055 1963 mt 1843 1967 L
1 sg
277 -475 -212 -152 1990 2590 3 MP
PP
c17
1990 2590 mt 1778 2438 L
c16
1778 2438 mt 2055 1963 L
1 sg
276 -312 -212 -150 1926 3052 3 MP
PP
c11
1926 3052 mt 1714 2902 L
c14
1714 2902 mt 1990 2590 L
1 sg
-212 -152 276 -312 1714 2902 3 MP
PP
c14
1714 2902 mt 1990 2590 L
c17
1990 2590 mt 1778 2438 L
1 sg
-212 -150 0 0 1926 3052 3 MP
PP
c8
1926 3052 mt 1926 3052 L
c11
1926 3052 mt 1714 2902 L
c14
1714 2902 mt 1926 3052 L
1 sg
0 -143 -212 -98 1926 3143 3 MP
PP
c8
1926 3143 mt 1714 3045 L
1714 3045 mt 1714 2902 L
1 sg
0 0 -212 -150 1926 3052 3 MP
PP
c8
1926 3052 mt 1714 2902 L
1714 2902 mt 1714 2902 L
c14
1714 2902 mt 1926 3052 L
1 sg
-212 -150 0 -91 1926 3143 3 MP
PP
c8
1926 3143 mt 1926 3052 L
1926 3052 mt 1714 2902 L
1 sg
0 143 276 -127 1207 2317 3 MP
PP
c8
1207 2317 mt 1483 2190 L
1483 2190 mt 1483 2333 L
1 sg
276 -98 0 0 1483 2190 3 MP
PP
c14
1483 2190 mt 1483 2190 L
c8
1483 2190 mt 1759 2092 L
1759 2092 mt 1483 2190 L
1 sg
0 166 276 -98 1483 2190 3 MP
PP
c8
1483 2190 mt 1759 2092 L
1759 2092 mt 1759 2258 L
1 sg
0 0 276 -98 1483 2190 3 MP
PP
c14
1483 2190 mt 1759 2092 L
c15
1759 2092 mt 1759 2092 L
c8
1759 2092 mt 1483 2190 L
1 sg
276 -75 0 143 1483 2190 3 MP
PP
c8
1483 2190 mt 1483 2333 L
1483 2333 mt 1759 2258 L
1 sg
276 -98 -212 140 1695 2050 3 MP
PP
c17
1695 2050 mt 1483 2190 L
c14
1483 2190 mt 1759 2092 L
1 sg
-212 140 276 -202 1419 2252 3 MP
PP
c13
1419 2252 mt 1695 2050 L
c17
1695 2050 mt 1483 2190 L
1 sg
276 -202 -212 145 1631 2107 3 MP
PP
c18
1631 2107 mt 1419 2252 L
c13
1419 2252 mt 1695 2050 L
1 sg
-212 256 276 -313 1631 2107 3 MP
PP
c18
1631 2107 mt 1907 1794 L
c19
1907 1794 mt 1695 2050 L
1 sg
276 -313 -212 140 1843 1967 3 MP
PP
c19
1843 1967 mt 1631 2107 L
c18
1631 2107 mt 1907 1794 L
1 sg
-212 140 277 -428 1566 2395 3 MP
PP
c17
1566 2395 mt 1843 1967 L
c19
1843 1967 mt 1631 2107 L
1 sg
277 -428 -212 -43 1778 2438 3 MP
PP
c16
1778 2438 mt 1566 2395 L
c17
1566 2395 mt 1843 1967 L
1 sg
276 -343 -212 -121 1714 2902 3 MP
PP
c14
1714 2902 mt 1502 2781 L
c15
1502 2781 mt 1778 2438 L
1 sg
-212 -43 276 -343 1502 2781 3 MP
PP
c15
1502 2781 mt 1778 2438 L
c16
1778 2438 mt 1566 2395 L
1 sg
-212 -121 0 -143 1714 3045 3 MP
PP
c8
1714 3045 mt 1714 2902 L
1714 2902 mt 1502 2781 L
1 sg
0 0 -212 -121 1714 2902 3 MP
PP
c8
1714 2902 mt 1502 2781 L
1502 2781 mt 1502 2781 L
c15
1502 2781 mt 1714 2902 L
1 sg
0 -167 -212 -97 1714 3045 3 MP
PP
c8
1714 3045 mt 1502 2948 L
1502 2948 mt 1502 2781 L
1 sg
-212 -121 0 0 1714 2902 3 MP
PP
c8
1714 2902 mt 1714 2902 L
c14
1714 2902 mt 1502 2781 L
c15
1502 2781 mt 1714 2902 L
1 sg
276 -75 0 91 1207 2317 3 MP
PP
c8
1207 2317 mt 1207 2408 L
1207 2408 mt 1483 2333 L
1 sg
276 -317 -211 29 1566 2395 3 MP
PP
c17
1566 2395 mt 1355 2424 L
c13
1355 2424 mt 1631 2107 L
1 sg
-212 145 276 -317 1355 2424 3 MP
PP
c13
1355 2424 mt 1631 2107 L
c18
1631 2107 mt 1419 2252 L
1 sg
-211 29 276 -312 1290 2707 3 MP
PP
c14
1290 2707 mt 1566 2395 L
c17
1566 2395 mt 1355 2424 L
1 sg
276 -312 -212 -74 1502 2781 3 MP
PP
c15
1502 2781 mt 1290 2707 L
c14
1290 2707 mt 1566 2395 L
1 sg
0 0 -212 -74 1502 2781 3 MP
PP
c8
1502 2781 mt 1290 2707 L
1290 2707 mt 1290 2707 L
c14
1290 2707 mt 1502 2781 L
1 sg
-212 -74 0 -167 1502 2948 3 MP
PP
c8
1502 2948 mt 1502 2781 L
1502 2781 mt 1290 2707 L
1 sg
0 -143 -212 -98 1502 2948 3 MP
PP
c8
1502 2948 mt 1290 2850 L
1290 2850 mt 1290 2707 L
1 sg
-212 -74 0 0 1502 2781 3 MP
PP
c8
1502 2781 mt 1502 2781 L
c15
1502 2781 mt 1290 2707 L
c14
1290 2707 mt 1502 2781 L
1 sg
0 0 276 -127 1207 2317 3 MP
PP
c11
1207 2317 mt 1483 2190 L
c14
1483 2190 mt 1483 2190 L
c8
1483 2190 mt 1207 2317 L
1 sg
276 -127 0 0 1207 2317 3 MP
PP
c11
1207 2317 mt 1207 2317 L
c8
1207 2317 mt 1483 2190 L
1483 2190 mt 1207 2317 L
1 sg
276 -127 -212 65 1419 2252 3 MP
PP
c13
1419 2252 mt 1207 2317 L
c11
1207 2317 mt 1483 2190 L
1 sg
276 -205 -212 33 1355 2424 3 MP
PP
c13
1355 2424 mt 1143 2457 L
c12
1143 2457 mt 1419 2252 L
1 sg
0 91 276 -129 931 2446 3 MP
PP
c8
 931 2446 mt 1207 2317 L
1207 2317 mt 1207 2408 L
1 sg
276 -75 0 37 931 2446 3 MP
PP
c8
 931 2446 mt  931 2483 L
 931 2483 mt 1207 2408 L
1 sg
-212 65 276 -205 1143 2457 3 MP
PP
c12
1143 2457 mt 1419 2252 L
c13
1419 2252 mt 1207 2317 L
1 sg
-212 33 277 -238 1078 2662 3 MP
PP
c11
1078 2662 mt 1355 2424 L
c13
1355 2424 mt 1143 2457 L
1 sg
277 -238 -212 -45 1290 2707 3 MP
PP
c14
1290 2707 mt 1078 2662 L
c11
1078 2662 mt 1355 2424 L
1 sg
-212 -45 0 -143 1290 2850 3 MP
PP
c8
1290 2850 mt 1290 2707 L
1290 2707 mt 1078 2662 L
1 sg
-212 -45 0 0 1290 2707 3 MP
PP
c8
1290 2707 mt 1290 2707 L
c14
1290 2707 mt 1078 2662 L
c11
1078 2662 mt 1290 2707 L
1 sg
0 0 -212 -45 1290 2707 3 MP
PP
c8
1290 2707 mt 1078 2662 L
1078 2662 mt 1078 2662 L
c11
1078 2662 mt 1290 2707 L
1 sg
0 -91 -212 -97 1290 2850 3 MP
PP
c8
1290 2850 mt 1078 2753 L
1078 2753 mt 1078 2662 L
1 sg
276 -129 0 0 931 2446 3 MP
PP
c9
 931 2446 mt  931 2446 L
c8
 931 2446 mt 1207 2317 L
1207 2317 mt  931 2446 L
1 sg
0 0 276 -129 931 2446 3 MP
PP
c9
 931 2446 mt 1207 2317 L
c11
1207 2317 mt 1207 2317 L
c8
1207 2317 mt  931 2446 L
1 sg
276 -129 -212 -11 1143 2457 3 MP
PP
c12
1143 2457 mt  931 2446 L
c9
 931 2446 mt 1207 2317 L
1 sg
277 -162 -212 -43 1078 2662 3 MP
PP
c11
1078 2662 mt  866 2619 L
c9
 866 2619 mt 1143 2457 L
1 sg
276 -75 0 0 655 2558 3 MP
PP
c8
 655 2558 mt  655 2558 L
 655 2558 mt  931 2483 L
1 sg
0 37 276 -112 655 2558 3 MP
PP
c8
 655 2558 mt  931 2446 L
 931 2446 mt  931 2483 L
 931 2483 mt  655 2558 L
1 sg
-212 -11 277 -162 866 2619 3 MP
PP
c9
 866 2619 mt 1143 2457 L
c12
1143 2457 mt  931 2446 L
1 sg
0 -36 -212 -98 1078 2753 3 MP
PP
c8
1078 2753 mt  866 2655 L
 866 2655 mt  866 2619 L
1 sg
-212 -43 0 -91 1078 2753 3 MP
PP
c8
1078 2753 mt 1078 2662 L
1078 2662 mt  866 2619 L
1 sg
-212 -43 0 0 1078 2662 3 MP
PP
c8
1078 2662 mt 1078 2662 L
c11
1078 2662 mt  866 2619 L
c9
 866 2619 mt 1078 2662 L
1 sg
0 0 -212 -43 1078 2662 3 MP
PP
c8
1078 2662 mt  866 2619 L
 866 2619 mt  866 2619 L
c9
 866 2619 mt 1078 2662 L
1 sg
276 -112 0 0 655 2558 3 MP
PP
c10
 655 2558 mt  655 2558 L
c8
 655 2558 mt  931 2446 L
 931 2446 mt  655 2558 L
1 sg
0 0 276 -112 655 2558 3 MP
PP
c10
 655 2558 mt  931 2446 L
c9
 931 2446 mt  931 2446 L
c8
 931 2446 mt  655 2558 L
1 sg
276 -112 -211 -61 866 2619 3 MP
PP
c9
 866 2619 mt  655 2558 L
c10
 655 2558 mt  931 2446 L
1 sg
-211 -61 0 -36 866 2655 3 MP
PP
c8
 866 2655 mt  866 2619 L
 866 2619 mt  655 2558 L
 655 2558 mt  866 2655 L
1 sg
0 0 -211 -97 866 2655 3 MP
PP
c8
 866 2655 mt  655 2558 L
 655 2558 mt  655 2558 L
1 sg
0 0 -211 -61 866 2619 3 MP
PP
c8
 866 2619 mt  655 2558 L
 655 2558 mt  655 2558 L
c10
 655 2558 mt  866 2619 L
1 sg
-211 -61 0 0 866 2619 3 MP
PP
c8
 866 2619 mt  866 2619 L
c9
 866 2619 mt  655 2558 L
c10
 655 2558 mt  866 2619 L
1 sg
0 0 0 0 655 2558 3 MP
PP
c8
 655 2558 mt  655 2558 L
 655 2558 mt  655 2558 L
 655 2558 mt  655 2558 L
1 sg
0 0 0 0 655 2558 3 MP
PP
c8
 655 2558 mt  655 2558 L
 655 2558 mt  655 2558 L
 655 2558 mt  655 2558 L
1 sg
0 0 0 0 655 2558 3 MP
PP
c8
 655 2558 mt  655 2558 L
 655 2558 mt  655 2558 L
 655 2558 mt  655 2558 L
1 sg
0 0 0 0 655 2558 3 MP
PP
c8
 655 2558 mt  655 2558 L
 655 2558 mt  655 2558 L
 655 2558 mt  655 2558 L
1 sg
0 0 0 0 655 2558 3 MP
PP
c8
 655 2558 mt  655 2558 L
 655 2558 mt  655 2558 L
 655 2558 mt  655 2558 L
1 sg
0 0 0 0 655 2558 3 MP
PP
c8
 655 2558 mt  655 2558 L
c10
 655 2558 mt  655 2558 L
c8
 655 2558 mt  655 2558 L
1 sg
0 0 0 0 655 2558 3 MP
PP
c8
 655 2558 mt  655 2558 L
 655 2558 mt  655 2558 L
 655 2558 mt  655 2558 L
1 sg
0 0 0 0 655 2558 3 MP
PP
c8
 655 2558 mt  655 2558 L
 655 2558 mt  655 2558 L
 655 2558 mt  655 2558 L
gr

c8

end %%Color Dict

eplot
%%EndObject

epage
end

showpage

%%Trailer
%%EOF
