%!PS-Adobe-3.0 EPSF-3.0
%%Creator: MATLAB, The MathWorks, Inc. Version 7.11.0.584 (R2010b). Operating System: Microsoft Windows 7.
%%Title: D:\Dropbox\document\work\ELE747\Cours\cours3\content\matlab\mesh_gauss_5_1.eps
%%CreationDate: 01/17/2011  13:33:36
%%DocumentNeededFonts: Helvetica
%%DocumentProcessColors: Cyan Magenta Yellow Black
%%LanguageLevel: 2
%%Pages: 1
%%BoundingBox:    96   238   515   553
%%EndComments

%%BeginProlog
% MathWorks dictionary
/MathWorks 160 dict begin
% definition operators
/bdef {bind def} bind def
/ldef {load def} bind def
/xdef {exch def} bdef
/xstore {exch store} bdef
% operator abbreviations
/c  /clip ldef
/cc /concat ldef
/cp /closepath ldef
/gr /grestore ldef
/gs /gsave ldef
/mt /moveto ldef
/np /newpath ldef
/cm /currentmatrix ldef
/sm /setmatrix ldef
/rm /rmoveto ldef
/rl /rlineto ldef
/s {show newpath} bdef
/sc {setcmykcolor} bdef
/sr /setrgbcolor ldef
/sg /setgray ldef
/w /setlinewidth ldef
/j /setlinejoin ldef
/cap /setlinecap ldef
/rc {rectclip} bdef
/rf {rectfill} bdef
% page state control
/pgsv () def
/bpage {/pgsv save def} bdef
/epage {pgsv restore} bdef
/bplot /gsave ldef
/eplot {stroke grestore} bdef
% orientation switch
/portraitMode 0 def /landscapeMode 1 def /rotateMode 2 def
% coordinate system mappings
/dpi2point 0 def
% font control
/FontSize 0 def
/FMS {/FontSize xstore findfont [FontSize 0 0 FontSize neg 0 0]
  makefont setfont} bdef
/ISOLatin1Encoding where {pop /WindowsLatin1Encoding 256 array bdef
ISOLatin1Encoding WindowsLatin1Encoding copy pop
/.notdef/.notdef/quotesinglbase/florin/quotedblbase/ellipsis/dagger
/daggerdbl/circumflex/perthousand/Scaron/guilsinglleft/OE/.notdef/.notdef
/.notdef/.notdef/quoteleft/quoteright/quotedblleft/quotedblright/bullet
/endash/emdash/tilde/trademark/scaron/guilsinglright/oe/.notdef/.notdef
/Ydieresis WindowsLatin1Encoding 128 32 getinterval astore pop}
{/WindowsLatin1Encoding StandardEncoding bdef} ifelse
/reencode {exch dup where {pop load} {pop StandardEncoding} ifelse
  exch dup 3 1 roll findfont dup length dict begin
  { 1 index /FID ne {def}{pop pop} ifelse } forall
  /Encoding exch def currentdict end definefont pop} bdef
/isroman {findfont /CharStrings get /Agrave known} bdef
/FMSR {3 1 roll 1 index dup isroman {reencode} {pop pop} ifelse
  exch FMS} bdef
/csm {1 dpi2point div -1 dpi2point div scale neg translate
 dup landscapeMode eq {pop -90 rotate}
  {rotateMode eq {90 rotate} if} ifelse} bdef
% line types: solid, dotted, dashed, dotdash
/SO { [] 0 setdash } bdef
/DO { [.5 dpi2point mul 4 dpi2point mul] 0 setdash } bdef
/DA { [6 dpi2point mul] 0 setdash } bdef
/DD { [.5 dpi2point mul 4 dpi2point mul 6 dpi2point mul 4
  dpi2point mul] 0 setdash } bdef
% macros for lines and objects
/L {lineto stroke} bdef
/MP {3 1 roll moveto 1 sub {rlineto} repeat} bdef
/AP {{rlineto} repeat} bdef
/PDlw -1 def
/W {/PDlw currentlinewidth def setlinewidth} def
/PP {closepath eofill} bdef
/DP {closepath stroke} bdef
/MR {4 -2 roll moveto dup  0 exch rlineto exch 0 rlineto
  neg 0 exch rlineto closepath} bdef
/FR {MR stroke} bdef
/PR {MR fill} bdef
/L1i {{currentfile picstr readhexstring pop} image} bdef
/tMatrix matrix def
/MakeOval {newpath tMatrix currentmatrix pop translate scale
0 0 1 0 360 arc tMatrix setmatrix} bdef
/FO {MakeOval stroke} bdef
/PO {MakeOval fill} bdef
/PD {currentlinewidth 2 div 0 360 arc fill
   PDlw -1 eq not {PDlw w /PDlw -1 def} if} def
/FA {newpath tMatrix currentmatrix pop translate scale
  0 0 1 5 -2 roll arc tMatrix setmatrix stroke} bdef
/PA {newpath tMatrix currentmatrix pop	translate 0 0 moveto scale
  0 0 1 5 -2 roll arc closepath tMatrix setmatrix fill} bdef
/FAn {newpath tMatrix currentmatrix pop translate scale
  0 0 1 5 -2 roll arcn tMatrix setmatrix stroke} bdef
/PAn {newpath tMatrix currentmatrix pop translate 0 0 moveto scale
  0 0 1 5 -2 roll arcn closepath tMatrix setmatrix fill} bdef
/vradius 0 def /hradius 0 def /lry 0 def
/lrx 0 def /uly 0 def /ulx 0 def /rad 0 def
/MRR {/vradius xdef /hradius xdef /lry xdef /lrx xdef /uly xdef
  /ulx xdef newpath tMatrix currentmatrix pop ulx hradius add uly
  vradius add translate hradius vradius scale 0 0 1 180 270 arc 
  tMatrix setmatrix lrx hradius sub uly vradius add translate
  hradius vradius scale 0 0 1 270 360 arc tMatrix setmatrix
  lrx hradius sub lry vradius sub translate hradius vradius scale
  0 0 1 0 90 arc tMatrix setmatrix ulx hradius add lry vradius sub
  translate hradius vradius scale 0 0 1 90 180 arc tMatrix setmatrix
  closepath} bdef
/FRR {MRR stroke } bdef
/PRR {MRR fill } bdef
/MlrRR {/lry xdef /lrx xdef /uly xdef /ulx xdef /rad lry uly sub 2 div def
  newpath tMatrix currentmatrix pop ulx rad add uly rad add translate
  rad rad scale 0 0 1 90 270 arc tMatrix setmatrix lrx rad sub lry rad
  sub translate rad rad scale 0 0 1 270 90 arc tMatrix setmatrix
  closepath} bdef
/FlrRR {MlrRR stroke } bdef
/PlrRR {MlrRR fill } bdef
/MtbRR {/lry xdef /lrx xdef /uly xdef /ulx xdef /rad lrx ulx sub 2 div def
  newpath tMatrix currentmatrix pop ulx rad add uly rad add translate
  rad rad scale 0 0 1 180 360 arc tMatrix setmatrix lrx rad sub lry rad
  sub translate rad rad scale 0 0 1 0 180 arc tMatrix setmatrix
  closepath} bdef
/FtbRR {MtbRR stroke } bdef
/PtbRR {MtbRR fill } bdef
/stri 6 array def /dtri 6 array def
/smat 6 array def /dmat 6 array def
/tmat1 6 array def /tmat2 6 array def /dif 3 array def
/asub {/ind2 exch def /ind1 exch def dup dup
  ind1 get exch ind2 get sub exch } bdef
/tri_to_matrix {
  2 0 asub 3 1 asub 4 0 asub 5 1 asub
  dup 0 get exch 1 get 7 -1 roll astore } bdef
/compute_transform {
  dmat dtri tri_to_matrix tmat1 invertmatrix 
  smat stri tri_to_matrix tmat2 concatmatrix } bdef
/ds {stri astore pop} bdef
/dt {dtri astore pop} bdef
/db {2 copy /cols xdef /rows xdef mul dup 3 mul string
  currentfile 
  3 index 0 eq {/ASCIIHexDecode filter}
  {/ASCII85Decode filter 3 index 2 eq {/RunLengthDecode filter} if }
  ifelse exch readstring pop
  dup 0 3 index getinterval /rbmap xdef
  dup 2 index dup getinterval /gbmap xdef
  1 index dup 2 mul exch getinterval /bbmap xdef pop pop}bdef
/it {gs np dtri aload pop moveto lineto lineto cp c
  cols rows 8 compute_transform 
  rbmap gbmap bbmap true 3 colorimage gr}bdef
/il {newpath moveto lineto stroke}bdef
currentdict end def
%%EndProlog

%%BeginSetup
MathWorks begin

0 cap

end
%%EndSetup

%%Page: 1 1
%%BeginPageSetup
%%PageBoundingBox:    96   238   515   553
MathWorks begin
bpage
%%EndPageSetup

%%BeginObject: obj1
bplot

/dpi2point 12 def
portraitMode 1152 6636 csm

    0     0  5039  3780 rc
85 dict begin %Colortable dictionary
/c0 { 0.000000 0.000000 0.000000 sr} bdef
/c1 { 1.000000 1.000000 1.000000 sr} bdef
/c2 { 0.900000 0.000000 0.000000 sr} bdef
/c3 { 0.000000 0.820000 0.000000 sr} bdef
/c4 { 0.000000 0.000000 0.800000 sr} bdef
/c5 { 0.910000 0.820000 0.320000 sr} bdef
/c6 { 1.000000 0.260000 0.820000 sr} bdef
/c7 { 0.000000 0.820000 0.820000 sr} bdef
c0
1 j
1 sg
   0    0 5040 3781 rf
6 w
0 1703 -1696 -780 0 -1703 4560 2765 4 MP
PP
1696 780 0 1703 -1696 -780 0 -1703 4560 2765 5 MP stroke
1696 780 2209 -599 -1695 -779 2350 3363 4 MP
PP
-2210 598 1696 780 2209 -599 -1695 -779 2350 3363 5 MP stroke
0 1703 2209 -599 0 -1703 655 2584 4 MP
PP
-2209 599 0 1703 2209 -599 0 -1703 655 2584 5 MP stroke
4 w
DO
SO
6 w
0 sg
2350 3363 mt 4560 2765 L
2350 3363 mt  655 2584 L
 655 2584 mt  655  881 L
2350 3363 mt 2402 3387 L
%%IncludeResource: font Helvetica
/Helvetica /WindowsLatin1Encoding 120 FMSR

2433 3513 mt 
(0) s
2902 3214 mt 2954 3238 L
2986 3363 mt 
(1) s
3455 3064 mt 3507 3088 L
3538 3214 mt 
(2) s
4007 2915 mt 4059 2939 L
4091 3064 mt 
(3) s
4560 2765 mt 4612 2789 L
4643 2914 mt 
(4) s
2350 3363 mt 2295 3378 L
2195 3498 mt 
(0) s
1926 3169 mt 1871 3183 L
1771 3304 mt 
(1) s
1502 2974 mt 1447 2989 L
1348 3109 mt 
(2) s
1078 2779 mt 1023 2794 L
 924 2914 mt 
(3) s
 655 2584 mt  599 2599 L
 500 2719 mt 
(4) s
 655 2584 mt  602 2560 L
 505 2589 mt 
(0) s
 655 2158 mt  602 2134 L
 338 2164 mt 
(0.05) s
 655 1732 mt  602 1708 L
 405 1738 mt 
(0.1) s
 655 1307 mt  602 1283 L
 338 1312 mt 
(0.15) s
 655  881 mt  602  857 L
 405  887 mt 
(0.2) s
gs 655 282 3906 3082 rc
1 sg
0 0 0 0 4560 2740 3 MP
PP
/c8 { 0.562500 1.000000 0.437500 sr} bdef
c8
4560 2740 mt 4560 2740 L
4560 2740 mt 4560 2740 L
4560 2740 mt 4560 2740 L
1 sg
0 0 -424 -283 4560 2740 3 MP
PP
/c9 { 0.000000 0.000000 0.562500 sr} bdef
c9
4560 2740 mt 4136 2457 L
/c10 { 0.000000 0.000000 0.812500 sr} bdef
c10
4136 2457 mt 4136 2457 L
c8
4136 2457 mt 4560 2740 L
1 sg
0 0 0 0 4560 2740 3 MP
PP
c8
4560 2740 mt 4560 2740 L
4560 2740 mt 4560 2740 L
4560 2740 mt 4560 2740 L
1 sg
0 0 0 0 4560 2740 3 MP
PP
c8
4560 2740 mt 4560 2740 L
c9
4560 2740 mt 4560 2740 L
c8
4560 2740 mt 4560 2740 L
1 sg
0 0 553 -149 4007 2889 3 MP
PP
c8
4007 2889 mt 4560 2740 L
4560 2740 mt 4560 2740 L
1 sg
553 -61 0 -88 4007 2889 3 MP
PP
c8
4007 2889 mt 4007 2801 L
4007 2801 mt 4560 2740 L
4560 2740 mt 4007 2889 L
1 sg
0 0 553 -61 4007 2801 3 MP
PP
c8
4007 2801 mt 4560 2740 L
4560 2740 mt 4560 2740 L
c9
4560 2740 mt 4007 2801 L
1 sg
553 -61 0 0 4007 2801 3 MP
PP
c8
4007 2801 mt 4007 2801 L
c10
4007 2801 mt 4560 2740 L
c9
4560 2740 mt 4007 2801 L
1 sg
0 0 0 0 4560 2740 3 MP
PP
c8
4560 2740 mt 4560 2740 L
4560 2740 mt 4560 2740 L
4560 2740 mt 4560 2740 L
1 sg
0 0 0 0 4560 2740 3 MP
PP
c8
4560 2740 mt 4560 2740 L
4560 2740 mt 4560 2740 L
4560 2740 mt 4560 2740 L
1 sg
0 88 -424 -283 4560 2740 3 MP
PP
c8
4560 2740 mt 4136 2457 L
4136 2457 mt 4136 2545 L
4136 2545 mt 4560 2740 L
1 sg
-424 -195 0 0 4560 2740 3 MP
PP
c8
4560 2740 mt 4560 2740 L
4560 2740 mt 4136 2545 L
1 sg
0 0 0 0 4560 2740 3 MP
PP
c8
4560 2740 mt 4560 2740 L
4560 2740 mt 4560 2740 L
4560 2740 mt 4560 2740 L
1 sg
0 0 0 0 4560 2740 3 MP
PP
c8
4560 2740 mt 4560 2740 L
4560 2740 mt 4560 2740 L
4560 2740 mt 4560 2740 L
1 sg
-424 -283 0 0 4560 2740 3 MP
PP
c9
4560 2740 mt 4560 2740 L
c8
4560 2740 mt 4136 2457 L
4136 2457 mt 4560 2740 L
1 sg
0 0 0 0 4560 2740 3 MP
PP
c8
4560 2740 mt 4560 2740 L
4560 2740 mt 4560 2740 L
4560 2740 mt 4560 2740 L
1 sg
-424 -195 0 88 4136 2457 3 MP
PP
c8
4136 2457 mt 4136 2545 L
4136 2545 mt 3712 2350 L
1 sg
-424 -283 553 -61 4007 2801 3 MP
PP
c10
4007 2801 mt 4560 2740 L
c9
4560 2740 mt 4136 2457 L
1 sg
-424 -195 0 162 3712 2188 3 MP
PP
c8
3712 2188 mt 3712 2350 L
3712 2350 mt 3288 2155 L
1 sg
0 162 -424 -269 4136 2457 3 MP
PP
c8
4136 2457 mt 3712 2188 L
3712 2188 mt 3712 2350 L
1 sg
553 245 -424 -589 4007 2801 3 MP
PP
c10
4007 2801 mt 3583 2212 L
/c11 { 0.000000 0.937500 1.000000 sr} bdef
c11
3583 2212 mt 4136 2457 L
1 sg
-424 -269 553 245 3583 2212 3 MP
PP
c11
3583 2212 mt 4136 2457 L
c10
4136 2457 mt 3712 2188 L
1 sg
0 0 -424 -269 4136 2457 3 MP
PP
c10
4136 2457 mt 3712 2188 L
/c12 { 0.000000 0.000000 1.000000 sr} bdef
c12
3712 2188 mt 3712 2188 L
c8
3712 2188 mt 4136 2457 L
1 sg
-424 -269 0 0 4136 2457 3 MP
PP
c10
4136 2457 mt 4136 2457 L
c8
4136 2457 mt 3712 2188 L
3712 2188 mt 4136 2457 L
1 sg
-424 -589 552 -77 3455 2878 3 MP
PP
c12
3455 2878 mt 4007 2801 L
c10
4007 2801 mt 3583 2212 L
1 sg
0 0 552 -77 3455 2878 3 MP
PP
c8
3455 2878 mt 4007 2801 L
4007 2801 mt 4007 2801 L
c10
4007 2801 mt 3455 2878 L
1 sg
552 -77 0 -161 3455 3039 3 MP
PP
c8
3455 3039 mt 3455 2878 L
3455 2878 mt 4007 2801 L
1 sg
552 -77 0 0 3455 2878 3 MP
PP
c8
3455 2878 mt 3455 2878 L
c12
3455 2878 mt 4007 2801 L
c10
4007 2801 mt 3455 2878 L
1 sg
0 -88 552 -150 3455 3039 3 MP
PP
c8
3455 3039 mt 4007 2889 L
4007 2889 mt 4007 2801 L
1 sg
-424 -121 0 0 3712 2188 3 MP
PP
c12
3712 2188 mt 3712 2188 L
c8
3712 2188 mt 3288 2067 L
3288 2067 mt 3712 2188 L
1 sg
0 0 -424 -121 3712 2188 3 MP
PP
c12
3712 2188 mt 3288 2067 L
c10
3288 2067 mt 3288 2067 L
c8
3288 2067 mt 3712 2188 L
1 sg
0 88 -424 -121 3712 2188 3 MP
PP
c8
3712 2188 mt 3288 2067 L
3288 2067 mt 3288 2155 L
1 sg
-424 -121 553 500 3159 1688 3 MP
PP
/c13 { 0.937500 1.000000 0.062500 sr} bdef
c13
3159 1688 mt 3712 2188 L
c12
3712 2188 mt 3288 2067 L
1 sg
553 500 -424 -524 3583 2212 3 MP
PP
c11
3583 2212 mt 3159 1688 L
c13
3159 1688 mt 3712 2188 L
1 sg
-424 -195 0 88 3288 2067 3 MP
PP
c8
3288 2067 mt 3288 2155 L
3288 2155 mt 2864 1960 L
2864 1960 mt 3288 2067 L
1 sg
552 180 -424 -846 3455 2878 3 MP
PP
c12
3455 2878 mt 3031 2032 L
c13
3031 2032 mt 3583 2212 L
1 sg
0 0 -424 -107 3288 2067 3 MP
PP
c8
3288 2067 mt 2864 1960 L
2864 1960 mt 2864 1960 L
1 sg
0 0 -424 -107 3288 2067 3 MP
PP
c10
3288 2067 mt 2864 1960 L
c9
2864 1960 mt 2864 1960 L
c8
2864 1960 mt 3288 2067 L
1 sg
552 245 -423 134 3159 1688 3 MP
PP
c13
3159 1688 mt 2736 1822 L
c11
2736 1822 mt 3288 2067 L
1 sg
-424 -107 552 245 2736 1822 3 MP
PP
c11
2736 1822 mt 3288 2067 L
c10
3288 2067 mt 2864 1960 L
1 sg
-424 -107 0 0 3288 2067 3 MP
PP
c10
3288 2067 mt 3288 2067 L
c8
3288 2067 mt 2864 1960 L
2864 1960 mt 3288 2067 L
1 sg
-424 -524 552 180 3031 2032 3 MP
PP
c13
3031 2032 mt 3583 2212 L
c11
3583 2212 mt 3159 1688 L
1 sg
553 -223 0 -88 2902 3189 3 MP
PP
c8
2902 3189 mt 2902 3101 L
2902 3101 mt 3455 2878 L
1 sg
0 -161 553 -150 2902 3189 3 MP
PP
c8
2902 3189 mt 3455 3039 L
3455 3039 mt 3455 2878 L
1 sg
0 0 553 -223 2902 3101 3 MP
PP
c8
2902 3101 mt 3455 2878 L
3455 2878 mt 3455 2878 L
c12
3455 2878 mt 2902 3101 L
1 sg
-424 -846 553 -223 2902 3101 3 MP
PP
c10
2902 3101 mt 3455 2878 L
c12
3455 2878 mt 3031 2032 L
1 sg
553 -223 0 0 2902 3101 3 MP
PP
c8
2902 3101 mt 2902 3101 L
c10
2902 3101 mt 3455 2878 L
c12
3455 2878 mt 2902 3101 L
1 sg
-423 134 552 394 2607 1294 3 MP
PP
/c14 { 0.500000 0.000000 0.000000 sr} bdef
c14
2607 1294 mt 3159 1688 L
c13
3159 1688 mt 2736 1822 L
1 sg
552 394 -424 -738 3031 2032 3 MP
PP
c13
3031 2032 mt 2607 1294 L
c14
2607 1294 mt 3159 1688 L
1 sg
553 -479 -424 -590 2902 3101 3 MP
PP
c10
2902 3101 mt 2478 2511 L
c11
2478 2511 mt 3031 2032 L
1 sg
553 180 -424 348 2607 1294 3 MP
PP
c14
2607 1294 mt 2183 1642 L
c13
2183 1642 mt 2736 1822 L
1 sg
-424 199 553 180 2183 1642 3 MP
PP
c13
2183 1642 mt 2736 1822 L
c11
2736 1822 mt 2312 2021 L
1 sg
552 -61 -424 199 2736 1822 3 MP
PP
c11
2736 1822 mt 2312 2021 L
c10
2312 2021 mt 2864 1960 L
1 sg
0 0 0 0 2864 1960 3 MP
PP
c8
2864 1960 mt 2864 1960 L
2864 1960 mt 2864 1960 L
2864 1960 mt 2864 1960 L
1 sg
0 0 0 0 2864 1960 3 MP
PP
c8
2864 1960 mt 2864 1960 L
2864 1960 mt 2864 1960 L
2864 1960 mt 2864 1960 L
1 sg
0 0 0 0 2864 1960 3 MP
PP
c8
2864 1960 mt 2864 1960 L
2864 1960 mt 2864 1960 L
2864 1960 mt 2864 1960 L
1 sg
0 0 0 0 2864 1960 3 MP
PP
c8
2864 1960 mt 2864 1960 L
2864 1960 mt 2864 1960 L
2864 1960 mt 2864 1960 L
1 sg
0 0 0 0 2864 1960 3 MP
PP
c8
2864 1960 mt 2864 1960 L
2864 1960 mt 2864 1960 L
2864 1960 mt 2864 1960 L
1 sg
0 0 0 0 2864 1960 3 MP
PP
c9
2864 1960 mt 2864 1960 L
c8
2864 1960 mt 2864 1960 L
2864 1960 mt 2864 1960 L
1 sg
0 0 552 -61 2312 2021 3 MP
PP
c10
2312 2021 mt 2864 1960 L
c9
2864 1960 mt 2864 1960 L
c8
2864 1960 mt 2312 2021 L
1 sg
552 -61 0 0 2312 2021 3 MP
PP
c10
2312 2021 mt 2312 2021 L
c8
2312 2021 mt 2864 1960 L
2864 1960 mt 2312 2021 L
1 sg
0 0 0 0 2864 1960 3 MP
PP
c9
2864 1960 mt 2864 1960 L
c8
2864 1960 mt 2864 1960 L
2864 1960 mt 2864 1960 L
1 sg
0 0 0 0 2864 1960 3 MP
PP
c8
2864 1960 mt 2864 1960 L
2864 1960 mt 2864 1960 L
2864 1960 mt 2864 1960 L
1 sg
0 0 552 -61 2312 2021 3 MP
PP
c8
2312 2021 mt 2864 1960 L
2864 1960 mt 2864 1960 L
1 sg
552 -150 0 89 2312 2021 3 MP
PP
c8
2312 2021 mt 2312 2110 L
2312 2110 mt 2864 1960 L
2864 1960 mt 2312 2021 L
1 sg
-424 -738 553 -479 2478 2511 3 MP
PP
c11
2478 2511 mt 3031 2032 L
c13
3031 2032 mt 2607 1294 L
1 sg
0 0 552 -237 2350 3338 3 MP
PP
c8
2350 3338 mt 2902 3101 L
2902 3101 mt 2902 3101 L
c10
2902 3101 mt 2350 3338 L
1 sg
552 -237 0 0 2350 3338 3 MP
PP
c8
2350 3338 mt 2350 3338 L
c9
2350 3338 mt 2902 3101 L
c10
2902 3101 mt 2350 3338 L
1 sg
-424 -590 552 -237 2350 3338 3 MP
PP
c9
2350 3338 mt 2902 3101 L
c10
2902 3101 mt 2478 2511 L
1 sg
0 -88 552 -149 2350 3338 3 MP
PP
c8
2350 3338 mt 2902 3189 L
2902 3189 mt 2902 3101 L
2902 3101 mt 2350 3338 L
1 sg
552 -237 0 0 2350 3338 3 MP
PP
c8
2350 3338 mt 2350 3338 L
2350 3338 mt 2902 3101 L
1 sg
553 -77 -424 456 2183 1642 3 MP
PP
c13
2183 1642 mt 1759 2098 L
c12
1759 2098 mt 2312 2021 L
1 sg
-424 348 552 -693 2055 1987 3 MP
PP
c13
2055 1987 mt 2607 1294 L
c14
2607 1294 mt 2183 1642 L
1 sg
553 -77 0 0 1759 2098 3 MP
PP
c12
1759 2098 mt 1759 2098 L
c8
1759 2098 mt 2312 2021 L
2312 2021 mt 1759 2098 L
1 sg
0 89 553 -77 1759 2098 3 MP
PP
c8
1759 2098 mt 2312 2021 L
2312 2021 mt 2312 2110 L
1 sg
0 0 553 -77 1759 2098 3 MP
PP
c12
1759 2098 mt 2312 2021 L
c10
2312 2021 mt 2312 2021 L
c8
2312 2021 mt 1759 2098 L
1 sg
553 -149 0 161 1759 2098 3 MP
PP
c8
1759 2098 mt 1759 2259 L
1759 2259 mt 2312 2110 L
1 sg
552 -693 -423 -524 2478 2511 3 MP
PP
c11
2478 2511 mt 2055 1987 L
c13
2055 1987 mt 2607 1294 L
1 sg
-423 -524 552 -544 1926 3055 3 MP
PP
c10
1926 3055 mt 2478 2511 L
c11
2478 2511 mt 2055 1987 L
1 sg
552 -544 -424 -283 2350 3338 3 MP
PP
c9
2350 3338 mt 1926 3055 L
c10
1926 3055 mt 2478 2511 L
1 sg
0 0 -424 -283 2350 3338 3 MP
PP
c8
2350 3338 mt 1926 3055 L
1926 3055 mt 1926 3055 L
c10
1926 3055 mt 2350 3338 L
1 sg
0 0 0 0 2350 3338 3 MP
PP
c8
2350 3338 mt 2350 3338 L
2350 3338 mt 2350 3338 L
c9
2350 3338 mt 2350 3338 L
1 sg
0 0 0 0 2350 3338 3 MP
PP
c8
2350 3338 mt 2350 3338 L
2350 3338 mt 2350 3338 L
c9
2350 3338 mt 2350 3338 L
1 sg
0 0 0 0 2350 3338 3 MP
PP
c8
2350 3338 mt 2350 3338 L
2350 3338 mt 2350 3338 L
2350 3338 mt 2350 3338 L
1 sg
-424 -283 0 0 2350 3338 3 MP
PP
c8
2350 3338 mt 2350 3338 L
c9
2350 3338 mt 1926 3055 L
c10
1926 3055 mt 2350 3338 L
1 sg
0 -88 -424 -195 2350 3338 3 MP
PP
c8
2350 3338 mt 1926 3143 L
1926 3143 mt 1926 3055 L
1926 3055 mt 2350 3338 L
1 sg
-424 -283 0 0 2350 3338 3 MP
PP
c8
2350 3338 mt 2350 3338 L
2350 3338 mt 1926 3055 L
1 sg
0 0 0 0 2350 3338 3 MP
PP
c8
2350 3338 mt 2350 3338 L
2350 3338 mt 2350 3338 L
2350 3338 mt 2350 3338 L
1 sg
0 0 0 0 2350 3338 3 MP
PP
c8
2350 3338 mt 2350 3338 L
2350 3338 mt 2350 3338 L
2350 3338 mt 2350 3338 L
1 sg
0 0 0 0 2350 3338 3 MP
PP
c8
2350 3338 mt 2350 3338 L
2350 3338 mt 2350 3338 L
2350 3338 mt 2350 3338 L
1 sg
0 0 0 0 2350 3338 3 MP
PP
c8
2350 3338 mt 2350 3338 L
2350 3338 mt 2350 3338 L
2350 3338 mt 2350 3338 L
1 sg
0 0 0 0 2350 3338 3 MP
PP
c8
2350 3338 mt 2350 3338 L
2350 3338 mt 2350 3338 L
2350 3338 mt 2350 3338 L
1 sg
-424 456 552 -479 1631 2121 3 MP
PP
c11
1631 2121 mt 2183 1642 L
c13
2183 1642 mt 1759 2098 L
1 sg
552 -479 -424 134 2055 1987 3 MP
PP
c13
2055 1987 mt 1631 2121 L
c11
1631 2121 mt 2183 1642 L
1 sg
0 0 552 -223 1207 2321 3 MP
PP
c10
1207 2321 mt 1759 2098 L
c12
1759 2098 mt 1759 2098 L
c8
1759 2098 mt 1207 2321 L
1 sg
552 -223 -424 200 1631 2121 3 MP
PP
c11
1631 2121 mt 1207 2321 L
c10
1207 2321 mt 1759 2098 L
1 sg
552 -150 0 88 1207 2321 3 MP
PP
c8
1207 2321 mt 1207 2409 L
1207 2409 mt 1759 2259 L
1 sg
0 161 552 -223 1207 2321 3 MP
PP
c8
1207 2321 mt 1759 2098 L
1759 2098 mt 1759 2259 L
1 sg
552 -223 0 0 1207 2321 3 MP
PP
c10
1207 2321 mt 1207 2321 L
c8
1207 2321 mt 1759 2098 L
1759 2098 mt 1207 2321 L
1 sg
-424 134 553 -800 1502 2787 3 MP
PP
c12
1502 2787 mt 2055 1987 L
c13
2055 1987 mt 1631 2121 L
1 sg
553 -800 -424 -268 1926 3055 3 MP
PP
c10
1926 3055 mt 1502 2787 L
c12
1502 2787 mt 2055 1987 L
1 sg
0 -161 -424 -195 1926 3143 3 MP
PP
c8
1926 3143 mt 1502 2948 L
1502 2948 mt 1502 2787 L
1 sg
-424 -268 0 -88 1926 3143 3 MP
PP
c8
1926 3143 mt 1926 3055 L
1926 3055 mt 1502 2787 L
1 sg
-424 -268 0 0 1926 3055 3 MP
PP
c8
1926 3055 mt 1926 3055 L
c10
1926 3055 mt 1502 2787 L
c12
1502 2787 mt 1926 3055 L
1 sg
0 0 -424 -268 1926 3055 3 MP
PP
c8
1926 3055 mt 1502 2787 L
1502 2787 mt 1502 2787 L
c12
1502 2787 mt 1926 3055 L
1 sg
553 -544 -424 -122 1502 2787 3 MP
PP
c12
1502 2787 mt 1078 2665 L
c10
1078 2665 mt 1631 2121 L
1 sg
552 -149 0 0 655 2558 3 MP
PP
c8
 655 2558 mt  655 2558 L
 655 2558 mt 1207 2409 L
1 sg
0 88 552 -237 655 2558 3 MP
PP
c8
 655 2558 mt 1207 2321 L
1207 2321 mt 1207 2409 L
1207 2409 mt  655 2558 L
1 sg
-424 200 553 -544 1078 2665 3 MP
PP
c10
1078 2665 mt 1631 2121 L
c11
1631 2121 mt 1207 2321 L
1 sg
0 -88 -424 -195 1502 2948 3 MP
PP
c8
1502 2948 mt 1078 2753 L
1078 2753 mt 1078 2665 L
1 sg
0 0 -424 -122 1502 2787 3 MP
PP
c8
1502 2787 mt 1078 2665 L
1078 2665 mt 1078 2665 L
c10
1078 2665 mt 1502 2787 L
1 sg
-424 -122 0 0 1502 2787 3 MP
PP
c8
1502 2787 mt 1502 2787 L
c12
1502 2787 mt 1078 2665 L
c10
1078 2665 mt 1502 2787 L
1 sg
-424 -122 0 -161 1502 2948 3 MP
PP
c8
1502 2948 mt 1502 2787 L
1502 2787 mt 1078 2665 L
1 sg
552 -237 0 0 655 2558 3 MP
PP
c9
 655 2558 mt  655 2558 L
c8
 655 2558 mt 1207 2321 L
1207 2321 mt  655 2558 L
1 sg
552 -237 -423 -107 1078 2665 3 MP
PP
c10
1078 2665 mt  655 2558 L
c9
 655 2558 mt 1207 2321 L
1 sg
0 0 552 -237 655 2558 3 MP
PP
c9
 655 2558 mt 1207 2321 L
c10
1207 2321 mt 1207 2321 L
c8
1207 2321 mt  655 2558 L
1 sg
-423 -107 0 -88 1078 2753 3 MP
PP
c8
1078 2753 mt 1078 2665 L
1078 2665 mt  655 2558 L
 655 2558 mt 1078 2753 L
1 sg
-423 -107 0 0 1078 2665 3 MP
PP
c8
1078 2665 mt 1078 2665 L
c10
1078 2665 mt  655 2558 L
c9
 655 2558 mt 1078 2665 L
1 sg
0 0 -423 -107 1078 2665 3 MP
PP
c8
1078 2665 mt  655 2558 L
 655 2558 mt  655 2558 L
c9
 655 2558 mt 1078 2665 L
1 sg
0 0 -423 -195 1078 2753 3 MP
PP
c8
1078 2753 mt  655 2558 L
 655 2558 mt  655 2558 L
1 sg
0 0 0 0 655 2558 3 MP
PP
c8
 655 2558 mt  655 2558 L
 655 2558 mt  655 2558 L
 655 2558 mt  655 2558 L
1 sg
0 0 0 0 655 2558 3 MP
PP
c8
 655 2558 mt  655 2558 L
 655 2558 mt  655 2558 L
 655 2558 mt  655 2558 L
1 sg
0 0 0 0 655 2558 3 MP
PP
c8
 655 2558 mt  655 2558 L
c9
 655 2558 mt  655 2558 L
c8
 655 2558 mt  655 2558 L
1 sg
0 0 0 0 655 2558 3 MP
PP
c8
 655 2558 mt  655 2558 L
 655 2558 mt  655 2558 L
 655 2558 mt  655 2558 L
1 sg
0 0 0 0 655 2558 3 MP
PP
c8
 655 2558 mt  655 2558 L
 655 2558 mt  655 2558 L
 655 2558 mt  655 2558 L
1 sg
0 0 0 0 655 2558 3 MP
PP
c8
 655 2558 mt  655 2558 L
 655 2558 mt  655 2558 L
 655 2558 mt  655 2558 L
1 sg
0 0 0 0 655 2558 3 MP
PP
c8
 655 2558 mt  655 2558 L
 655 2558 mt  655 2558 L
 655 2558 mt  655 2558 L
1 sg
0 0 0 0 655 2558 3 MP
PP
c8
 655 2558 mt  655 2558 L
 655 2558 mt  655 2558 L
 655 2558 mt  655 2558 L
gr

c8

end %%Color Dict

eplot
%%EndObject

epage
end

showpage

%%Trailer
%%EOF
