%!PS-Adobe-3.0 EPSF-3.0
%%Creator: MATLAB, The MathWorks, Inc. Version 7.11.0.584 (R2010b). Operating System: Microsoft Windows 7.
%%Title: D:\Dropbox\document\work\ELE747\Cours\cours3\content\matlab\mesh_gauss_7_2.eps
%%CreationDate: 01/17/2011  13:34:24
%%DocumentNeededFonts: Helvetica
%%DocumentProcessColors: Cyan Magenta Yellow Black
%%LanguageLevel: 2
%%Pages: 1
%%BoundingBox:    96   238   515   553
%%EndComments

%%BeginProlog
% MathWorks dictionary
/MathWorks 160 dict begin
% definition operators
/bdef {bind def} bind def
/ldef {load def} bind def
/xdef {exch def} bdef
/xstore {exch store} bdef
% operator abbreviations
/c  /clip ldef
/cc /concat ldef
/cp /closepath ldef
/gr /grestore ldef
/gs /gsave ldef
/mt /moveto ldef
/np /newpath ldef
/cm /currentmatrix ldef
/sm /setmatrix ldef
/rm /rmoveto ldef
/rl /rlineto ldef
/s {show newpath} bdef
/sc {setcmykcolor} bdef
/sr /setrgbcolor ldef
/sg /setgray ldef
/w /setlinewidth ldef
/j /setlinejoin ldef
/cap /setlinecap ldef
/rc {rectclip} bdef
/rf {rectfill} bdef
% page state control
/pgsv () def
/bpage {/pgsv save def} bdef
/epage {pgsv restore} bdef
/bplot /gsave ldef
/eplot {stroke grestore} bdef
% orientation switch
/portraitMode 0 def /landscapeMode 1 def /rotateMode 2 def
% coordinate system mappings
/dpi2point 0 def
% font control
/FontSize 0 def
/FMS {/FontSize xstore findfont [FontSize 0 0 FontSize neg 0 0]
  makefont setfont} bdef
/ISOLatin1Encoding where {pop /WindowsLatin1Encoding 256 array bdef
ISOLatin1Encoding WindowsLatin1Encoding copy pop
/.notdef/.notdef/quotesinglbase/florin/quotedblbase/ellipsis/dagger
/daggerdbl/circumflex/perthousand/Scaron/guilsinglleft/OE/.notdef/.notdef
/.notdef/.notdef/quoteleft/quoteright/quotedblleft/quotedblright/bullet
/endash/emdash/tilde/trademark/scaron/guilsinglright/oe/.notdef/.notdef
/Ydieresis WindowsLatin1Encoding 128 32 getinterval astore pop}
{/WindowsLatin1Encoding StandardEncoding bdef} ifelse
/reencode {exch dup where {pop load} {pop StandardEncoding} ifelse
  exch dup 3 1 roll findfont dup length dict begin
  { 1 index /FID ne {def}{pop pop} ifelse } forall
  /Encoding exch def currentdict end definefont pop} bdef
/isroman {findfont /CharStrings get /Agrave known} bdef
/FMSR {3 1 roll 1 index dup isroman {reencode} {pop pop} ifelse
  exch FMS} bdef
/csm {1 dpi2point div -1 dpi2point div scale neg translate
 dup landscapeMode eq {pop -90 rotate}
  {rotateMode eq {90 rotate} if} ifelse} bdef
% line types: solid, dotted, dashed, dotdash
/SO { [] 0 setdash } bdef
/DO { [.5 dpi2point mul 4 dpi2point mul] 0 setdash } bdef
/DA { [6 dpi2point mul] 0 setdash } bdef
/DD { [.5 dpi2point mul 4 dpi2point mul 6 dpi2point mul 4
  dpi2point mul] 0 setdash } bdef
% macros for lines and objects
/L {lineto stroke} bdef
/MP {3 1 roll moveto 1 sub {rlineto} repeat} bdef
/AP {{rlineto} repeat} bdef
/PDlw -1 def
/W {/PDlw currentlinewidth def setlinewidth} def
/PP {closepath eofill} bdef
/DP {closepath stroke} bdef
/MR {4 -2 roll moveto dup  0 exch rlineto exch 0 rlineto
  neg 0 exch rlineto closepath} bdef
/FR {MR stroke} bdef
/PR {MR fill} bdef
/L1i {{currentfile picstr readhexstring pop} image} bdef
/tMatrix matrix def
/MakeOval {newpath tMatrix currentmatrix pop translate scale
0 0 1 0 360 arc tMatrix setmatrix} bdef
/FO {MakeOval stroke} bdef
/PO {MakeOval fill} bdef
/PD {currentlinewidth 2 div 0 360 arc fill
   PDlw -1 eq not {PDlw w /PDlw -1 def} if} def
/FA {newpath tMatrix currentmatrix pop translate scale
  0 0 1 5 -2 roll arc tMatrix setmatrix stroke} bdef
/PA {newpath tMatrix currentmatrix pop	translate 0 0 moveto scale
  0 0 1 5 -2 roll arc closepath tMatrix setmatrix fill} bdef
/FAn {newpath tMatrix currentmatrix pop translate scale
  0 0 1 5 -2 roll arcn tMatrix setmatrix stroke} bdef
/PAn {newpath tMatrix currentmatrix pop translate 0 0 moveto scale
  0 0 1 5 -2 roll arcn closepath tMatrix setmatrix fill} bdef
/vradius 0 def /hradius 0 def /lry 0 def
/lrx 0 def /uly 0 def /ulx 0 def /rad 0 def
/MRR {/vradius xdef /hradius xdef /lry xdef /lrx xdef /uly xdef
  /ulx xdef newpath tMatrix currentmatrix pop ulx hradius add uly
  vradius add translate hradius vradius scale 0 0 1 180 270 arc 
  tMatrix setmatrix lrx hradius sub uly vradius add translate
  hradius vradius scale 0 0 1 270 360 arc tMatrix setmatrix
  lrx hradius sub lry vradius sub translate hradius vradius scale
  0 0 1 0 90 arc tMatrix setmatrix ulx hradius add lry vradius sub
  translate hradius vradius scale 0 0 1 90 180 arc tMatrix setmatrix
  closepath} bdef
/FRR {MRR stroke } bdef
/PRR {MRR fill } bdef
/MlrRR {/lry xdef /lrx xdef /uly xdef /ulx xdef /rad lry uly sub 2 div def
  newpath tMatrix currentmatrix pop ulx rad add uly rad add translate
  rad rad scale 0 0 1 90 270 arc tMatrix setmatrix lrx rad sub lry rad
  sub translate rad rad scale 0 0 1 270 90 arc tMatrix setmatrix
  closepath} bdef
/FlrRR {MlrRR stroke } bdef
/PlrRR {MlrRR fill } bdef
/MtbRR {/lry xdef /lrx xdef /uly xdef /ulx xdef /rad lrx ulx sub 2 div def
  newpath tMatrix currentmatrix pop ulx rad add uly rad add translate
  rad rad scale 0 0 1 180 360 arc tMatrix setmatrix lrx rad sub lry rad
  sub translate rad rad scale 0 0 1 0 180 arc tMatrix setmatrix
  closepath} bdef
/FtbRR {MtbRR stroke } bdef
/PtbRR {MtbRR fill } bdef
/stri 6 array def /dtri 6 array def
/smat 6 array def /dmat 6 array def
/tmat1 6 array def /tmat2 6 array def /dif 3 array def
/asub {/ind2 exch def /ind1 exch def dup dup
  ind1 get exch ind2 get sub exch } bdef
/tri_to_matrix {
  2 0 asub 3 1 asub 4 0 asub 5 1 asub
  dup 0 get exch 1 get 7 -1 roll astore } bdef
/compute_transform {
  dmat dtri tri_to_matrix tmat1 invertmatrix 
  smat stri tri_to_matrix tmat2 concatmatrix } bdef
/ds {stri astore pop} bdef
/dt {dtri astore pop} bdef
/db {2 copy /cols xdef /rows xdef mul dup 3 mul string
  currentfile 
  3 index 0 eq {/ASCIIHexDecode filter}
  {/ASCII85Decode filter 3 index 2 eq {/RunLengthDecode filter} if }
  ifelse exch readstring pop
  dup 0 3 index getinterval /rbmap xdef
  dup 2 index dup getinterval /gbmap xdef
  1 index dup 2 mul exch getinterval /bbmap xdef pop pop}bdef
/it {gs np dtri aload pop moveto lineto lineto cp c
  cols rows 8 compute_transform 
  rbmap gbmap bbmap true 3 colorimage gr}bdef
/il {newpath moveto lineto stroke}bdef
currentdict end def
%%EndProlog

%%BeginSetup
MathWorks begin

0 cap

end
%%EndSetup

%%Page: 1 1
%%BeginPageSetup
%%PageBoundingBox:    96   238   515   553
MathWorks begin
bpage
%%EndPageSetup

%%BeginObject: obj1
bplot

/dpi2point 12 def
portraitMode 1152 6636 csm

    0     0  5039  3780 rc
85 dict begin %Colortable dictionary
/c0 { 0.000000 0.000000 0.000000 sr} bdef
/c1 { 1.000000 1.000000 1.000000 sr} bdef
/c2 { 0.900000 0.000000 0.000000 sr} bdef
/c3 { 0.000000 0.820000 0.000000 sr} bdef
/c4 { 0.000000 0.000000 0.800000 sr} bdef
/c5 { 0.910000 0.820000 0.320000 sr} bdef
/c6 { 1.000000 0.260000 0.820000 sr} bdef
/c7 { 0.000000 0.820000 0.820000 sr} bdef
c0
1 j
1 sg
   0    0 5040 3781 rf
6 w
0 1703 -1696 -780 0 -1703 4560 2765 4 MP
PP
1696 780 0 1703 -1696 -780 0 -1703 4560 2765 5 MP stroke
1696 780 2209 -599 -1695 -779 2350 3363 4 MP
PP
-2210 598 1696 780 2209 -599 -1695 -779 2350 3363 5 MP stroke
0 1703 2209 -599 0 -1703 655 2584 4 MP
PP
-2209 599 0 1703 2209 -599 0 -1703 655 2584 5 MP stroke
4 w
DO
SO
6 w
0 sg
2350 3363 mt 4560 2765 L
2350 3363 mt  655 2584 L
 655 2584 mt  655  881 L
2350 3363 mt 2402 3387 L
%%IncludeResource: font Helvetica
/Helvetica /WindowsLatin1Encoding 120 FMSR

2433 3513 mt 
(0) s
3086 3164 mt 3138 3188 L
3170 3313 mt 
(2) s
3823 2965 mt 3875 2988 L
3906 3114 mt 
(4) s
4560 2765 mt 4612 2789 L
4643 2914 mt 
(6) s
2350 3363 mt 2295 3378 L
2195 3498 mt 
(0) s
1785 3104 mt 1730 3118 L
1630 3239 mt 
(2) s
1220 2844 mt 1164 2859 L
1065 2979 mt 
(4) s
 655 2584 mt  599 2599 L
 500 2719 mt 
(6) s
 655 2584 mt  602 2560 L
 505 2589 mt 
(0) s
 655 2243 mt  602 2219 L
 338 2249 mt 
(0.01) s
 655 1903 mt  602 1879 L
 338 1908 mt 
(0.02) s
 655 1562 mt  602 1538 L
 338 1568 mt 
(0.03) s
 655 1221 mt  602 1198 L
 338 1227 mt 
(0.04) s
 655  881 mt  602  857 L
 338  887 mt 
(0.05) s
gs 655 282 3906 3082 rc
1 sg
0 0 0 0 4560 2597 3 MP
PP
/c8 { 0.500000 1.000000 0.500000 sr} bdef
c8
4560 2597 mt 4560 2597 L
/c9 { 0.000000 0.000000 0.562500 sr} bdef
c9
4560 2597 mt 4560 2597 L
c8
4560 2597 mt 4560 2597 L
1 sg
0 0 0 0 4560 2597 3 MP
PP
c8
4560 2597 mt 4560 2597 L
4560 2597 mt 4560 2597 L
4560 2597 mt 4560 2597 L
1 sg
0 0 0 0 4560 2597 3 MP
PP
c8
4560 2597 mt 4560 2597 L
4560 2597 mt 4560 2597 L
4560 2597 mt 4560 2597 L
1 sg
0 0 0 0 4560 2597 3 MP
PP
c8
4560 2597 mt 4560 2597 L
4560 2597 mt 4560 2597 L
4560 2597 mt 4560 2597 L
1 sg
0 0 -283 -275 4560 2597 3 MP
PP
c9
4560 2597 mt 4277 2322 L
/c10 { 0.000000 0.000000 0.937500 sr} bdef
c10
4277 2322 mt 4277 2322 L
c8
4277 2322 mt 4560 2597 L
1 sg
-283 -130 0 145 4277 2322 3 MP
PP
c8
4277 2322 mt 4277 2467 L
4277 2467 mt 3994 2337 L
1 sg
-283 -130 0 0 4560 2597 3 MP
PP
c8
4560 2597 mt 4560 2597 L
4560 2597 mt 4277 2467 L
1 sg
0 145 -283 -275 4560 2597 3 MP
PP
c8
4560 2597 mt 4277 2322 L
4277 2322 mt 4277 2467 L
4277 2467 mt 4560 2597 L
1 sg
-283 -275 369 45 4191 2552 3 MP
PP
c10
4191 2552 mt 4560 2597 L
c9
4560 2597 mt 4277 2322 L
1 sg
369 45 0 0 4191 2552 3 MP
PP
c8
4191 2552 mt 4191 2552 L
c10
4191 2552 mt 4560 2597 L
c9
4560 2597 mt 4191 2552 L
1 sg
0 0 369 45 4191 2552 3 MP
PP
c8
4191 2552 mt 4560 2597 L
4560 2597 mt 4560 2597 L
c9
4560 2597 mt 4191 2552 L
1 sg
369 45 0 -145 4191 2697 3 MP
PP
c8
4191 2697 mt 4191 2552 L
4191 2552 mt 4560 2597 L
4560 2597 mt 4191 2697 L
1 sg
0 0 369 -100 4191 2697 3 MP
PP
c8
4191 2697 mt 4560 2597 L
4560 2597 mt 4560 2597 L
1 sg
0 0 0 0 4560 2597 3 MP
PP
c8
4560 2597 mt 4560 2597 L
4560 2597 mt 4560 2597 L
4560 2597 mt 4560 2597 L
1 sg
0 0 0 0 4560 2597 3 MP
PP
c8
4560 2597 mt 4560 2597 L
4560 2597 mt 4560 2597 L
4560 2597 mt 4560 2597 L
1 sg
0 0 0 0 4560 2597 3 MP
PP
c8
4560 2597 mt 4560 2597 L
4560 2597 mt 4560 2597 L
4560 2597 mt 4560 2597 L
1 sg
0 0 0 0 4560 2597 3 MP
PP
c8
4560 2597 mt 4560 2597 L
4560 2597 mt 4560 2597 L
4560 2597 mt 4560 2597 L
1 sg
-283 -275 0 0 4560 2597 3 MP
PP
c9
4560 2597 mt 4560 2597 L
c8
4560 2597 mt 4277 2322 L
4277 2322 mt 4560 2597 L
1 sg
0 288 -283 -273 4277 2322 3 MP
PP
c8
4277 2322 mt 3994 2049 L
3994 2049 mt 3994 2337 L
1 sg
-283 -273 0 0 4277 2322 3 MP
PP
c10
4277 2322 mt 4277 2322 L
c8
4277 2322 mt 3994 2049 L
3994 2049 mt 4277 2322 L
1 sg
0 0 -283 -273 4277 2322 3 MP
PP
c10
4277 2322 mt 3994 2049 L
/c11 { 0.000000 0.312500 1.000000 sr} bdef
c11
3994 2049 mt 3994 2049 L
c8
3994 2049 mt 4277 2322 L
1 sg
-282 -130 0 288 3994 2049 3 MP
PP
c8
3994 2049 mt 3994 2337 L
3994 2337 mt 3712 2207 L
1 sg
-283 -273 368 172 3909 2150 3 MP
PP
/c12 { 0.000000 0.687500 1.000000 sr} bdef
c12
3909 2150 mt 4277 2322 L
c10
4277 2322 mt 3994 2049 L
1 sg
368 172 -282 -402 4191 2552 3 MP
PP
c10
4191 2552 mt 3909 2150 L
c12
3909 2150 mt 4277 2322 L
1 sg
368 43 0 0 3823 2509 3 MP
PP
c8
3823 2509 mt 3823 2509 L
c11
3823 2509 mt 4191 2552 L
c10
4191 2552 mt 3823 2509 L
1 sg
0 0 368 43 3823 2509 3 MP
PP
c8
3823 2509 mt 4191 2552 L
4191 2552 mt 4191 2552 L
c10
4191 2552 mt 3823 2509 L
1 sg
368 43 0 -288 3823 2797 3 MP
PP
c8
3823 2797 mt 3823 2509 L
3823 2509 mt 4191 2552 L
1 sg
0 -145 368 -100 3823 2797 3 MP
PP
c8
3823 2797 mt 4191 2697 L
4191 2697 mt 4191 2552 L
1 sg
-282 -402 368 43 3823 2509 3 MP
PP
c11
3823 2509 mt 4191 2552 L
c10
4191 2552 mt 3909 2150 L
1 sg
-282 -190 368 295 3626 1754 3 MP
PP
/c13 { 0.437500 1.000000 0.562500 sr} bdef
c13
3626 1754 mt 3994 2049 L
c11
3994 2049 mt 3712 1859 L
1 sg
0 0 -282 -190 3994 2049 3 MP
PP
c11
3994 2049 mt 3712 1859 L
/c14 { 0.000000 0.500000 1.000000 sr} bdef
c14
3712 1859 mt 3712 1859 L
c8
3712 1859 mt 3994 2049 L
1 sg
-282 -190 0 0 3994 2049 3 MP
PP
c11
3994 2049 mt 3994 2049 L
c8
3994 2049 mt 3712 1859 L
3712 1859 mt 3994 2049 L
1 sg
0 348 -282 -190 3994 2049 3 MP
PP
c8
3994 2049 mt 3712 1859 L
3712 1859 mt 3712 2207 L
1 sg
-283 -70 0 0 3712 1859 3 MP
PP
c14
3712 1859 mt 3712 1859 L
c8
3712 1859 mt 3429 1789 L
3429 1789 mt 3712 1859 L
1 sg
368 349 -282 -244 3626 1754 3 MP
PP
c13
3626 1754 mt 3344 1510 L
/c15 { 0.750000 1.000000 0.250000 sr} bdef
c15
3344 1510 mt 3712 1859 L
1 sg
-283 -70 368 349 3344 1510 3 MP
PP
c15
3344 1510 mt 3712 1859 L
c14
3712 1859 mt 3429 1789 L
1 sg
0 0 -283 -70 3712 1859 3 MP
PP
c14
3712 1859 mt 3429 1789 L
c11
3429 1789 mt 3429 1789 L
c8
3429 1789 mt 3712 1859 L
1 sg
0 289 -283 -70 3712 1859 3 MP
PP
c8
3712 1859 mt 3429 1789 L
3429 1789 mt 3429 2078 L
1 sg
-283 -129 0 348 3712 1859 3 MP
PP
c8
3712 1859 mt 3712 2207 L
3712 2207 mt 3429 2078 L
1 sg
368 295 -283 -396 3909 2150 3 MP
PP
c12
3909 2150 mt 3626 1754 L
c13
3626 1754 mt 3994 2049 L
1 sg
369 167 -283 -526 3823 2509 3 MP
PP
c11
3823 2509 mt 3540 1983 L
c13
3540 1983 mt 3909 2150 L
1 sg
-283 -396 369 167 3540 1983 3 MP
PP
c13
3540 1983 mt 3909 2150 L
c12
3909 2150 mt 3626 1754 L
1 sg
368 -39 0 0 3455 2548 3 MP
PP
c8
3455 2548 mt 3455 2548 L
c14
3455 2548 mt 3823 2509 L
c11
3823 2509 mt 3455 2548 L
1 sg
0 0 368 -39 3455 2548 3 MP
PP
c8
3455 2548 mt 3823 2509 L
3823 2509 mt 3823 2509 L
c11
3823 2509 mt 3455 2548 L
1 sg
0 -288 368 -100 3455 2897 3 MP
PP
c8
3455 2897 mt 3823 2797 L
3823 2797 mt 3823 2509 L
1 sg
-283 -526 368 -39 3455 2548 3 MP
PP
c14
3455 2548 mt 3823 2509 L
c11
3823 2509 mt 3540 1983 L
1 sg
368 -39 0 -349 3455 2897 3 MP
PP
c8
3455 2897 mt 3455 2548 L
3455 2548 mt 3823 2509 L
1 sg
-283 -16 369 339 2975 1171 3 MP
PP
/c16 { 1.000000 0.000000 0.000000 sr} bdef
c16
2975 1171 mt 3344 1510 L
c15
3344 1510 mt 3061 1494 L
1 sg
368 295 -283 -16 3344 1510 3 MP
PP
c15
3344 1510 mt 3061 1494 L
c13
3061 1494 mt 3429 1789 L
1 sg
-282 -244 368 288 3258 1466 3 MP
PP
/c17 { 1.000000 0.437500 0.000000 sr} bdef
c17
3258 1466 mt 3626 1754 L
c13
3626 1754 mt 3344 1510 L
1 sg
368 288 -282 -517 3540 1983 3 MP
PP
c13
3540 1983 mt 3258 1466 L
c17
3258 1466 mt 3626 1754 L
1 sg
0 146 -282 13 3429 1789 3 MP
PP
c8
3429 1789 mt 3147 1802 L
3147 1802 mt 3147 1948 L
1 sg
0 0 -282 13 3429 1789 3 MP
PP
c11
3429 1789 mt 3147 1802 L
c10
3147 1802 mt 3147 1802 L
c8
3147 1802 mt 3429 1789 L
1 sg
-282 13 368 295 3061 1494 3 MP
PP
c13
3061 1494 mt 3429 1789 L
c11
3429 1789 mt 3147 1802 L
1 sg
-282 13 0 0 3429 1789 3 MP
PP
c11
3429 1789 mt 3429 1789 L
c8
3429 1789 mt 3147 1802 L
3147 1802 mt 3429 1789 L
1 sg
-282 -130 0 289 3429 1789 3 MP
PP
c8
3429 1789 mt 3429 2078 L
3429 2078 mt 3147 1948 L
1 sg
-282 -517 368 13 3172 1970 3 MP
PP
c15
3172 1970 mt 3540 1983 L
c13
3540 1983 mt 3258 1466 L
1 sg
368 13 -283 -578 3455 2548 3 MP
PP
c14
3455 2548 mt 3172 1970 L
c15
3172 1970 mt 3540 1983 L
1 sg
-283 -578 369 -160 3086 2708 3 MP
PP
c11
3086 2708 mt 3455 2548 L
c14
3455 2548 mt 3172 1970 L
1 sg
369 -160 0 0 3086 2708 3 MP
PP
c8
3086 2708 mt 3086 2708 L
c11
3086 2708 mt 3455 2548 L
c14
3455 2548 mt 3086 2708 L
1 sg
0 0 369 -160 3086 2708 3 MP
PP
c8
3086 2708 mt 3455 2548 L
3455 2548 mt 3455 2548 L
c14
3455 2548 mt 3086 2708 L
1 sg
369 -160 0 -288 3086 2996 3 MP
PP
c8
3086 2996 mt 3086 2708 L
3086 2708 mt 3455 2548 L
1 sg
0 -349 369 -99 3086 2996 3 MP
PP
c8
3086 2996 mt 3455 2897 L
3455 2897 mt 3455 2548 L
1 sg
369 339 -283 -295 3258 1466 3 MP
PP
c17
3258 1466 mt 2975 1171 L
c16
2975 1171 mt 3344 1510 L
1 sg
368 288 -282 35 2975 1171 3 MP
PP
c16
2975 1171 mt 2693 1206 L
c17
2693 1206 mt 3061 1494 L
1 sg
-283 136 368 288 2693 1206 3 MP
PP
c17
2693 1206 mt 3061 1494 L
c13
3061 1494 mt 2778 1630 L
1 sg
-283 -295 368 65 2890 1401 3 MP
PP
c16
2890 1401 mt 3258 1466 L
c17
3258 1466 mt 2975 1171 L
1 sg
-283 -130 0 146 3147 1802 3 MP
PP
c8
3147 1802 mt 3147 1948 L
3147 1948 mt 2864 1818 L
2864 1818 mt 3147 1802 L
1 sg
0 0 -283 16 3147 1802 3 MP
PP
c8
3147 1802 mt 2864 1818 L
2864 1818 mt 2864 1818 L
1 sg
369 172 -283 136 3061 1494 3 MP
PP
c13
3061 1494 mt 2778 1630 L
c12
2778 1630 mt 3147 1802 L
1 sg
-283 16 369 172 2778 1630 3 MP
PP
c12
2778 1630 mt 3147 1802 L
c10
3147 1802 mt 2864 1818 L
1 sg
-283 16 0 0 3147 1802 3 MP
PP
c10
3147 1802 mt 3147 1802 L
c8
3147 1802 mt 2864 1818 L
2864 1818 mt 3147 1802 L
1 sg
0 0 -283 16 3147 1802 3 MP
PP
c10
3147 1802 mt 2864 1818 L
c9
2864 1818 mt 2864 1818 L
c8
2864 1818 mt 3147 1802 L
1 sg
368 65 -282 -569 3172 1970 3 MP
PP
c15
3172 1970 mt 2890 1401 L
c16
2890 1401 mt 3258 1466 L
1 sg
368 -213 -282 -525 3086 2708 3 MP
PP
c11
3086 2708 mt 2804 2183 L
c13
2804 2183 mt 3172 1970 L
1 sg
0 0 0 0 2864 1818 3 MP
PP
c8
2864 1818 mt 2864 1818 L
2864 1818 mt 2864 1818 L
2864 1818 mt 2864 1818 L
1 sg
0 0 368 46 2496 1772 3 MP
PP
c8
2496 1772 mt 2864 1818 L
2864 1818 mt 2864 1818 L
1 sg
0 0 0 0 2864 1818 3 MP
PP
c8
2864 1818 mt 2864 1818 L
2864 1818 mt 2864 1818 L
2864 1818 mt 2864 1818 L
1 sg
0 0 0 0 2864 1818 3 MP
PP
c8
2864 1818 mt 2864 1818 L
2864 1818 mt 2864 1818 L
2864 1818 mt 2864 1818 L
1 sg
0 0 0 0 2864 1818 3 MP
PP
c8
2864 1818 mt 2864 1818 L
2864 1818 mt 2864 1818 L
2864 1818 mt 2864 1818 L
1 sg
368 46 0 0 2496 1772 3 MP
PP
c10
2496 1772 mt 2496 1772 L
c8
2496 1772 mt 2864 1818 L
2864 1818 mt 2496 1772 L
1 sg
0 0 368 46 2496 1772 3 MP
PP
c10
2496 1772 mt 2864 1818 L
c9
2864 1818 mt 2864 1818 L
c8
2864 1818 mt 2496 1772 L
1 sg
0 0 0 0 2864 1818 3 MP
PP
c8
2864 1818 mt 2864 1818 L
2864 1818 mt 2864 1818 L
2864 1818 mt 2864 1818 L
1 sg
0 0 0 0 2864 1818 3 MP
PP
c8
2864 1818 mt 2864 1818 L
2864 1818 mt 2864 1818 L
2864 1818 mt 2864 1818 L
1 sg
368 -99 0 145 2496 1772 3 MP
PP
c8
2496 1772 mt 2496 1917 L
2496 1917 mt 2864 1818 L
2864 1818 mt 2496 1772 L
1 sg
368 46 -282 142 2778 1630 3 MP
PP
c12
2778 1630 mt 2496 1772 L
c10
2496 1772 mt 2864 1818 L
1 sg
0 0 0 0 2864 1818 3 MP
PP
c9
2864 1818 mt 2864 1818 L
c8
2864 1818 mt 2864 1818 L
2864 1818 mt 2864 1818 L
1 sg
0 0 0 0 2864 1818 3 MP
PP
c9
2864 1818 mt 2864 1818 L
c8
2864 1818 mt 2864 1818 L
2864 1818 mt 2864 1818 L
1 sg
-282 -569 368 -213 2804 2183 3 MP
PP
c13
2804 2183 mt 3172 1970 L
c15
3172 1970 mt 2890 1401 L
1 sg
0 -288 368 -100 2718 3096 3 MP
PP
c8
2718 3096 mt 3086 2996 L
3086 2996 mt 3086 2708 L
1 sg
368 -243 0 -145 2718 3096 3 MP
PP
c8
2718 3096 mt 2718 2951 L
2718 2951 mt 3086 2708 L
1 sg
368 -243 0 0 2718 2951 3 MP
PP
c8
2718 2951 mt 2718 2951 L
c10
2718 2951 mt 3086 2708 L
c11
3086 2708 mt 2718 2951 L
1 sg
-282 -525 368 -243 2718 2951 3 MP
PP
c10
2718 2951 mt 3086 2708 L
c11
3086 2708 mt 2804 2183 L
1 sg
0 0 368 -243 2718 2951 3 MP
PP
c8
2718 2951 mt 3086 2708 L
3086 2708 mt 3086 2708 L
c11
3086 2708 mt 2718 2951 L
1 sg
-282 35 368 87 2607 1084 3 MP
PP
/c18 { 0.500000 0.000000 0.000000 sr} bdef
c18
2607 1084 mt 2975 1171 L
c16
2975 1171 mt 2693 1206 L
1 sg
368 87 -283 -317 2890 1401 3 MP
PP
c16
2890 1401 mt 2607 1084 L
c18
2607 1084 mt 2975 1171 L
1 sg
-282 142 368 167 2410 1463 3 MP
PP
c13
2410 1463 mt 2778 1630 L
c12
2778 1630 mt 2496 1772 L
1 sg
368 167 -283 257 2693 1206 3 MP
PP
c17
2693 1206 mt 2410 1463 L
c13
2410 1463 mt 2778 1630 L
1 sg
369 -264 -283 -518 2804 2183 3 MP
PP
c13
2804 2183 mt 2521 1665 L
c17
2521 1665 mt 2890 1401 L
1 sg
369 65 -283 57 2607 1084 3 MP
PP
c18
2607 1084 mt 2324 1141 L
c16
2324 1141 mt 2693 1206 L
1 sg
-283 257 369 65 2324 1141 3 MP
PP
c16
2324 1141 mt 2693 1206 L
c17
2693 1206 mt 2410 1463 L
1 sg
-283 -317 369 -264 2521 1665 3 MP
PP
c17
2521 1665 mt 2890 1401 L
c16
2890 1401 mt 2607 1084 L
1 sg
368 -366 -282 -402 2718 2951 3 MP
PP
c10
2718 2951 mt 2436 2549 L
c12
2436 2549 mt 2804 2183 L
1 sg
-283 -518 368 -366 2436 2549 3 MP
PP
c12
2436 2549 mt 2804 2183 L
c13
2804 2183 mt 2521 1665 L
1 sg
0 -145 368 -100 2350 3196 3 MP
PP
c8
2350 3196 mt 2718 3096 L
2718 3096 mt 2718 2951 L
2718 2951 mt 2350 3196 L
1 sg
-282 -402 368 -245 2350 3196 3 MP
PP
c9
2350 3196 mt 2718 2951 L
c10
2718 2951 mt 2436 2549 L
1 sg
368 -245 0 0 2350 3196 3 MP
PP
c8
2350 3196 mt 2350 3196 L
c9
2350 3196 mt 2718 2951 L
c10
2718 2951 mt 2350 3196 L
1 sg
0 0 368 -245 2350 3196 3 MP
PP
c8
2350 3196 mt 2718 2951 L
2718 2951 mt 2718 2951 L
c10
2718 2951 mt 2350 3196 L
1 sg
368 -245 0 0 2350 3196 3 MP
PP
c8
2350 3196 mt 2350 3196 L
2350 3196 mt 2718 2951 L
1 sg
368 13 -282 309 2324 1141 3 MP
PP
c16
2324 1141 mt 2042 1450 L
c15
2042 1450 mt 2410 1463 L
1 sg
-282 266 368 13 2042 1450 3 MP
PP
c15
2042 1450 mt 2410 1463 L
c13
2410 1463 mt 2128 1729 L
1 sg
368 43 -282 266 2410 1463 3 MP
PP
c13
2410 1463 mt 2128 1729 L
c11
2128 1729 mt 2496 1772 L
1 sg
368 -287 -282 -294 2521 1665 3 MP
PP
c17
2521 1665 mt 2239 1371 L
c16
2239 1371 mt 2607 1084 L
1 sg
-283 57 368 -287 2239 1371 3 MP
PP
c16
2239 1371 mt 2607 1084 L
c18
2607 1084 mt 2324 1141 L
1 sg
368 43 0 0 2128 1729 3 MP
PP
c11
2128 1729 mt 2128 1729 L
c8
2128 1729 mt 2496 1772 L
2496 1772 mt 2128 1729 L
1 sg
368 -100 0 288 2128 1729 3 MP
PP
c8
2128 1729 mt 2128 2017 L
2128 2017 mt 2496 1917 L
1 sg
0 145 368 43 2128 1729 3 MP
PP
c8
2128 1729 mt 2496 1772 L
2496 1772 mt 2496 1917 L
1 sg
0 0 368 43 2128 1729 3 MP
PP
c11
2128 1729 mt 2496 1772 L
c10
2496 1772 mt 2496 1772 L
c8
2496 1772 mt 2128 1729 L
1 sg
-282 -294 368 -488 2153 2153 3 MP
PP
c13
2153 2153 mt 2521 1665 L
c17
2521 1665 mt 2239 1371 L
1 sg
368 -488 -283 -396 2436 2549 3 MP
PP
c12
2436 2549 mt 2153 2153 L
c13
2153 2153 mt 2521 1665 L
1 sg
369 -371 -283 -276 2350 3196 3 MP
PP
c9
2350 3196 mt 2067 2920 L
c10
2067 2920 mt 2436 2549 L
1 sg
-283 -396 369 -371 2067 2920 3 MP
PP
c10
2067 2920 mt 2436 2549 L
c12
2436 2549 mt 2153 2153 L
1 sg
0 0 0 0 2350 3196 3 MP
PP
c8
2350 3196 mt 2350 3196 L
2350 3196 mt 2350 3196 L
2350 3196 mt 2350 3196 L
1 sg
0 0 0 0 2350 3196 3 MP
PP
c8
2350 3196 mt 2350 3196 L
2350 3196 mt 2350 3196 L
2350 3196 mt 2350 3196 L
1 sg
0 0 0 0 2350 3196 3 MP
PP
c8
2350 3196 mt 2350 3196 L
2350 3196 mt 2350 3196 L
2350 3196 mt 2350 3196 L
1 sg
0 0 0 0 2350 3196 3 MP
PP
c8
2350 3196 mt 2350 3196 L
2350 3196 mt 2350 3196 L
c9
2350 3196 mt 2350 3196 L
1 sg
0 0 0 0 2350 3196 3 MP
PP
c8
2350 3196 mt 2350 3196 L
2350 3196 mt 2350 3196 L
c9
2350 3196 mt 2350 3196 L
1 sg
-283 -276 0 0 2350 3196 3 MP
PP
c8
2350 3196 mt 2350 3196 L
c9
2350 3196 mt 2067 2920 L
c10
2067 2920 mt 2350 3196 L
1 sg
0 -146 -283 -130 2350 3196 3 MP
PP
c8
2350 3196 mt 2067 3066 L
2067 3066 mt 2067 2920 L
2067 2920 mt 2350 3196 L
1 sg
-283 -276 0 0 2350 3196 3 MP
PP
c8
2350 3196 mt 2350 3196 L
2350 3196 mt 2067 2920 L
1 sg
0 0 0 0 2350 3196 3 MP
PP
c8
2350 3196 mt 2350 3196 L
2350 3196 mt 2350 3196 L
2350 3196 mt 2350 3196 L
1 sg
0 0 0 0 2350 3196 3 MP
PP
c8
2350 3196 mt 2350 3196 L
2350 3196 mt 2350 3196 L
2350 3196 mt 2350 3196 L
1 sg
0 0 0 0 2350 3196 3 MP
PP
c8
2350 3196 mt 2350 3196 L
2350 3196 mt 2350 3196 L
2350 3196 mt 2350 3196 L
1 sg
0 0 -283 -276 2350 3196 3 MP
PP
c8
2350 3196 mt 2067 2920 L
2067 2920 mt 2067 2920 L
c10
2067 2920 mt 2350 3196 L
1 sg
-282 309 368 -265 1956 1406 3 MP
PP
c17
1956 1406 mt 2324 1141 L
c16
2324 1141 mt 2042 1450 L
1 sg
368 -265 -283 35 2239 1371 3 MP
PP
c16
2239 1371 mt 1956 1406 L
c17
1956 1406 mt 2324 1141 L
1 sg
368 -213 -282 257 1956 1406 3 MP
PP
c17
1956 1406 mt 1674 1663 L
c13
1674 1663 mt 2042 1450 L
1 sg
-283 318 368 -213 1674 1663 3 MP
PP
c13
1674 1663 mt 2042 1450 L
c15
2042 1450 mt 1759 1768 L
1 sg
369 -39 -283 318 2042 1450 3 MP
PP
c15
2042 1450 mt 1759 1768 L
c14
1759 1768 mt 2128 1729 L
1 sg
369 -100 0 349 1759 1768 3 MP
PP
c8
1759 1768 mt 1759 2117 L
1759 2117 mt 2128 2017 L
1 sg
0 288 369 -39 1759 1768 3 MP
PP
c8
1759 1768 mt 2128 1729 L
2128 1729 mt 2128 2017 L
1 sg
369 -39 0 0 1759 1768 3 MP
PP
c14
1759 1768 mt 1759 1768 L
c8
1759 1768 mt 2128 1729 L
2128 1729 mt 1759 1768 L
1 sg
0 0 369 -39 1759 1768 3 MP
PP
c14
1759 1768 mt 2128 1729 L
c11
2128 1729 mt 2128 1729 L
c8
2128 1729 mt 1759 1768 L
1 sg
-283 35 369 -538 1870 1909 3 MP
PP
c15
1870 1909 mt 2239 1371 L
c16
2239 1371 mt 1956 1406 L
1 sg
369 -538 -283 -244 2153 2153 3 MP
PP
c13
2153 2153 mt 1870 1909 L
c15
1870 1909 mt 2239 1371 L
1 sg
-283 -244 368 -495 1785 2648 3 MP
PP
c11
1785 2648 mt 2153 2153 L
c13
2153 2153 mt 1870 1909 L
1 sg
368 -495 -282 -272 2067 2920 3 MP
PP
c10
2067 2920 mt 1785 2648 L
c11
1785 2648 mt 2153 2153 L
1 sg
0 0 -282 -272 2067 2920 3 MP
PP
c8
2067 2920 mt 1785 2648 L
1785 2648 mt 1785 2648 L
c11
1785 2648 mt 2067 2920 L
1 sg
-282 -272 0 0 2067 2920 3 MP
PP
c8
2067 2920 mt 2067 2920 L
c10
2067 2920 mt 1785 2648 L
c11
1785 2648 mt 2067 2920 L
1 sg
0 -288 -282 -130 2067 3066 3 MP
PP
c8
2067 3066 mt 1785 2936 L
1785 2936 mt 1785 2648 L
1 sg
-282 -272 0 -146 2067 3066 3 MP
PP
c8
2067 3066 mt 2067 2920 L
2067 2920 mt 1785 2648 L
1 sg
368 -160 -283 265 1674 1663 3 MP
PP
c13
1674 1663 mt 1391 1928 L
c11
1391 1928 mt 1759 1768 L
1 sg
0 349 368 -160 1391 1928 3 MP
PP
c8
1391 1928 mt 1759 1768 L
1759 1768 mt 1759 2117 L
1 sg
368 -160 0 0 1391 1928 3 MP
PP
c11
1391 1928 mt 1391 1928 L
c8
1391 1928 mt 1759 1768 L
1759 1768 mt 1391 1928 L
1 sg
0 0 368 -160 1391 1928 3 MP
PP
c11
1391 1928 mt 1759 1768 L
c14
1759 1768 mt 1759 1768 L
c8
1759 1768 mt 1391 1928 L
1 sg
368 -487 -282 -16 1870 1909 3 MP
PP
c15
1870 1909 mt 1588 1893 L
c13
1588 1893 mt 1956 1406 L
1 sg
-282 257 368 -487 1588 1893 3 MP
PP
c13
1588 1893 mt 1956 1406 L
c17
1956 1406 mt 1674 1663 L
1 sg
368 -100 0 289 1391 1928 3 MP
PP
c8
1391 1928 mt 1391 2217 L
1391 2217 mt 1759 2117 L
1 sg
368 -548 -283 -191 1785 2648 3 MP
PP
c11
1785 2648 mt 1502 2457 L
c14
1502 2457 mt 1870 1909 L
1 sg
-282 -16 368 -548 1502 2457 3 MP
PP
c14
1502 2457 mt 1870 1909 L
c15
1870 1909 mt 1588 1893 L
1 sg
-283 -191 0 -288 1785 2936 3 MP
PP
c8
1785 2936 mt 1785 2648 L
1785 2648 mt 1502 2457 L
1 sg
-283 -191 0 0 1785 2648 3 MP
PP
c8
1785 2648 mt 1785 2648 L
c11
1785 2648 mt 1502 2457 L
c14
1502 2457 mt 1785 2648 L
1 sg
0 -349 -283 -130 1785 2936 3 MP
PP
c8
1785 2936 mt 1502 2806 L
1502 2806 mt 1502 2457 L
1 sg
0 0 -283 -191 1785 2648 3 MP
PP
c8
1785 2648 mt 1502 2457 L
1502 2457 mt 1502 2457 L
c14
1502 2457 mt 1785 2648 L
1 sg
0 289 368 -243 1023 2171 3 MP
PP
c8
1023 2171 mt 1391 1928 L
1391 1928 mt 1391 2217 L
1 sg
369 -366 -283 136 1588 1893 3 MP
PP
c13
1588 1893 mt 1305 2029 L
c12
1305 2029 mt 1674 1663 L
1 sg
-283 265 369 -366 1305 2029 3 MP
PP
c12
1305 2029 mt 1674 1663 L
c13
1674 1663 mt 1391 1928 L
1 sg
368 -99 0 145 1023 2171 3 MP
PP
c8
1023 2171 mt 1023 2316 L
1023 2316 mt 1391 2217 L
1 sg
-283 136 368 -495 1220 2388 3 MP
PP
c11
1220 2388 mt 1588 1893 L
c13
1588 1893 mt 1305 2029 L
1 sg
368 -495 -282 -69 1502 2457 3 MP
PP
c14
1502 2457 mt 1220 2388 L
c11
1220 2388 mt 1588 1893 L
1 sg
-282 -69 0 0 1502 2457 3 MP
PP
c8
1502 2457 mt 1502 2457 L
c14
1502 2457 mt 1220 2388 L
c11
1220 2388 mt 1502 2457 L
1 sg
0 0 -282 -69 1502 2457 3 MP
PP
c8
1502 2457 mt 1220 2388 L
1220 2388 mt 1220 2388 L
c11
1220 2388 mt 1502 2457 L
1 sg
0 -288 -282 -130 1502 2806 3 MP
PP
c8
1502 2806 mt 1220 2676 L
1220 2676 mt 1220 2388 L
1 sg
-282 -69 0 -349 1502 2806 3 MP
PP
c8
1502 2806 mt 1502 2457 L
1502 2457 mt 1220 2388 L
1 sg
368 -243 -282 142 1305 2029 3 MP
PP
c12
1305 2029 mt 1023 2171 L
c10
1023 2171 mt 1391 1928 L
1 sg
368 -243 0 0 1023 2171 3 MP
PP
c10
1023 2171 mt 1023 2171 L
c8
1023 2171 mt 1391 1928 L
1391 1928 mt 1023 2171 L
1 sg
0 0 368 -243 1023 2171 3 MP
PP
c10
1023 2171 mt 1391 1928 L
c11
1391 1928 mt 1391 1928 L
c8
1391 1928 mt 1023 2171 L
1 sg
368 -100 0 0 655 2416 3 MP
PP
c8
 655 2416 mt  655 2416 L
 655 2416 mt 1023 2316 L
1 sg
0 145 368 -245 655 2416 3 MP
PP
c8
 655 2416 mt 1023 2171 L
1023 2171 mt 1023 2316 L
1023 2316 mt  655 2416 L
1 sg
368 -371 -283 12 1220 2388 3 MP
PP
c11
1220 2388 mt  937 2400 L
c10
 937 2400 mt 1305 2029 L
1 sg
-282 142 368 -371 937 2400 3 MP
PP
c10
 937 2400 mt 1305 2029 L
c12
1305 2029 mt 1023 2171 L
1 sg
-283 12 0 0 1220 2388 3 MP
PP
c8
1220 2388 mt 1220 2388 L
c11
1220 2388 mt  937 2400 L
c10
 937 2400 mt 1220 2388 L
1 sg
-283 12 0 -288 1220 2676 3 MP
PP
c8
1220 2676 mt 1220 2388 L
1220 2388 mt  937 2400 L
1 sg
0 -146 -283 -130 1220 2676 3 MP
PP
c8
1220 2676 mt  937 2546 L
 937 2546 mt  937 2400 L
1 sg
0 0 -283 12 1220 2388 3 MP
PP
c8
1220 2388 mt  937 2400 L
 937 2400 mt  937 2400 L
c10
 937 2400 mt 1220 2388 L
1 sg
368 -245 -282 16 937 2400 3 MP
PP
c10
 937 2400 mt  655 2416 L
c9
 655 2416 mt 1023 2171 L
1 sg
368 -245 0 0 655 2416 3 MP
PP
c9
 655 2416 mt  655 2416 L
c8
 655 2416 mt 1023 2171 L
1023 2171 mt  655 2416 L
1 sg
0 0 368 -245 655 2416 3 MP
PP
c9
 655 2416 mt 1023 2171 L
c10
1023 2171 mt 1023 2171 L
c8
1023 2171 mt  655 2416 L
1 sg
0 0 -282 -130 937 2546 3 MP
PP
c8
 937 2546 mt  655 2416 L
 655 2416 mt  655 2416 L
1 sg
0 0 -282 16 937 2400 3 MP
PP
c8
 937 2400 mt  655 2416 L
 655 2416 mt  655 2416 L
c9
 655 2416 mt  937 2400 L
1 sg
-282 16 0 0 937 2400 3 MP
PP
c8
 937 2400 mt  937 2400 L
c10
 937 2400 mt  655 2416 L
c9
 655 2416 mt  937 2400 L
1 sg
-282 16 0 -146 937 2546 3 MP
PP
c8
 937 2546 mt  937 2400 L
 937 2400 mt  655 2416 L
 655 2416 mt  937 2546 L
1 sg
0 0 0 0 655 2416 3 MP
PP
c8
 655 2416 mt  655 2416 L
 655 2416 mt  655 2416 L
 655 2416 mt  655 2416 L
1 sg
0 0 0 0 655 2416 3 MP
PP
c8
 655 2416 mt  655 2416 L
 655 2416 mt  655 2416 L
 655 2416 mt  655 2416 L
1 sg
0 0 0 0 655 2416 3 MP
PP
c8
 655 2416 mt  655 2416 L
 655 2416 mt  655 2416 L
 655 2416 mt  655 2416 L
1 sg
0 0 0 0 655 2416 3 MP
PP
c8
 655 2416 mt  655 2416 L
 655 2416 mt  655 2416 L
 655 2416 mt  655 2416 L
1 sg
0 0 0 0 655 2416 3 MP
PP
c8
 655 2416 mt  655 2416 L
 655 2416 mt  655 2416 L
 655 2416 mt  655 2416 L
1 sg
0 0 0 0 655 2416 3 MP
PP
c8
 655 2416 mt  655 2416 L
 655 2416 mt  655 2416 L
 655 2416 mt  655 2416 L
1 sg
0 0 0 0 655 2416 3 MP
PP
c8
 655 2416 mt  655 2416 L
 655 2416 mt  655 2416 L
 655 2416 mt  655 2416 L
1 sg
0 0 0 0 655 2416 3 MP
PP
c8
 655 2416 mt  655 2416 L
c9
 655 2416 mt  655 2416 L
c8
 655 2416 mt  655 2416 L
gr

c8

end %%Color Dict

eplot
%%EndObject

epage
end

showpage

%%Trailer
%%EOF
