%!PS-Adobe-3.0 EPSF-3.0
%%Creator: MATLAB, The MathWorks, Inc. Version 7.11.0.584 (R2010b). Operating System: Microsoft Windows 7.
%%Title: D:\Dropbox\document\work\ELE747\Cours\cours3\content\matlab\mesh_gauss_7_1.eps
%%CreationDate: 01/17/2011  13:34:04
%%DocumentNeededFonts: Helvetica
%%DocumentProcessColors: Cyan Magenta Yellow Black
%%LanguageLevel: 2
%%Pages: 1
%%BoundingBox:    96   238   515   553
%%EndComments

%%BeginProlog
% MathWorks dictionary
/MathWorks 160 dict begin
% definition operators
/bdef {bind def} bind def
/ldef {load def} bind def
/xdef {exch def} bdef
/xstore {exch store} bdef
% operator abbreviations
/c  /clip ldef
/cc /concat ldef
/cp /closepath ldef
/gr /grestore ldef
/gs /gsave ldef
/mt /moveto ldef
/np /newpath ldef
/cm /currentmatrix ldef
/sm /setmatrix ldef
/rm /rmoveto ldef
/rl /rlineto ldef
/s {show newpath} bdef
/sc {setcmykcolor} bdef
/sr /setrgbcolor ldef
/sg /setgray ldef
/w /setlinewidth ldef
/j /setlinejoin ldef
/cap /setlinecap ldef
/rc {rectclip} bdef
/rf {rectfill} bdef
% page state control
/pgsv () def
/bpage {/pgsv save def} bdef
/epage {pgsv restore} bdef
/bplot /gsave ldef
/eplot {stroke grestore} bdef
% orientation switch
/portraitMode 0 def /landscapeMode 1 def /rotateMode 2 def
% coordinate system mappings
/dpi2point 0 def
% font control
/FontSize 0 def
/FMS {/FontSize xstore findfont [FontSize 0 0 FontSize neg 0 0]
  makefont setfont} bdef
/ISOLatin1Encoding where {pop /WindowsLatin1Encoding 256 array bdef
ISOLatin1Encoding WindowsLatin1Encoding copy pop
/.notdef/.notdef/quotesinglbase/florin/quotedblbase/ellipsis/dagger
/daggerdbl/circumflex/perthousand/Scaron/guilsinglleft/OE/.notdef/.notdef
/.notdef/.notdef/quoteleft/quoteright/quotedblleft/quotedblright/bullet
/endash/emdash/tilde/trademark/scaron/guilsinglright/oe/.notdef/.notdef
/Ydieresis WindowsLatin1Encoding 128 32 getinterval astore pop}
{/WindowsLatin1Encoding StandardEncoding bdef} ifelse
/reencode {exch dup where {pop load} {pop StandardEncoding} ifelse
  exch dup 3 1 roll findfont dup length dict begin
  { 1 index /FID ne {def}{pop pop} ifelse } forall
  /Encoding exch def currentdict end definefont pop} bdef
/isroman {findfont /CharStrings get /Agrave known} bdef
/FMSR {3 1 roll 1 index dup isroman {reencode} {pop pop} ifelse
  exch FMS} bdef
/csm {1 dpi2point div -1 dpi2point div scale neg translate
 dup landscapeMode eq {pop -90 rotate}
  {rotateMode eq {90 rotate} if} ifelse} bdef
% line types: solid, dotted, dashed, dotdash
/SO { [] 0 setdash } bdef
/DO { [.5 dpi2point mul 4 dpi2point mul] 0 setdash } bdef
/DA { [6 dpi2point mul] 0 setdash } bdef
/DD { [.5 dpi2point mul 4 dpi2point mul 6 dpi2point mul 4
  dpi2point mul] 0 setdash } bdef
% macros for lines and objects
/L {lineto stroke} bdef
/MP {3 1 roll moveto 1 sub {rlineto} repeat} bdef
/AP {{rlineto} repeat} bdef
/PDlw -1 def
/W {/PDlw currentlinewidth def setlinewidth} def
/PP {closepath eofill} bdef
/DP {closepath stroke} bdef
/MR {4 -2 roll moveto dup  0 exch rlineto exch 0 rlineto
  neg 0 exch rlineto closepath} bdef
/FR {MR stroke} bdef
/PR {MR fill} bdef
/L1i {{currentfile picstr readhexstring pop} image} bdef
/tMatrix matrix def
/MakeOval {newpath tMatrix currentmatrix pop translate scale
0 0 1 0 360 arc tMatrix setmatrix} bdef
/FO {MakeOval stroke} bdef
/PO {MakeOval fill} bdef
/PD {currentlinewidth 2 div 0 360 arc fill
   PDlw -1 eq not {PDlw w /PDlw -1 def} if} def
/FA {newpath tMatrix currentmatrix pop translate scale
  0 0 1 5 -2 roll arc tMatrix setmatrix stroke} bdef
/PA {newpath tMatrix currentmatrix pop	translate 0 0 moveto scale
  0 0 1 5 -2 roll arc closepath tMatrix setmatrix fill} bdef
/FAn {newpath tMatrix currentmatrix pop translate scale
  0 0 1 5 -2 roll arcn tMatrix setmatrix stroke} bdef
/PAn {newpath tMatrix currentmatrix pop translate 0 0 moveto scale
  0 0 1 5 -2 roll arcn closepath tMatrix setmatrix fill} bdef
/vradius 0 def /hradius 0 def /lry 0 def
/lrx 0 def /uly 0 def /ulx 0 def /rad 0 def
/MRR {/vradius xdef /hradius xdef /lry xdef /lrx xdef /uly xdef
  /ulx xdef newpath tMatrix currentmatrix pop ulx hradius add uly
  vradius add translate hradius vradius scale 0 0 1 180 270 arc 
  tMatrix setmatrix lrx hradius sub uly vradius add translate
  hradius vradius scale 0 0 1 270 360 arc tMatrix setmatrix
  lrx hradius sub lry vradius sub translate hradius vradius scale
  0 0 1 0 90 arc tMatrix setmatrix ulx hradius add lry vradius sub
  translate hradius vradius scale 0 0 1 90 180 arc tMatrix setmatrix
  closepath} bdef
/FRR {MRR stroke } bdef
/PRR {MRR fill } bdef
/MlrRR {/lry xdef /lrx xdef /uly xdef /ulx xdef /rad lry uly sub 2 div def
  newpath tMatrix currentmatrix pop ulx rad add uly rad add translate
  rad rad scale 0 0 1 90 270 arc tMatrix setmatrix lrx rad sub lry rad
  sub translate rad rad scale 0 0 1 270 90 arc tMatrix setmatrix
  closepath} bdef
/FlrRR {MlrRR stroke } bdef
/PlrRR {MlrRR fill } bdef
/MtbRR {/lry xdef /lrx xdef /uly xdef /ulx xdef /rad lrx ulx sub 2 div def
  newpath tMatrix currentmatrix pop ulx rad add uly rad add translate
  rad rad scale 0 0 1 180 360 arc tMatrix setmatrix lrx rad sub lry rad
  sub translate rad rad scale 0 0 1 0 180 arc tMatrix setmatrix
  closepath} bdef
/FtbRR {MtbRR stroke } bdef
/PtbRR {MtbRR fill } bdef
/stri 6 array def /dtri 6 array def
/smat 6 array def /dmat 6 array def
/tmat1 6 array def /tmat2 6 array def /dif 3 array def
/asub {/ind2 exch def /ind1 exch def dup dup
  ind1 get exch ind2 get sub exch } bdef
/tri_to_matrix {
  2 0 asub 3 1 asub 4 0 asub 5 1 asub
  dup 0 get exch 1 get 7 -1 roll astore } bdef
/compute_transform {
  dmat dtri tri_to_matrix tmat1 invertmatrix 
  smat stri tri_to_matrix tmat2 concatmatrix } bdef
/ds {stri astore pop} bdef
/dt {dtri astore pop} bdef
/db {2 copy /cols xdef /rows xdef mul dup 3 mul string
  currentfile 
  3 index 0 eq {/ASCIIHexDecode filter}
  {/ASCII85Decode filter 3 index 2 eq {/RunLengthDecode filter} if }
  ifelse exch readstring pop
  dup 0 3 index getinterval /rbmap xdef
  dup 2 index dup getinterval /gbmap xdef
  1 index dup 2 mul exch getinterval /bbmap xdef pop pop}bdef
/it {gs np dtri aload pop moveto lineto lineto cp c
  cols rows 8 compute_transform 
  rbmap gbmap bbmap true 3 colorimage gr}bdef
/il {newpath moveto lineto stroke}bdef
currentdict end def
%%EndProlog

%%BeginSetup
MathWorks begin

0 cap

end
%%EndSetup

%%Page: 1 1
%%BeginPageSetup
%%PageBoundingBox:    96   238   515   553
MathWorks begin
bpage
%%EndPageSetup

%%BeginObject: obj1
bplot

/dpi2point 12 def
portraitMode 1152 6636 csm

    0     0  5039  3780 rc
85 dict begin %Colortable dictionary
/c0 { 0.000000 0.000000 0.000000 sr} bdef
/c1 { 1.000000 1.000000 1.000000 sr} bdef
/c2 { 0.900000 0.000000 0.000000 sr} bdef
/c3 { 0.000000 0.820000 0.000000 sr} bdef
/c4 { 0.000000 0.000000 0.800000 sr} bdef
/c5 { 0.910000 0.820000 0.320000 sr} bdef
/c6 { 1.000000 0.260000 0.820000 sr} bdef
/c7 { 0.000000 0.820000 0.820000 sr} bdef
c0
1 j
1 sg
   0    0 5040 3781 rf
6 w
0 1703 -1696 -780 0 -1703 4560 2765 4 MP
PP
1696 780 0 1703 -1696 -780 0 -1703 4560 2765 5 MP stroke
1696 780 2209 -599 -1695 -779 2350 3363 4 MP
PP
-2210 598 1696 780 2209 -599 -1695 -779 2350 3363 5 MP stroke
0 1703 2209 -599 0 -1703 655 2584 4 MP
PP
-2209 599 0 1703 2209 -599 0 -1703 655 2584 5 MP stroke
4 w
DO
SO
6 w
0 sg
2350 3363 mt 4560 2765 L
2350 3363 mt  655 2584 L
 655 2584 mt  655  881 L
2350 3363 mt 2402 3387 L
%%IncludeResource: font Helvetica
/Helvetica /WindowsLatin1Encoding 120 FMSR

2433 3513 mt 
(0) s
3086 3164 mt 3138 3188 L
3170 3313 mt 
(2) s
3823 2965 mt 3875 2988 L
3906 3114 mt 
(4) s
4560 2765 mt 4612 2789 L
4643 2914 mt 
(6) s
2350 3363 mt 2295 3378 L
2195 3498 mt 
(0) s
1785 3104 mt 1730 3118 L
1630 3239 mt 
(2) s
1220 2844 mt 1164 2859 L
1065 2979 mt 
(4) s
 655 2584 mt  599 2599 L
 500 2719 mt 
(6) s
 655 2584 mt  602 2560 L
 505 2589 mt 
(0) s
 655 2158 mt  602 2134 L
 338 2164 mt 
(0.05) s
 655 1732 mt  602 1708 L
 405 1738 mt 
(0.1) s
 655 1307 mt  602 1283 L
 338 1312 mt 
(0.15) s
 655  881 mt  602  857 L
 405  887 mt 
(0.2) s
gs 655 282 3906 3082 rc
1 sg
0 0 0 0 4560 2765 3 MP
PP
/c8 { 0.500000 1.000000 0.500000 sr} bdef
c8
4560 2765 mt 4560 2765 L
/c9 { 0.000000 0.000000 0.562500 sr} bdef
c9
4560 2765 mt 4560 2765 L
c8
4560 2765 mt 4560 2765 L
1 sg
0 0 0 0 4560 2765 3 MP
PP
c8
4560 2765 mt 4560 2765 L
4560 2765 mt 4560 2765 L
4560 2765 mt 4560 2765 L
1 sg
0 0 0 0 4560 2765 3 MP
PP
c8
4560 2765 mt 4560 2765 L
4560 2765 mt 4560 2765 L
4560 2765 mt 4560 2765 L
1 sg
0 0 0 0 4560 2765 3 MP
PP
c8
4560 2765 mt 4560 2765 L
4560 2765 mt 4560 2765 L
4560 2765 mt 4560 2765 L
1 sg
-283 -132 0 0 4560 2765 3 MP
PP
c9
4560 2765 mt 4560 2765 L
c8
4560 2765 mt 4277 2633 L
4277 2633 mt 4560 2765 L
1 sg
-283 -130 0 0 4560 2765 3 MP
PP
c8
4560 2765 mt 4560 2765 L
4560 2765 mt 4277 2635 L
1 sg
0 2 -283 -132 4560 2765 3 MP
PP
c8
4560 2765 mt 4277 2633 L
4277 2633 mt 4277 2635 L
4277 2635 mt 4560 2765 L
1 sg
0 0 -283 -132 4560 2765 3 MP
PP
c9
4560 2765 mt 4277 2633 L
4277 2633 mt 4277 2633 L
c8
4277 2633 mt 4560 2765 L
1 sg
-283 -130 0 2 4277 2633 3 MP
PP
c8
4277 2633 mt 4277 2635 L
4277 2635 mt 3994 2505 L
1 sg
-283 -132 369 -98 4191 2863 3 MP
PP
c9
4191 2863 mt 4560 2765 L
4560 2765 mt 4277 2633 L
1 sg
369 -98 0 0 4191 2863 3 MP
PP
c8
4191 2863 mt 4191 2863 L
c9
4191 2863 mt 4560 2765 L
4560 2765 mt 4191 2863 L
1 sg
0 0 369 -98 4191 2863 3 MP
PP
c8
4191 2863 mt 4560 2765 L
4560 2765 mt 4560 2765 L
c9
4560 2765 mt 4191 2863 L
1 sg
369 -98 0 -2 4191 2865 3 MP
PP
c8
4191 2865 mt 4191 2863 L
4191 2863 mt 4560 2765 L
4560 2765 mt 4191 2865 L
1 sg
0 0 369 -100 4191 2865 3 MP
PP
c8
4191 2865 mt 4560 2765 L
4560 2765 mt 4560 2765 L
1 sg
0 0 0 0 4560 2765 3 MP
PP
c8
4560 2765 mt 4560 2765 L
4560 2765 mt 4560 2765 L
4560 2765 mt 4560 2765 L
1 sg
0 0 0 0 4560 2765 3 MP
PP
c8
4560 2765 mt 4560 2765 L
4560 2765 mt 4560 2765 L
4560 2765 mt 4560 2765 L
1 sg
0 0 0 0 4560 2765 3 MP
PP
c8
4560 2765 mt 4560 2765 L
4560 2765 mt 4560 2765 L
4560 2765 mt 4560 2765 L
1 sg
0 0 0 0 4560 2765 3 MP
PP
c8
4560 2765 mt 4560 2765 L
4560 2765 mt 4560 2765 L
4560 2765 mt 4560 2765 L
1 sg
0 9 -283 -137 4277 2633 3 MP
PP
c8
4277 2633 mt 3994 2496 L
3994 2496 mt 3994 2505 L
1 sg
-283 -137 0 0 4277 2633 3 MP
PP
c9
4277 2633 mt 4277 2633 L
c8
4277 2633 mt 3994 2496 L
3994 2496 mt 4277 2633 L
1 sg
0 0 -283 -137 4277 2633 3 MP
PP
c9
4277 2633 mt 3994 2496 L
3994 2496 mt 3994 2496 L
c8
3994 2496 mt 4277 2633 L
1 sg
-282 -130 0 9 3994 2496 3 MP
PP
c8
3994 2496 mt 3994 2505 L
3994 2505 mt 3712 2375 L
1 sg
-283 -137 368 -77 3909 2710 3 MP
PP
/c10 { 0.000000 0.000000 0.625000 sr} bdef
c10
3909 2710 mt 4277 2633 L
c9
4277 2633 mt 3994 2496 L
1 sg
368 -77 -282 -153 4191 2863 3 MP
PP
c9
4191 2863 mt 3909 2710 L
c10
3909 2710 mt 4277 2633 L
1 sg
368 -92 0 0 3823 2955 3 MP
PP
c8
3823 2955 mt 3823 2955 L
c9
3823 2955 mt 4191 2863 L
4191 2863 mt 3823 2955 L
1 sg
0 0 368 -92 3823 2955 3 MP
PP
c8
3823 2955 mt 4191 2863 L
4191 2863 mt 4191 2863 L
c9
4191 2863 mt 3823 2955 L
1 sg
368 -92 0 -9 3823 2964 3 MP
PP
c8
3823 2964 mt 3823 2955 L
3823 2955 mt 4191 2863 L
1 sg
0 -2 368 -99 3823 2964 3 MP
PP
c8
3823 2964 mt 4191 2865 L
4191 2865 mt 4191 2863 L
1 sg
-282 -153 368 -92 3823 2955 3 MP
PP
c9
3823 2955 mt 4191 2863 L
4191 2863 mt 3909 2710 L
1 sg
-283 -130 0 15 3712 2360 3 MP
PP
c8
3712 2360 mt 3712 2375 L
3712 2375 mt 3429 2245 L
1 sg
0 15 -282 -136 3994 2496 3 MP
PP
c8
3994 2496 mt 3712 2360 L
3712 2360 mt 3712 2375 L
1 sg
-282 -136 368 2 3626 2494 3 MP
PP
/c11 { 0.000000 0.000000 0.875000 sr} bdef
c11
3626 2494 mt 3994 2496 L
c9
3994 2496 mt 3712 2360 L
1 sg
0 0 -282 -136 3994 2496 3 MP
PP
c9
3994 2496 mt 3712 2360 L
3712 2360 mt 3712 2360 L
c8
3712 2360 mt 3994 2496 L
1 sg
-282 -136 0 0 3994 2496 3 MP
PP
c9
3994 2496 mt 3994 2496 L
c8
3994 2496 mt 3712 2360 L
3712 2360 mt 3994 2496 L
1 sg
368 2 -283 -216 3909 2710 3 MP
PP
c10
3909 2710 mt 3626 2494 L
c11
3626 2494 mt 3994 2496 L
1 sg
369 -13 -283 -232 3823 2955 3 MP
PP
c9
3823 2955 mt 3540 2723 L
c11
3540 2723 mt 3909 2710 L
1 sg
-283 -216 369 -13 3540 2723 3 MP
PP
c11
3540 2723 mt 3909 2710 L
c10
3909 2710 mt 3626 2494 L
1 sg
368 -94 0 0 3455 3049 3 MP
PP
c8
3455 3049 mt 3455 3049 L
c9
3455 3049 mt 3823 2955 L
3823 2955 mt 3455 3049 L
1 sg
0 0 368 -94 3455 3049 3 MP
PP
c8
3455 3049 mt 3823 2955 L
3823 2955 mt 3823 2955 L
c9
3823 2955 mt 3455 3049 L
1 sg
0 -9 368 -100 3455 3064 3 MP
PP
c8
3455 3064 mt 3823 2964 L
3823 2964 mt 3823 2955 L
1 sg
-283 -232 368 -94 3455 3049 3 MP
PP
c9
3455 3049 mt 3823 2955 L
3823 2955 mt 3540 2723 L
1 sg
368 -94 0 -15 3455 3064 3 MP
PP
c8
3455 3064 mt 3455 3049 L
3455 3049 mt 3823 2955 L
1 sg
0 9 -283 -124 3712 2360 3 MP
PP
c8
3712 2360 mt 3429 2236 L
3429 2236 mt 3429 2245 L
1 sg
0 0 -283 -124 3712 2360 3 MP
PP
c9
3712 2360 mt 3429 2236 L
3429 2236 mt 3429 2236 L
c8
3429 2236 mt 3712 2360 L
1 sg
-282 -130 0 9 3429 2236 3 MP
PP
c8
3429 2236 mt 3429 2245 L
3429 2245 mt 3147 2115 L
1 sg
-283 -124 368 69 3344 2291 3 MP
PP
/c12 { 0.000000 0.062500 1.000000 sr} bdef
c12
3344 2291 mt 3712 2360 L
c9
3712 2360 mt 3429 2236 L
1 sg
368 69 -282 -203 3626 2494 3 MP
PP
c11
3626 2494 mt 3344 2291 L
c12
3344 2291 mt 3712 2360 L
1 sg
-283 -124 0 0 3712 2360 3 MP
PP
c9
3712 2360 mt 3712 2360 L
c8
3712 2360 mt 3429 2236 L
3429 2236 mt 3712 2360 L
1 sg
-283 -130 0 2 3147 2113 3 MP
PP
c8
3147 2113 mt 3147 2115 L
3147 2115 mt 2864 1985 L
2864 1985 mt 3147 2113 L
1 sg
0 0 -283 -128 3147 2113 3 MP
PP
c8
3147 2113 mt 2864 1985 L
2864 1985 mt 2864 1985 L
1 sg
369 -77 -283 -44 3061 2234 3 MP
PP
c11
3061 2234 mt 2778 2190 L
c10
2778 2190 mt 3147 2113 L
1 sg
-283 -128 369 -77 2778 2190 3 MP
PP
c10
2778 2190 mt 3147 2113 L
c9
3147 2113 mt 2864 1985 L
1 sg
-283 -128 0 0 3147 2113 3 MP
PP
c9
3147 2113 mt 3147 2113 L
c8
3147 2113 mt 2864 1985 L
2864 1985 mt 3147 2113 L
1 sg
0 0 -283 -128 3147 2113 3 MP
PP
c9
3147 2113 mt 2864 1985 L
2864 1985 mt 2864 1985 L
c8
2864 1985 mt 3147 2113 L
1 sg
368 2 -283 -57 3344 2291 3 MP
PP
c12
3344 2291 mt 3061 2234 L
c11
3061 2234 mt 3429 2236 L
1 sg
0 2 -282 -123 3429 2236 3 MP
PP
c8
3429 2236 mt 3147 2113 L
3147 2113 mt 3147 2115 L
1 sg
0 0 -282 -123 3429 2236 3 MP
PP
c9
3429 2236 mt 3147 2113 L
3147 2113 mt 3147 2113 L
c8
3147 2113 mt 3429 2236 L
1 sg
-282 -123 368 2 3061 2234 3 MP
PP
c11
3061 2234 mt 3429 2236 L
c9
3429 2236 mt 3147 2113 L
1 sg
-282 -123 0 0 3429 2236 3 MP
PP
c9
3429 2236 mt 3429 2236 L
c8
3429 2236 mt 3147 2113 L
3147 2113 mt 3429 2236 L
1 sg
-283 -57 369 539 2975 1752 3 MP
PP
/c13 { 0.937500 1.000000 0.062500 sr} bdef
c13
2975 1752 mt 3344 2291 L
c12
3344 2291 mt 3061 2234 L
1 sg
369 539 -283 -454 3258 2206 3 MP
PP
/c14 { 0.000000 1.000000 1.000000 sr} bdef
c14
3258 2206 mt 2975 1752 L
c13
2975 1752 mt 3344 2291 L
1 sg
-282 -203 368 288 3258 2206 3 MP
PP
c14
3258 2206 mt 3626 2494 L
c11
3626 2494 mt 3344 2291 L
1 sg
368 288 -282 -517 3540 2723 3 MP
PP
c11
3540 2723 mt 3258 2206 L
c14
3258 2206 mt 3626 2494 L
1 sg
-282 -517 368 -28 3172 2751 3 MP
PP
c12
3172 2751 mt 3540 2723 L
c11
3540 2723 mt 3258 2206 L
1 sg
368 -28 -283 -298 3455 3049 3 MP
PP
c9
3455 3049 mt 3172 2751 L
c12
3172 2751 mt 3540 2723 L
1 sg
-283 -298 369 -106 3086 3155 3 MP
PP
c9
3086 3155 mt 3455 3049 L
3455 3049 mt 3172 2751 L
1 sg
369 -106 0 0 3086 3155 3 MP
PP
c8
3086 3155 mt 3086 3155 L
c9
3086 3155 mt 3455 3049 L
3455 3049 mt 3086 3155 L
1 sg
0 0 369 -106 3086 3155 3 MP
PP
c8
3086 3155 mt 3455 3049 L
3455 3049 mt 3455 3049 L
c9
3455 3049 mt 3086 3155 L
1 sg
369 -106 0 -9 3086 3164 3 MP
PP
c8
3086 3164 mt 3086 3155 L
3086 3155 mt 3455 3049 L
1 sg
0 -15 369 -100 3086 3164 3 MP
PP
c8
3086 3164 mt 3455 3064 L
3455 3064 mt 3455 3049 L
1 sg
0 0 0 0 2864 1985 3 MP
PP
c8
2864 1985 mt 2864 1985 L
2864 1985 mt 2864 1985 L
2864 1985 mt 2864 1985 L
1 sg
0 0 368 -98 2496 2083 3 MP
PP
c8
2496 2083 mt 2864 1985 L
2864 1985 mt 2864 1985 L
1 sg
0 0 0 0 2864 1985 3 MP
PP
c8
2864 1985 mt 2864 1985 L
2864 1985 mt 2864 1985 L
2864 1985 mt 2864 1985 L
1 sg
0 0 0 0 2864 1985 3 MP
PP
c8
2864 1985 mt 2864 1985 L
2864 1985 mt 2864 1985 L
2864 1985 mt 2864 1985 L
1 sg
0 0 0 0 2864 1985 3 MP
PP
c8
2864 1985 mt 2864 1985 L
2864 1985 mt 2864 1985 L
2864 1985 mt 2864 1985 L
1 sg
368 -98 0 0 2496 2083 3 MP
PP
c9
2496 2083 mt 2496 2083 L
c8
2496 2083 mt 2864 1985 L
2864 1985 mt 2496 2083 L
1 sg
0 0 368 -98 2496 2083 3 MP
PP
c9
2496 2083 mt 2864 1985 L
2864 1985 mt 2864 1985 L
c8
2864 1985 mt 2496 2083 L
1 sg
0 0 0 0 2864 1985 3 MP
PP
c8
2864 1985 mt 2864 1985 L
2864 1985 mt 2864 1985 L
2864 1985 mt 2864 1985 L
1 sg
0 0 0 0 2864 1985 3 MP
PP
c8
2864 1985 mt 2864 1985 L
2864 1985 mt 2864 1985 L
2864 1985 mt 2864 1985 L
1 sg
368 -100 0 2 2496 2083 3 MP
PP
c8
2496 2083 mt 2496 2085 L
2496 2085 mt 2864 1985 L
2864 1985 mt 2496 2083 L
1 sg
368 -98 -282 -107 2778 2190 3 MP
PP
c10
2778 2190 mt 2496 2083 L
c9
2496 2083 mt 2864 1985 L
1 sg
0 0 0 0 2864 1985 3 MP
PP
c9
2864 1985 mt 2864 1985 L
c8
2864 1985 mt 2864 1985 L
2864 1985 mt 2864 1985 L
1 sg
0 0 0 0 2864 1985 3 MP
PP
c9
2864 1985 mt 2864 1985 L
c8
2864 1985 mt 2864 1985 L
2864 1985 mt 2864 1985 L
1 sg
368 288 -282 194 2975 1752 3 MP
PP
c13
2975 1752 mt 2693 1946 L
c14
2693 1946 mt 3061 2234 L
1 sg
-283 -454 368 224 2890 1982 3 MP
PP
c13
2890 1982 mt 3258 2206 L
c14
3258 2206 mt 2975 1752 L
1 sg
-283 -44 368 288 2693 1946 3 MP
PP
c14
2693 1946 mt 3061 2234 L
c11
3061 2234 mt 2778 2190 L
1 sg
368 224 -282 -769 3172 2751 3 MP
PP
c12
3172 2751 mt 2890 1982 L
c13
2890 1982 mt 3258 2206 L
1 sg
368 -172 -282 -232 3086 3155 3 MP
PP
c9
3086 3155 mt 2804 2923 L
c11
2804 2923 mt 3172 2751 L
1 sg
-282 -769 368 -172 2804 2923 3 MP
PP
c11
2804 2923 mt 3172 2751 L
c12
3172 2751 mt 2890 1982 L
1 sg
0 -9 368 -100 2718 3264 3 MP
PP
c8
2718 3264 mt 3086 3164 L
3086 3164 mt 3086 3155 L
1 sg
368 -107 0 -2 2718 3264 3 MP
PP
c8
2718 3264 mt 2718 3262 L
2718 3262 mt 3086 3155 L
1 sg
368 -107 0 0 2718 3262 3 MP
PP
c8
2718 3262 mt 2718 3262 L
c9
2718 3262 mt 3086 3155 L
3086 3155 mt 2718 3262 L
1 sg
-282 -232 368 -107 2718 3262 3 MP
PP
c9
2718 3262 mt 3086 3155 L
3086 3155 mt 2804 2923 L
1 sg
0 0 368 -107 2718 3262 3 MP
PP
c8
2718 3262 mt 3086 3155 L
3086 3155 mt 3086 3155 L
c9
3086 3155 mt 2718 3262 L
1 sg
-282 194 368 433 2607 1319 3 MP
PP
/c15 { 0.500000 0.000000 0.000000 sr} bdef
c15
2607 1319 mt 2975 1752 L
c13
2975 1752 mt 2693 1946 L
1 sg
368 433 -283 -663 2890 1982 3 MP
PP
c13
2890 1982 mt 2607 1319 L
c15
2607 1319 mt 2975 1752 L
1 sg
368 -99 0 8 2128 2176 3 MP
PP
c8
2128 2176 mt 2128 2184 L
2128 2184 mt 2496 2085 L
1 sg
0 2 368 -93 2128 2176 3 MP
PP
c8
2128 2176 mt 2496 2083 L
2496 2083 mt 2496 2085 L
1 sg
-282 -107 368 -13 2410 2203 3 MP
PP
c11
2410 2203 mt 2778 2190 L
c10
2778 2190 mt 2496 2083 L
1 sg
368 -13 -283 257 2693 1946 3 MP
PP
c14
2693 1946 mt 2410 2203 L
c11
2410 2203 mt 2778 2190 L
1 sg
369 -423 -283 -518 2804 2923 3 MP
PP
c11
2804 2923 mt 2521 2405 L
c14
2521 2405 mt 2890 1982 L
1 sg
369 224 -283 403 2607 1319 3 MP
PP
c15
2607 1319 mt 2324 1722 L
c13
2324 1722 mt 2693 1946 L
1 sg
368 -93 -282 -27 2410 2203 3 MP
PP
c11
2410 2203 mt 2128 2176 L
c9
2128 2176 mt 2496 2083 L
1 sg
368 -93 0 0 2128 2176 3 MP
PP
c9
2128 2176 mt 2128 2176 L
c8
2128 2176 mt 2496 2083 L
2496 2083 mt 2128 2176 L
1 sg
0 0 368 -93 2128 2176 3 MP
PP
c9
2128 2176 mt 2496 2083 L
2496 2083 mt 2496 2083 L
c8
2496 2083 mt 2128 2176 L
1 sg
-283 257 369 224 2324 1722 3 MP
PP
c13
2324 1722 mt 2693 1946 L
c14
2693 1946 mt 2410 2203 L
1 sg
-283 -663 369 -423 2521 2405 3 MP
PP
c14
2521 2405 mt 2890 1982 L
c13
2890 1982 mt 2607 1319 L
1 sg
368 -186 -282 -153 2718 3262 3 MP
PP
c9
2718 3262 mt 2436 3109 L
c10
2436 3109 mt 2804 2923 L
1 sg
-283 -518 368 -186 2436 3109 3 MP
PP
c10
2436 3109 mt 2804 2923 L
c11
2804 2923 mt 2521 2405 L
1 sg
0 -2 368 -99 2350 3363 3 MP
PP
c8
2350 3363 mt 2718 3264 L
2718 3264 mt 2718 3262 L
2718 3262 mt 2350 3363 L
1 sg
-282 -153 368 -101 2350 3363 3 MP
PP
c9
2350 3363 mt 2718 3262 L
2718 3262 mt 2436 3109 L
1 sg
368 -101 0 0 2350 3363 3 MP
PP
c8
2350 3363 mt 2350 3363 L
c9
2350 3363 mt 2718 3262 L
2718 3262 mt 2350 3363 L
1 sg
0 0 368 -101 2350 3363 3 MP
PP
c8
2350 3363 mt 2718 3262 L
2718 3262 mt 2718 3262 L
c9
2718 3262 mt 2350 3363 L
1 sg
368 -101 0 0 2350 3363 3 MP
PP
c8
2350 3363 mt 2350 3363 L
2350 3363 mt 2718 3262 L
1 sg
369 -100 0 15 1759 2269 3 MP
PP
c8
1759 2269 mt 1759 2284 L
1759 2284 mt 2128 2184 L
1 sg
0 8 369 -93 1759 2269 3 MP
PP
c8
1759 2269 mt 2128 2176 L
2128 2176 mt 2128 2184 L
1 sg
369 -93 -283 38 2042 2231 3 MP
PP
c12
2042 2231 mt 1759 2269 L
c9
1759 2269 mt 2128 2176 L
1 sg
369 -93 0 0 1759 2269 3 MP
PP
c9
1759 2269 mt 1759 2269 L
c8
1759 2269 mt 2128 2176 L
2128 2176 mt 1759 2269 L
1 sg
0 0 369 -93 1759 2269 3 MP
PP
c9
1759 2269 mt 2128 2176 L
2128 2176 mt 2128 2176 L
c8
2128 2176 mt 1759 2269 L
1 sg
-282 -27 368 -28 2042 2231 3 MP
PP
c12
2042 2231 mt 2410 2203 L
c11
2410 2203 mt 2128 2176 L
1 sg
368 -28 -282 509 2324 1722 3 MP
PP
c13
2324 1722 mt 2042 2231 L
c12
2042 2231 mt 2410 2203 L
1 sg
368 -633 -282 -453 2521 2405 3 MP
PP
c14
2521 2405 mt 2239 1952 L
c13
2239 1952 mt 2607 1319 L
1 sg
-283 403 368 -633 2239 1952 3 MP
PP
c13
2239 1952 mt 2607 1319 L
c15
2607 1319 mt 2324 1722 L
1 sg
-282 -453 368 -488 2153 2893 3 MP
PP
c11
2153 2893 mt 2521 2405 L
c14
2521 2405 mt 2239 1952 L
1 sg
368 -488 -283 -216 2436 3109 3 MP
PP
c10
2436 3109 mt 2153 2893 L
c11
2153 2893 mt 2521 2405 L
1 sg
369 -122 -283 -132 2350 3363 3 MP
PP
c9
2350 3363 mt 2067 3231 L
2067 3231 mt 2436 3109 L
1 sg
-283 -216 369 -122 2067 3231 3 MP
PP
c9
2067 3231 mt 2436 3109 L
c10
2436 3109 mt 2153 2893 L
1 sg
0 0 0 0 2350 3363 3 MP
PP
c8
2350 3363 mt 2350 3363 L
2350 3363 mt 2350 3363 L
2350 3363 mt 2350 3363 L
1 sg
0 0 0 0 2350 3363 3 MP
PP
c8
2350 3363 mt 2350 3363 L
2350 3363 mt 2350 3363 L
2350 3363 mt 2350 3363 L
1 sg
0 0 0 0 2350 3363 3 MP
PP
c8
2350 3363 mt 2350 3363 L
2350 3363 mt 2350 3363 L
2350 3363 mt 2350 3363 L
1 sg
0 0 0 0 2350 3363 3 MP
PP
c8
2350 3363 mt 2350 3363 L
2350 3363 mt 2350 3363 L
c9
2350 3363 mt 2350 3363 L
1 sg
0 0 0 0 2350 3363 3 MP
PP
c8
2350 3363 mt 2350 3363 L
2350 3363 mt 2350 3363 L
c9
2350 3363 mt 2350 3363 L
1 sg
-283 -132 0 0 2350 3363 3 MP
PP
c8
2350 3363 mt 2350 3363 L
c9
2350 3363 mt 2067 3231 L
2067 3231 mt 2350 3363 L
1 sg
0 -2 -283 -130 2350 3363 3 MP
PP
c8
2350 3363 mt 2067 3233 L
2067 3233 mt 2067 3231 L
2067 3231 mt 2350 3363 L
1 sg
-283 -132 0 0 2350 3363 3 MP
PP
c8
2350 3363 mt 2350 3363 L
2350 3363 mt 2067 3231 L
1 sg
0 0 0 0 2350 3363 3 MP
PP
c8
2350 3363 mt 2350 3363 L
2350 3363 mt 2350 3363 L
2350 3363 mt 2350 3363 L
1 sg
0 0 0 0 2350 3363 3 MP
PP
c8
2350 3363 mt 2350 3363 L
2350 3363 mt 2350 3363 L
2350 3363 mt 2350 3363 L
1 sg
0 0 0 0 2350 3363 3 MP
PP
c8
2350 3363 mt 2350 3363 L
2350 3363 mt 2350 3363 L
2350 3363 mt 2350 3363 L
1 sg
0 0 -283 -132 2350 3363 3 MP
PP
c8
2350 3363 mt 2067 3231 L
2067 3231 mt 2067 3231 L
c9
2067 3231 mt 2350 3363 L
1 sg
-282 509 368 -423 1956 2145 3 MP
PP
c14
1956 2145 mt 2324 1722 L
c13
2324 1722 mt 2042 2231 L
1 sg
368 -423 -283 193 2239 1952 3 MP
PP
c13
2239 1952 mt 1956 2145 L
c14
1956 2145 mt 2324 1722 L
1 sg
368 -100 0 9 1391 2375 3 MP
PP
c8
1391 2375 mt 1391 2384 L
1391 2384 mt 1759 2284 L
1 sg
0 15 368 -106 1391 2375 3 MP
PP
c8
1391 2375 mt 1759 2269 L
1759 2269 mt 1759 2284 L
1 sg
-283 38 368 -172 1674 2403 3 MP
PP
c11
1674 2403 mt 2042 2231 L
c12
2042 2231 mt 1759 2269 L
1 sg
368 -172 -282 258 1956 2145 3 MP
PP
c14
1956 2145 mt 1674 2403 L
c11
1674 2403 mt 2042 2231 L
1 sg
-283 193 369 -738 1870 2690 3 MP
PP
c12
1870 2690 mt 2239 1952 L
c13
2239 1952 mt 1956 2145 L
1 sg
369 -738 -283 -203 2153 2893 3 MP
PP
c11
2153 2893 mt 1870 2690 L
c12
1870 2690 mt 2239 1952 L
1 sg
-283 -203 368 -201 1785 3094 3 MP
PP
c9
1785 3094 mt 2153 2893 L
c11
2153 2893 mt 1870 2690 L
1 sg
368 -201 -282 -137 2067 3231 3 MP
PP
c9
2067 3231 mt 1785 3094 L
1785 3094 mt 2153 2893 L
1 sg
0 0 -282 -137 2067 3231 3 MP
PP
c8
2067 3231 mt 1785 3094 L
1785 3094 mt 1785 3094 L
c9
1785 3094 mt 2067 3231 L
1 sg
-282 -137 0 0 2067 3231 3 MP
PP
c8
2067 3231 mt 2067 3231 L
c9
2067 3231 mt 1785 3094 L
1785 3094 mt 2067 3231 L
1 sg
0 -9 -282 -130 2067 3233 3 MP
PP
c8
2067 3233 mt 1785 3103 L
1785 3103 mt 1785 3094 L
1 sg
-282 -137 0 -2 2067 3233 3 MP
PP
c8
2067 3233 mt 2067 3231 L
2067 3231 mt 1785 3094 L
1 sg
368 -488 -282 -57 1870 2690 3 MP
PP
c12
1870 2690 mt 1588 2633 L
c11
1588 2633 mt 1956 2145 L
1 sg
-282 258 368 -488 1588 2633 3 MP
PP
c11
1588 2633 mt 1956 2145 L
c14
1956 2145 mt 1674 2403 L
1 sg
368 -268 -283 -136 1785 3094 3 MP
PP
c9
1785 3094 mt 1502 2958 L
1502 2958 mt 1870 2690 L
1 sg
-282 -57 368 -268 1502 2958 3 MP
PP
c9
1502 2958 mt 1870 2690 L
c12
1870 2690 mt 1588 2633 L
1 sg
-283 -136 0 -9 1785 3103 3 MP
PP
c8
1785 3103 mt 1785 3094 L
1785 3094 mt 1502 2958 L
1 sg
-283 -136 0 0 1785 3094 3 MP
PP
c8
1785 3094 mt 1785 3094 L
c9
1785 3094 mt 1502 2958 L
1502 2958 mt 1785 3094 L
1 sg
0 -15 -283 -130 1785 3103 3 MP
PP
c8
1785 3103 mt 1502 2973 L
1502 2973 mt 1502 2958 L
1 sg
0 0 -283 -136 1785 3094 3 MP
PP
c8
1785 3094 mt 1502 2958 L
1502 2958 mt 1502 2958 L
c9
1502 2958 mt 1785 3094 L
1 sg
0 0 368 -106 1391 2375 3 MP
PP
c9
1391 2375 mt 1759 2269 L
1759 2269 mt 1759 2269 L
c8
1759 2269 mt 1391 2375 L
1 sg
368 -106 0 0 1391 2375 3 MP
PP
c9
1391 2375 mt 1391 2375 L
c8
1391 2375 mt 1759 2269 L
1759 2269 mt 1391 2375 L
1 sg
368 -106 -283 -28 1674 2403 3 MP
PP
c11
1674 2403 mt 1391 2375 L
c9
1391 2375 mt 1759 2269 L
1 sg
369 -186 -283 -44 1588 2633 3 MP
PP
c11
1588 2633 mt 1305 2589 L
c10
1305 2589 mt 1674 2403 L
1 sg
0 9 368 -107 1023 2482 3 MP
PP
c8
1023 2482 mt 1391 2375 L
1391 2375 mt 1391 2384 L
1 sg
368 -100 0 2 1023 2482 3 MP
PP
c8
1023 2482 mt 1023 2484 L
1023 2484 mt 1391 2384 L
1 sg
-283 -28 369 -186 1305 2589 3 MP
PP
c10
1305 2589 mt 1674 2403 L
c11
1674 2403 mt 1391 2375 L
1 sg
-283 -44 368 -201 1220 2834 3 MP
PP
c9
1220 2834 mt 1588 2633 L
c11
1588 2633 mt 1305 2589 L
1 sg
368 -201 -282 -124 1502 2958 3 MP
PP
c9
1502 2958 mt 1220 2834 L
1220 2834 mt 1588 2633 L
1 sg
-282 -124 0 0 1502 2958 3 MP
PP
c8
1502 2958 mt 1502 2958 L
c9
1502 2958 mt 1220 2834 L
1220 2834 mt 1502 2958 L
1 sg
0 0 -282 -124 1502 2958 3 MP
PP
c8
1502 2958 mt 1220 2834 L
1220 2834 mt 1220 2834 L
c9
1220 2834 mt 1502 2958 L
1 sg
0 -9 -282 -130 1502 2973 3 MP
PP
c8
1502 2973 mt 1220 2843 L
1220 2843 mt 1220 2834 L
1 sg
-282 -124 0 -15 1502 2973 3 MP
PP
c8
1502 2973 mt 1502 2958 L
1502 2958 mt 1220 2834 L
1 sg
368 -107 -282 -107 1305 2589 3 MP
PP
c10
1305 2589 mt 1023 2482 L
c9
1023 2482 mt 1391 2375 L
1 sg
368 -107 0 0 1023 2482 3 MP
PP
c9
1023 2482 mt 1023 2482 L
c8
1023 2482 mt 1391 2375 L
1391 2375 mt 1023 2482 L
1 sg
0 0 368 -107 1023 2482 3 MP
PP
c9
1023 2482 mt 1391 2375 L
1391 2375 mt 1391 2375 L
c8
1391 2375 mt 1023 2482 L
1 sg
368 -123 -283 -122 1220 2834 3 MP
PP
c9
1220 2834 mt  937 2712 L
 937 2712 mt 1305 2589 L
1 sg
368 -99 0 0 655 2583 3 MP
PP
c8
 655 2583 mt  655 2583 L
 655 2583 mt 1023 2484 L
1 sg
0 2 368 -101 655 2583 3 MP
PP
c8
 655 2583 mt 1023 2482 L
1023 2482 mt 1023 2484 L
1023 2484 mt  655 2583 L
1 sg
-282 -107 368 -123 937 2712 3 MP
PP
c9
 937 2712 mt 1305 2589 L
c10
1305 2589 mt 1023 2482 L
1 sg
-283 -122 0 0 1220 2834 3 MP
PP
c8
1220 2834 mt 1220 2834 L
c9
1220 2834 mt  937 2712 L
 937 2712 mt 1220 2834 L
1 sg
-283 -122 0 -9 1220 2843 3 MP
PP
c8
1220 2843 mt 1220 2834 L
1220 2834 mt  937 2712 L
1 sg
0 -1 -283 -130 1220 2843 3 MP
PP
c8
1220 2843 mt  937 2713 L
 937 2713 mt  937 2712 L
1 sg
0 0 -283 -122 1220 2834 3 MP
PP
c8
1220 2834 mt  937 2712 L
 937 2712 mt  937 2712 L
c9
 937 2712 mt 1220 2834 L
1 sg
368 -101 -282 -129 937 2712 3 MP
PP
c9
 937 2712 mt  655 2583 L
 655 2583 mt 1023 2482 L
1 sg
368 -101 0 0 655 2583 3 MP
PP
c9
 655 2583 mt  655 2583 L
c8
 655 2583 mt 1023 2482 L
1023 2482 mt  655 2583 L
1 sg
0 0 368 -101 655 2583 3 MP
PP
c9
 655 2583 mt 1023 2482 L
1023 2482 mt 1023 2482 L
c8
1023 2482 mt  655 2583 L
1 sg
0 0 -282 -130 937 2713 3 MP
PP
c8
 937 2713 mt  655 2583 L
 655 2583 mt  655 2583 L
1 sg
0 0 -282 -129 937 2712 3 MP
PP
c8
 937 2712 mt  655 2583 L
 655 2583 mt  655 2583 L
c9
 655 2583 mt  937 2712 L
1 sg
-282 -129 0 0 937 2712 3 MP
PP
c8
 937 2712 mt  937 2712 L
c9
 937 2712 mt  655 2583 L
 655 2583 mt  937 2712 L
1 sg
-282 -129 0 -1 937 2713 3 MP
PP
c8
 937 2713 mt  937 2712 L
 937 2712 mt  655 2583 L
 655 2583 mt  937 2713 L
1 sg
0 0 0 0 655 2583 3 MP
PP
c8
 655 2583 mt  655 2583 L
 655 2583 mt  655 2583 L
 655 2583 mt  655 2583 L
1 sg
0 0 0 0 655 2583 3 MP
PP
c8
 655 2583 mt  655 2583 L
 655 2583 mt  655 2583 L
 655 2583 mt  655 2583 L
1 sg
0 0 0 0 655 2583 3 MP
PP
c8
 655 2583 mt  655 2583 L
 655 2583 mt  655 2583 L
 655 2583 mt  655 2583 L
1 sg
0 0 0 0 655 2583 3 MP
PP
c8
 655 2583 mt  655 2583 L
 655 2583 mt  655 2583 L
 655 2583 mt  655 2583 L
1 sg
0 0 0 0 655 2583 3 MP
PP
c8
 655 2583 mt  655 2583 L
 655 2583 mt  655 2583 L
 655 2583 mt  655 2583 L
1 sg
0 0 0 0 655 2583 3 MP
PP
c8
 655 2583 mt  655 2583 L
 655 2583 mt  655 2583 L
 655 2583 mt  655 2583 L
1 sg
0 0 0 0 655 2583 3 MP
PP
c8
 655 2583 mt  655 2583 L
 655 2583 mt  655 2583 L
 655 2583 mt  655 2583 L
1 sg
0 0 0 0 655 2583 3 MP
PP
c8
 655 2583 mt  655 2583 L
c9
 655 2583 mt  655 2583 L
c8
 655 2583 mt  655 2583 L
gr

c8

end %%Color Dict

eplot
%%EndObject

epage
end

showpage

%%Trailer
%%EOF
