%!PS-Adobe-3.0 EPSF-3.0
%%Creator: MATLAB, The MathWorks, Inc. Version 7.11.0.584 (R2010b). Operating System: Microsoft Windows 7.
%%Title: D:\Dropbox\document\work\ELE747\Cours\cours3\content\matlab\mesh_gauss_5_3.eps
%%CreationDate: 01/17/2011  14:02:15
%%DocumentNeededFonts: Helvetica
%%DocumentProcessColors: Cyan Magenta Yellow Black
%%LanguageLevel: 2
%%Pages: 1
%%BoundingBox:    96   238   515   553
%%EndComments

%%BeginProlog
% MathWorks dictionary
/MathWorks 160 dict begin
% definition operators
/bdef {bind def} bind def
/ldef {load def} bind def
/xdef {exch def} bdef
/xstore {exch store} bdef
% operator abbreviations
/c  /clip ldef
/cc /concat ldef
/cp /closepath ldef
/gr /grestore ldef
/gs /gsave ldef
/mt /moveto ldef
/np /newpath ldef
/cm /currentmatrix ldef
/sm /setmatrix ldef
/rm /rmoveto ldef
/rl /rlineto ldef
/s {show newpath} bdef
/sc {setcmykcolor} bdef
/sr /setrgbcolor ldef
/sg /setgray ldef
/w /setlinewidth ldef
/j /setlinejoin ldef
/cap /setlinecap ldef
/rc {rectclip} bdef
/rf {rectfill} bdef
% page state control
/pgsv () def
/bpage {/pgsv save def} bdef
/epage {pgsv restore} bdef
/bplot /gsave ldef
/eplot {stroke grestore} bdef
% orientation switch
/portraitMode 0 def /landscapeMode 1 def /rotateMode 2 def
% coordinate system mappings
/dpi2point 0 def
% font control
/FontSize 0 def
/FMS {/FontSize xstore findfont [FontSize 0 0 FontSize neg 0 0]
  makefont setfont} bdef
/ISOLatin1Encoding where {pop /WindowsLatin1Encoding 256 array bdef
ISOLatin1Encoding WindowsLatin1Encoding copy pop
/.notdef/.notdef/quotesinglbase/florin/quotedblbase/ellipsis/dagger
/daggerdbl/circumflex/perthousand/Scaron/guilsinglleft/OE/.notdef/.notdef
/.notdef/.notdef/quoteleft/quoteright/quotedblleft/quotedblright/bullet
/endash/emdash/tilde/trademark/scaron/guilsinglright/oe/.notdef/.notdef
/Ydieresis WindowsLatin1Encoding 128 32 getinterval astore pop}
{/WindowsLatin1Encoding StandardEncoding bdef} ifelse
/reencode {exch dup where {pop load} {pop StandardEncoding} ifelse
  exch dup 3 1 roll findfont dup length dict begin
  { 1 index /FID ne {def}{pop pop} ifelse } forall
  /Encoding exch def currentdict end definefont pop} bdef
/isroman {findfont /CharStrings get /Agrave known} bdef
/FMSR {3 1 roll 1 index dup isroman {reencode} {pop pop} ifelse
  exch FMS} bdef
/csm {1 dpi2point div -1 dpi2point div scale neg translate
 dup landscapeMode eq {pop -90 rotate}
  {rotateMode eq {90 rotate} if} ifelse} bdef
% line types: solid, dotted, dashed, dotdash
/SO { [] 0 setdash } bdef
/DO { [.5 dpi2point mul 4 dpi2point mul] 0 setdash } bdef
/DA { [6 dpi2point mul] 0 setdash } bdef
/DD { [.5 dpi2point mul 4 dpi2point mul 6 dpi2point mul 4
  dpi2point mul] 0 setdash } bdef
% macros for lines and objects
/L {lineto stroke} bdef
/MP {3 1 roll moveto 1 sub {rlineto} repeat} bdef
/AP {{rlineto} repeat} bdef
/PDlw -1 def
/W {/PDlw currentlinewidth def setlinewidth} def
/PP {closepath eofill} bdef
/DP {closepath stroke} bdef
/MR {4 -2 roll moveto dup  0 exch rlineto exch 0 rlineto
  neg 0 exch rlineto closepath} bdef
/FR {MR stroke} bdef
/PR {MR fill} bdef
/L1i {{currentfile picstr readhexstring pop} image} bdef
/tMatrix matrix def
/MakeOval {newpath tMatrix currentmatrix pop translate scale
0 0 1 0 360 arc tMatrix setmatrix} bdef
/FO {MakeOval stroke} bdef
/PO {MakeOval fill} bdef
/PD {currentlinewidth 2 div 0 360 arc fill
   PDlw -1 eq not {PDlw w /PDlw -1 def} if} def
/FA {newpath tMatrix currentmatrix pop translate scale
  0 0 1 5 -2 roll arc tMatrix setmatrix stroke} bdef
/PA {newpath tMatrix currentmatrix pop	translate 0 0 moveto scale
  0 0 1 5 -2 roll arc closepath tMatrix setmatrix fill} bdef
/FAn {newpath tMatrix currentmatrix pop translate scale
  0 0 1 5 -2 roll arcn tMatrix setmatrix stroke} bdef
/PAn {newpath tMatrix currentmatrix pop translate 0 0 moveto scale
  0 0 1 5 -2 roll arcn closepath tMatrix setmatrix fill} bdef
/vradius 0 def /hradius 0 def /lry 0 def
/lrx 0 def /uly 0 def /ulx 0 def /rad 0 def
/MRR {/vradius xdef /hradius xdef /lry xdef /lrx xdef /uly xdef
  /ulx xdef newpath tMatrix currentmatrix pop ulx hradius add uly
  vradius add translate hradius vradius scale 0 0 1 180 270 arc 
  tMatrix setmatrix lrx hradius sub uly vradius add translate
  hradius vradius scale 0 0 1 270 360 arc tMatrix setmatrix
  lrx hradius sub lry vradius sub translate hradius vradius scale
  0 0 1 0 90 arc tMatrix setmatrix ulx hradius add lry vradius sub
  translate hradius vradius scale 0 0 1 90 180 arc tMatrix setmatrix
  closepath} bdef
/FRR {MRR stroke } bdef
/PRR {MRR fill } bdef
/MlrRR {/lry xdef /lrx xdef /uly xdef /ulx xdef /rad lry uly sub 2 div def
  newpath tMatrix currentmatrix pop ulx rad add uly rad add translate
  rad rad scale 0 0 1 90 270 arc tMatrix setmatrix lrx rad sub lry rad
  sub translate rad rad scale 0 0 1 270 90 arc tMatrix setmatrix
  closepath} bdef
/FlrRR {MlrRR stroke } bdef
/PlrRR {MlrRR fill } bdef
/MtbRR {/lry xdef /lrx xdef /uly xdef /ulx xdef /rad lrx ulx sub 2 div def
  newpath tMatrix currentmatrix pop ulx rad add uly rad add translate
  rad rad scale 0 0 1 180 360 arc tMatrix setmatrix lrx rad sub lry rad
  sub translate rad rad scale 0 0 1 0 180 arc tMatrix setmatrix
  closepath} bdef
/FtbRR {MtbRR stroke } bdef
/PtbRR {MtbRR fill } bdef
/stri 6 array def /dtri 6 array def
/smat 6 array def /dmat 6 array def
/tmat1 6 array def /tmat2 6 array def /dif 3 array def
/asub {/ind2 exch def /ind1 exch def dup dup
  ind1 get exch ind2 get sub exch } bdef
/tri_to_matrix {
  2 0 asub 3 1 asub 4 0 asub 5 1 asub
  dup 0 get exch 1 get 7 -1 roll astore } bdef
/compute_transform {
  dmat dtri tri_to_matrix tmat1 invertmatrix 
  smat stri tri_to_matrix tmat2 concatmatrix } bdef
/ds {stri astore pop} bdef
/dt {dtri astore pop} bdef
/db {2 copy /cols xdef /rows xdef mul dup 3 mul string
  currentfile 
  3 index 0 eq {/ASCIIHexDecode filter}
  {/ASCII85Decode filter 3 index 2 eq {/RunLengthDecode filter} if }
  ifelse exch readstring pop
  dup 0 3 index getinterval /rbmap xdef
  dup 2 index dup getinterval /gbmap xdef
  1 index dup 2 mul exch getinterval /bbmap xdef pop pop}bdef
/it {gs np dtri aload pop moveto lineto lineto cp c
  cols rows 8 compute_transform 
  rbmap gbmap bbmap true 3 colorimage gr}bdef
/il {newpath moveto lineto stroke}bdef
currentdict end def
%%EndProlog

%%BeginSetup
MathWorks begin

0 cap

end
%%EndSetup

%%Page: 1 1
%%BeginPageSetup
%%PageBoundingBox:    96   238   515   553
MathWorks begin
bpage
%%EndPageSetup

%%BeginObject: obj1
bplot

/dpi2point 12 def
portraitMode 1152 6636 csm

    0     0  5039  3780 rc
85 dict begin %Colortable dictionary
/c0 { 0.000000 0.000000 0.000000 sr} bdef
/c1 { 1.000000 1.000000 1.000000 sr} bdef
/c2 { 0.900000 0.000000 0.000000 sr} bdef
/c3 { 0.000000 0.820000 0.000000 sr} bdef
/c4 { 0.000000 0.000000 0.800000 sr} bdef
/c5 { 0.910000 0.820000 0.320000 sr} bdef
/c6 { 1.000000 0.260000 0.820000 sr} bdef
/c7 { 0.000000 0.820000 0.820000 sr} bdef
c0
1 j
1 sg
   0    0 5040 3781 rf
6 w
0 1703 -1695 -780 0 -1703 4559 2765 4 MP
PP
1695 780 0 1703 -1695 -780 0 -1703 4559 2765 5 MP stroke
1695 780 2210 -599 -1696 -779 2350 3363 4 MP
PP
-2209 598 1695 780 2210 -599 -1696 -779 2350 3363 5 MP stroke
0 1703 2210 -599 0 -1703 654 2584 4 MP
PP
-2210 599 0 1703 2210 -599 0 -1703 654 2584 5 MP stroke
4 w
DO
SO
6 w
0 sg
2350 3363 mt 4559 2765 L
2350 3363 mt  654 2584 L
 654 2584 mt  654  881 L
2350 3363 mt 2402 3387 L
%%IncludeResource: font Helvetica
/Helvetica /WindowsLatin1Encoding 120 FMSR

2433 3513 mt 
(0) s
2902 3214 mt 2954 3238 L
2986 3363 mt 
(1) s
3455 3064 mt 3507 3088 L
3538 3214 mt 
(2) s
4007 2915 mt 4059 2939 L
4090 3064 mt 
(3) s
4559 2765 mt 4611 2789 L
4643 2914 mt 
(4) s
2350 3363 mt 2295 3378 L
2195 3498 mt 
(0) s
1926 3169 mt 1871 3183 L
1771 3304 mt 
(1) s
1502 2974 mt 1447 2989 L
1348 3109 mt 
(2) s
1078 2779 mt 1023 2794 L
 924 2914 mt 
(3) s
 654 2584 mt  599 2599 L
 500 2719 mt 
(4) s
 654 2584 mt  603 2560 L
 338 2589 mt 
(0.03) s
 654 2243 mt  603 2219 L
 271 2249 mt 
(0.035) s
 654 1903 mt  603 1879 L
 338 1908 mt 
(0.04) s
 654 1562 mt  603 1538 L
 271 1568 mt 
(0.045) s
 654 1221 mt  603 1198 L
 338 1227 mt 
(0.05) s
 654  881 mt  603  857 L
 271  887 mt 
(0.055) s
gs 654 282 3906 3082 rc
1 sg
0 0 0 0 4559 2645 3 MP
PP
/c8 { 0.562500 1.000000 0.437500 sr} bdef
c8
4559 2645 mt 4559 2645 L
4559 2645 mt 4559 2645 L
4559 2645 mt 4559 2645 L
1 sg
0 0 -423 -587 4559 2645 3 MP
PP
/c9 { 0.000000 0.000000 0.562500 sr} bdef
c9
4559 2645 mt 4136 2058 L
/c10 { 0.000000 0.812500 1.000000 sr} bdef
c10
4136 2058 mt 4136 2058 L
c8
4136 2058 mt 4559 2645 L
1 sg
0 0 0 0 4559 2645 3 MP
PP
c8
4559 2645 mt 4559 2645 L
4559 2645 mt 4559 2645 L
4559 2645 mt 4559 2645 L
1 sg
0 0 0 0 4559 2645 3 MP
PP
c8
4559 2645 mt 4559 2645 L
c9
4559 2645 mt 4559 2645 L
c8
4559 2645 mt 4559 2645 L
1 sg
0 0 552 -150 4007 2795 3 MP
PP
c8
4007 2795 mt 4559 2645 L
4559 2645 mt 4559 2645 L
1 sg
552 242 0 -392 4007 2795 3 MP
PP
c8
4007 2795 mt 4007 2403 L
4007 2403 mt 4559 2645 L
4559 2645 mt 4007 2795 L
1 sg
0 0 552 242 4007 2403 3 MP
PP
c8
4007 2403 mt 4559 2645 L
4559 2645 mt 4559 2645 L
c9
4559 2645 mt 4007 2403 L
1 sg
552 242 0 0 4007 2403 3 MP
PP
c8
4007 2403 mt 4007 2403 L
c10
4007 2403 mt 4559 2645 L
c9
4559 2645 mt 4007 2403 L
1 sg
0 0 0 0 4559 2645 3 MP
PP
c8
4559 2645 mt 4559 2645 L
4559 2645 mt 4559 2645 L
4559 2645 mt 4559 2645 L
1 sg
0 0 0 0 4559 2645 3 MP
PP
c8
4559 2645 mt 4559 2645 L
4559 2645 mt 4559 2645 L
4559 2645 mt 4559 2645 L
1 sg
0 392 -423 -587 4559 2645 3 MP
PP
c8
4559 2645 mt 4136 2058 L
4136 2058 mt 4136 2450 L
4136 2450 mt 4559 2645 L
1 sg
-423 -195 0 0 4559 2645 3 MP
PP
c8
4559 2645 mt 4559 2645 L
4559 2645 mt 4136 2450 L
1 sg
0 0 0 0 4559 2645 3 MP
PP
c8
4559 2645 mt 4559 2645 L
4559 2645 mt 4559 2645 L
4559 2645 mt 4559 2645 L
1 sg
0 0 0 0 4559 2645 3 MP
PP
c8
4559 2645 mt 4559 2645 L
4559 2645 mt 4559 2645 L
4559 2645 mt 4559 2645 L
1 sg
-423 -587 0 0 4559 2645 3 MP
PP
c9
4559 2645 mt 4559 2645 L
c8
4559 2645 mt 4136 2058 L
4136 2058 mt 4559 2645 L
1 sg
0 0 0 0 4559 2645 3 MP
PP
c8
4559 2645 mt 4559 2645 L
4559 2645 mt 4559 2645 L
4559 2645 mt 4559 2645 L
1 sg
-424 -195 0 392 4136 2058 3 MP
PP
c8
4136 2058 mt 4136 2450 L
4136 2450 mt 3712 2255 L
1 sg
-423 -587 552 242 4007 2403 3 MP
PP
c10
4007 2403 mt 4559 2645 L
c9
4559 2645 mt 4136 2058 L
1 sg
-424 -194 0 538 3712 1717 3 MP
PP
c8
3712 1717 mt 3712 2255 L
3712 2255 mt 3288 2061 L
1 sg
0 393 -424 -49 3712 1717 3 MP
PP
c8
3712 1717 mt 3288 1668 L
3288 1668 mt 3288 2061 L
1 sg
0 538 -424 -341 4136 2058 3 MP
PP
c8
4136 2058 mt 3712 1717 L
3712 1717 mt 3712 2255 L
1 sg
553 314 -424 -659 4007 2403 3 MP
PP
c10
4007 2403 mt 3583 1744 L
/c11 { 1.000000 0.625000 0.000000 sr} bdef
c11
3583 1744 mt 4136 2058 L
1 sg
-424 -341 553 314 3583 1744 3 MP
PP
c11
3583 1744 mt 4136 2058 L
c10
4136 2058 mt 3712 1717 L
1 sg
0 0 -424 -341 4136 2058 3 MP
PP
c10
4136 2058 mt 3712 1717 L
/c12 { 0.312500 1.000000 0.687500 sr} bdef
c12
3712 1717 mt 3712 1717 L
c8
3712 1717 mt 4136 2058 L
1 sg
-424 -341 0 0 4136 2058 3 MP
PP
c10
4136 2058 mt 4136 2058 L
c8
4136 2058 mt 3712 1717 L
3712 1717 mt 4136 2058 L
1 sg
-424 -659 552 -3 3455 2406 3 MP
PP
c12
3455 2406 mt 4007 2403 L
c10
4007 2403 mt 3583 1744 L
1 sg
0 0 552 -3 3455 2406 3 MP
PP
c8
3455 2406 mt 4007 2403 L
4007 2403 mt 4007 2403 L
c10
4007 2403 mt 3455 2406 L
1 sg
552 -3 0 -539 3455 2945 3 MP
PP
c8
3455 2945 mt 3455 2406 L
3455 2406 mt 4007 2403 L
1 sg
552 -3 0 0 3455 2406 3 MP
PP
c8
3455 2406 mt 3455 2406 L
c12
3455 2406 mt 4007 2403 L
c10
4007 2403 mt 3455 2406 L
1 sg
0 -392 552 -150 3455 2945 3 MP
PP
c8
3455 2945 mt 4007 2795 L
4007 2795 mt 4007 2403 L
1 sg
-424 -49 0 0 3712 1717 3 MP
PP
c12
3712 1717 mt 3712 1717 L
c8
3712 1717 mt 3288 1668 L
3288 1668 mt 3712 1717 L
1 sg
0 0 -424 -49 3712 1717 3 MP
PP
c12
3712 1717 mt 3288 1668 L
c10
3288 1668 mt 3288 1668 L
c8
3288 1668 mt 3712 1717 L
1 sg
-424 -49 553 340 3159 1377 3 MP
PP
/c13 { 1.000000 0.062500 0.000000 sr} bdef
c13
3159 1377 mt 3712 1717 L
c12
3712 1717 mt 3288 1668 L
1 sg
553 340 -424 -367 3583 1744 3 MP
PP
c11
3583 1744 mt 3159 1377 L
c13
3159 1377 mt 3712 1717 L
1 sg
0 0 -424 198 3288 1668 3 MP
PP
c8
3288 1668 mt 2864 1866 L
2864 1866 mt 2864 1866 L
1 sg
-424 -195 0 393 3288 1668 3 MP
PP
c8
3288 1668 mt 3288 2061 L
3288 2061 mt 2864 1866 L
2864 1866 mt 3288 1668 L
1 sg
0 0 -424 198 3288 1668 3 MP
PP
c10
3288 1668 mt 2864 1866 L
c9
2864 1866 mt 2864 1866 L
c8
2864 1866 mt 3288 1668 L
1 sg
-424 198 552 314 2736 1354 3 MP
PP
c11
2736 1354 mt 3288 1668 L
c10
3288 1668 mt 2864 1866 L
1 sg
-424 198 0 0 3288 1668 3 MP
PP
c10
3288 1668 mt 3288 1668 L
c8
3288 1668 mt 2864 1866 L
2864 1866 mt 3288 1668 L
1 sg
552 22 -424 -684 3455 2406 3 MP
PP
c12
3455 2406 mt 3031 1722 L
c13
3031 1722 mt 3583 1744 L
1 sg
552 314 -423 -23 3159 1377 3 MP
PP
c13
3159 1377 mt 2736 1354 L
c11
2736 1354 mt 3288 1668 L
1 sg
-424 -367 552 22 3031 1722 3 MP
PP
c13
3031 1722 mt 3583 1744 L
c11
3583 1744 mt 3159 1377 L
1 sg
553 -296 0 -392 2902 3094 3 MP
PP
c8
2902 3094 mt 2902 2702 L
2902 2702 mt 3455 2406 L
1 sg
0 -539 553 -149 2902 3094 3 MP
PP
c8
2902 3094 mt 3455 2945 L
3455 2945 mt 3455 2406 L
1 sg
0 0 553 -296 2902 2702 3 MP
PP
c8
2902 2702 mt 3455 2406 L
3455 2406 mt 3455 2406 L
c12
3455 2406 mt 2902 2702 L
1 sg
-424 -684 553 -296 2902 2702 3 MP
PP
c10
2902 2702 mt 3455 2406 L
c12
3455 2406 mt 3031 1722 L
1 sg
553 -296 0 0 2902 2702 3 MP
PP
c8
2902 2702 mt 2902 2702 L
c10
2902 2702 mt 3455 2406 L
c12
3455 2406 mt 2902 2702 L
1 sg
553 22 -424 -12 2607 1344 3 MP
PP
/c14 { 0.500000 0.000000 0.000000 sr} bdef
c14
2607 1344 mt 2183 1332 L
c13
2183 1332 mt 2736 1354 L
1 sg
-424 269 553 22 2183 1332 3 MP
PP
c13
2183 1332 mt 2736 1354 L
c11
2736 1354 mt 2312 1623 L
1 sg
552 243 -424 269 2736 1354 3 MP
PP
c11
2736 1354 mt 2312 1623 L
c10
2312 1623 mt 2864 1866 L
1 sg
-423 -23 552 33 2607 1344 3 MP
PP
c14
2607 1344 mt 3159 1377 L
c13
3159 1377 mt 2736 1354 L
1 sg
552 33 -424 -378 3031 1722 3 MP
PP
c13
3031 1722 mt 2607 1344 L
c14
2607 1344 mt 3159 1377 L
1 sg
0 0 0 0 2864 1866 3 MP
PP
c8
2864 1866 mt 2864 1866 L
2864 1866 mt 2864 1866 L
2864 1866 mt 2864 1866 L
1 sg
0 0 0 0 2864 1866 3 MP
PP
c8
2864 1866 mt 2864 1866 L
2864 1866 mt 2864 1866 L
2864 1866 mt 2864 1866 L
1 sg
0 0 0 0 2864 1866 3 MP
PP
c8
2864 1866 mt 2864 1866 L
2864 1866 mt 2864 1866 L
2864 1866 mt 2864 1866 L
1 sg
0 0 0 0 2864 1866 3 MP
PP
c8
2864 1866 mt 2864 1866 L
2864 1866 mt 2864 1866 L
2864 1866 mt 2864 1866 L
1 sg
0 0 0 0 2864 1866 3 MP
PP
c8
2864 1866 mt 2864 1866 L
2864 1866 mt 2864 1866 L
2864 1866 mt 2864 1866 L
1 sg
0 0 0 0 2864 1866 3 MP
PP
c9
2864 1866 mt 2864 1866 L
c8
2864 1866 mt 2864 1866 L
2864 1866 mt 2864 1866 L
1 sg
0 0 552 243 2312 1623 3 MP
PP
c10
2312 1623 mt 2864 1866 L
c9
2864 1866 mt 2864 1866 L
c8
2864 1866 mt 2312 1623 L
1 sg
552 243 0 0 2312 1623 3 MP
PP
c10
2312 1623 mt 2312 1623 L
c8
2312 1623 mt 2864 1866 L
2864 1866 mt 2312 1623 L
1 sg
0 0 0 0 2864 1866 3 MP
PP
c9
2864 1866 mt 2864 1866 L
c8
2864 1866 mt 2864 1866 L
2864 1866 mt 2864 1866 L
1 sg
0 0 0 0 2864 1866 3 MP
PP
c8
2864 1866 mt 2864 1866 L
2864 1866 mt 2864 1866 L
2864 1866 mt 2864 1866 L
1 sg
0 0 552 243 2312 1623 3 MP
PP
c8
2312 1623 mt 2864 1866 L
2864 1866 mt 2864 1866 L
1 sg
552 -149 0 392 2312 1623 3 MP
PP
c8
2312 1623 mt 2312 2015 L
2312 2015 mt 2864 1866 L
2864 1866 mt 2312 1623 L
1 sg
553 -322 -424 -658 2902 2702 3 MP
PP
c10
2902 2702 mt 2478 2044 L
c11
2478 2044 mt 3031 1722 L
1 sg
-424 -378 553 -322 2478 2044 3 MP
PP
c11
2478 2044 mt 3031 1722 L
c13
3031 1722 mt 2607 1344 L
1 sg
0 0 552 -542 2350 3244 3 MP
PP
c8
2350 3244 mt 2902 2702 L
2902 2702 mt 2902 2702 L
c10
2902 2702 mt 2350 3244 L
1 sg
552 -542 0 0 2350 3244 3 MP
PP
c8
2350 3244 mt 2350 3244 L
c9
2350 3244 mt 2902 2702 L
c10
2902 2702 mt 2350 3244 L
1 sg
-424 -658 552 -542 2350 3244 3 MP
PP
c9
2350 3244 mt 2902 2702 L
c10
2902 2702 mt 2478 2044 L
1 sg
0 -392 552 -150 2350 3244 3 MP
PP
c8
2350 3244 mt 2902 3094 L
2902 3094 mt 2902 2702 L
2902 2702 mt 2350 3244 L
1 sg
552 -542 0 0 2350 3244 3 MP
PP
c8
2350 3244 mt 2350 3244 L
2350 3244 mt 2902 2702 L
1 sg
553 -4 0 0 1759 1627 3 MP
PP
c12
1759 1627 mt 1759 1627 L
c8
1759 1627 mt 2312 1623 L
2312 1623 mt 1759 1627 L
1 sg
0 392 553 -4 1759 1627 3 MP
PP
c8
1759 1627 mt 2312 1623 L
2312 1623 mt 2312 2015 L
1 sg
0 0 553 -4 1759 1627 3 MP
PP
c12
1759 1627 mt 2312 1623 L
c10
2312 1623 mt 2312 1623 L
c8
2312 1623 mt 1759 1627 L
1 sg
553 -4 -424 295 2183 1332 3 MP
PP
c13
2183 1332 mt 1759 1627 L
c12
1759 1627 mt 2312 1623 L
1 sg
-424 -12 552 -332 2055 1676 3 MP
PP
c13
2055 1676 mt 2607 1344 L
c14
2607 1344 mt 2183 1332 L
1 sg
552 -332 -423 -368 2478 2044 3 MP
PP
c11
2478 2044 mt 2055 1676 L
c13
2055 1676 mt 2607 1344 L
1 sg
553 -150 0 538 1759 1627 3 MP
PP
c8
1759 1627 mt 1759 2165 L
1759 2165 mt 2312 2015 L
1 sg
-423 -368 552 -613 1926 2657 3 MP
PP
c10
1926 2657 mt 2478 2044 L
c11
2478 2044 mt 2055 1676 L
1 sg
552 -613 -424 -587 2350 3244 3 MP
PP
c9
2350 3244 mt 1926 2657 L
c10
1926 2657 mt 2478 2044 L
1 sg
0 0 -424 -587 2350 3244 3 MP
PP
c8
2350 3244 mt 1926 2657 L
1926 2657 mt 1926 2657 L
c10
1926 2657 mt 2350 3244 L
1 sg
0 0 0 0 2350 3244 3 MP
PP
c8
2350 3244 mt 2350 3244 L
2350 3244 mt 2350 3244 L
c9
2350 3244 mt 2350 3244 L
1 sg
0 0 0 0 2350 3244 3 MP
PP
c8
2350 3244 mt 2350 3244 L
2350 3244 mt 2350 3244 L
c9
2350 3244 mt 2350 3244 L
1 sg
0 0 0 0 2350 3244 3 MP
PP
c8
2350 3244 mt 2350 3244 L
2350 3244 mt 2350 3244 L
2350 3244 mt 2350 3244 L
1 sg
-424 -587 0 0 2350 3244 3 MP
PP
c8
2350 3244 mt 2350 3244 L
c9
2350 3244 mt 1926 2657 L
c10
1926 2657 mt 2350 3244 L
1 sg
0 -392 -424 -195 2350 3244 3 MP
PP
c8
2350 3244 mt 1926 3049 L
1926 3049 mt 1926 2657 L
1926 2657 mt 2350 3244 L
1 sg
-424 -587 0 0 2350 3244 3 MP
PP
c8
2350 3244 mt 2350 3244 L
2350 3244 mt 1926 2657 L
1 sg
0 0 0 0 2350 3244 3 MP
PP
c8
2350 3244 mt 2350 3244 L
2350 3244 mt 2350 3244 L
2350 3244 mt 2350 3244 L
1 sg
0 0 0 0 2350 3244 3 MP
PP
c8
2350 3244 mt 2350 3244 L
2350 3244 mt 2350 3244 L
2350 3244 mt 2350 3244 L
1 sg
0 0 0 0 2350 3244 3 MP
PP
c8
2350 3244 mt 2350 3244 L
2350 3244 mt 2350 3244 L
2350 3244 mt 2350 3244 L
1 sg
0 0 0 0 2350 3244 3 MP
PP
c8
2350 3244 mt 2350 3244 L
2350 3244 mt 2350 3244 L
2350 3244 mt 2350 3244 L
1 sg
0 0 0 0 2350 3244 3 MP
PP
c8
2350 3244 mt 2350 3244 L
2350 3244 mt 2350 3244 L
2350 3244 mt 2350 3244 L
1 sg
0 0 552 -295 1207 1922 3 MP
PP
c10
1207 1922 mt 1759 1627 L
c12
1759 1627 mt 1759 1627 L
c8
1759 1627 mt 1207 1922 L
1 sg
552 -295 -424 268 1631 1654 3 MP
PP
c11
1631 1654 mt 1207 1922 L
c10
1207 1922 mt 1759 1627 L
1 sg
0 538 552 -295 1207 1922 3 MP
PP
c8
1207 1922 mt 1759 1627 L
1759 1627 mt 1759 2165 L
1 sg
552 -295 0 0 1207 1922 3 MP
PP
c10
1207 1922 mt 1207 1922 L
c8
1207 1922 mt 1759 1627 L
1759 1627 mt 1207 1922 L
1 sg
-424 295 552 -322 1631 1654 3 MP
PP
c11
1631 1654 mt 2183 1332 L
c13
2183 1332 mt 1759 1627 L
1 sg
552 -322 -424 -22 2055 1676 3 MP
PP
c13
2055 1676 mt 1631 1654 L
c11
1631 1654 mt 2183 1332 L
1 sg
552 -149 0 392 1207 1922 3 MP
PP
c8
1207 1922 mt 1207 2314 L
1207 2314 mt 1759 2165 L
1 sg
-424 -22 553 -640 1502 2316 3 MP
PP
c12
1502 2316 mt 2055 1676 L
c13
2055 1676 mt 1631 1654 L
1 sg
553 -640 -424 -341 1926 2657 3 MP
PP
c10
1926 2657 mt 1502 2316 L
c12
1502 2316 mt 2055 1676 L
1 sg
0 -538 -424 -195 1926 3049 3 MP
PP
c8
1926 3049 mt 1502 2854 L
1502 2854 mt 1502 2316 L
1 sg
-424 -341 0 -392 1926 3049 3 MP
PP
c8
1926 3049 mt 1926 2657 L
1926 2657 mt 1502 2316 L
1 sg
-424 -341 0 0 1926 2657 3 MP
PP
c8
1926 2657 mt 1926 2657 L
c10
1926 2657 mt 1502 2316 L
c12
1502 2316 mt 1926 2657 L
1 sg
0 0 -424 -341 1926 2657 3 MP
PP
c8
1926 2657 mt 1502 2316 L
1502 2316 mt 1502 2316 L
c12
1502 2316 mt 1926 2657 L
1 sg
0 392 553 -542 654 2464 3 MP
PP
c8
 654 2464 mt 1207 1922 L
1207 1922 mt 1207 2314 L
1207 2314 mt  654 2464 L
1 sg
553 -613 -424 -49 1502 2316 3 MP
PP
c12
1502 2316 mt 1078 2267 L
c10
1078 2267 mt 1631 1654 L
1 sg
-424 268 553 -613 1078 2267 3 MP
PP
c10
1078 2267 mt 1631 1654 L
c11
1631 1654 mt 1207 1922 L
1 sg
553 -150 0 0 654 2464 3 MP
PP
c8
 654 2464 mt  654 2464 L
 654 2464 mt 1207 2314 L
1 sg
0 -392 -424 -195 1502 2854 3 MP
PP
c8
1502 2854 mt 1078 2659 L
1078 2659 mt 1078 2267 L
1 sg
0 0 -424 -49 1502 2316 3 MP
PP
c8
1502 2316 mt 1078 2267 L
1078 2267 mt 1078 2267 L
c10
1078 2267 mt 1502 2316 L
1 sg
-424 -49 0 0 1502 2316 3 MP
PP
c8
1502 2316 mt 1502 2316 L
c12
1502 2316 mt 1078 2267 L
c10
1078 2267 mt 1502 2316 L
1 sg
-424 -49 0 -538 1502 2854 3 MP
PP
c8
1502 2854 mt 1502 2316 L
1502 2316 mt 1078 2267 L
1 sg
553 -542 0 0 654 2464 3 MP
PP
c9
 654 2464 mt  654 2464 L
c8
 654 2464 mt 1207 1922 L
1207 1922 mt  654 2464 L
1 sg
553 -542 -424 197 1078 2267 3 MP
PP
c10
1078 2267 mt  654 2464 L
c9
 654 2464 mt 1207 1922 L
1 sg
0 0 553 -542 654 2464 3 MP
PP
c9
 654 2464 mt 1207 1922 L
c10
1207 1922 mt 1207 1922 L
c8
1207 1922 mt  654 2464 L
1 sg
-424 197 0 -392 1078 2659 3 MP
PP
c8
1078 2659 mt 1078 2267 L
1078 2267 mt  654 2464 L
 654 2464 mt 1078 2659 L
1 sg
-424 197 0 0 1078 2267 3 MP
PP
c8
1078 2267 mt 1078 2267 L
c10
1078 2267 mt  654 2464 L
c9
 654 2464 mt 1078 2267 L
1 sg
0 0 -424 197 1078 2267 3 MP
PP
c8
1078 2267 mt  654 2464 L
 654 2464 mt  654 2464 L
c9
 654 2464 mt 1078 2267 L
1 sg
0 0 -424 -195 1078 2659 3 MP
PP
c8
1078 2659 mt  654 2464 L
 654 2464 mt  654 2464 L
1 sg
0 0 0 0 654 2464 3 MP
PP
c8
 654 2464 mt  654 2464 L
 654 2464 mt  654 2464 L
 654 2464 mt  654 2464 L
1 sg
0 0 0 0 654 2464 3 MP
PP
c8
 654 2464 mt  654 2464 L
 654 2464 mt  654 2464 L
 654 2464 mt  654 2464 L
1 sg
0 0 0 0 654 2464 3 MP
PP
c8
 654 2464 mt  654 2464 L
c9
 654 2464 mt  654 2464 L
c8
 654 2464 mt  654 2464 L
1 sg
0 0 0 0 654 2464 3 MP
PP
c8
 654 2464 mt  654 2464 L
 654 2464 mt  654 2464 L
 654 2464 mt  654 2464 L
1 sg
0 0 0 0 654 2464 3 MP
PP
c8
 654 2464 mt  654 2464 L
 654 2464 mt  654 2464 L
 654 2464 mt  654 2464 L
1 sg
0 0 0 0 654 2464 3 MP
PP
c8
 654 2464 mt  654 2464 L
 654 2464 mt  654 2464 L
 654 2464 mt  654 2464 L
1 sg
0 0 0 0 654 2464 3 MP
PP
c8
 654 2464 mt  654 2464 L
 654 2464 mt  654 2464 L
 654 2464 mt  654 2464 L
1 sg
0 0 0 0 654 2464 3 MP
PP
c8
 654 2464 mt  654 2464 L
 654 2464 mt  654 2464 L
 654 2464 mt  654 2464 L
gr

c8

end %%Color Dict

eplot
%%EndObject

epage
end

showpage

%%Trailer
%%EOF
