%!PS-Adobe-3.0 EPSF-3.0
%%Creator: MATLAB, The MathWorks, Inc. Version 7.11.0.584 (R2010b). Operating System: Microsoft Windows 7.
%%Title: D:\Dropbox\document\work\ELE747\Cours\cours3\content\matlab\mesh_gauss_9_1.eps
%%CreationDate: 01/17/2011  13:34:40
%%DocumentNeededFonts: Helvetica
%%DocumentProcessColors: Cyan Magenta Yellow Black
%%LanguageLevel: 2
%%Pages: 1
%%BoundingBox:    96   238   515   553
%%EndComments

%%BeginProlog
% MathWorks dictionary
/MathWorks 160 dict begin
% definition operators
/bdef {bind def} bind def
/ldef {load def} bind def
/xdef {exch def} bdef
/xstore {exch store} bdef
% operator abbreviations
/c  /clip ldef
/cc /concat ldef
/cp /closepath ldef
/gr /grestore ldef
/gs /gsave ldef
/mt /moveto ldef
/np /newpath ldef
/cm /currentmatrix ldef
/sm /setmatrix ldef
/rm /rmoveto ldef
/rl /rlineto ldef
/s {show newpath} bdef
/sc {setcmykcolor} bdef
/sr /setrgbcolor ldef
/sg /setgray ldef
/w /setlinewidth ldef
/j /setlinejoin ldef
/cap /setlinecap ldef
/rc {rectclip} bdef
/rf {rectfill} bdef
% page state control
/pgsv () def
/bpage {/pgsv save def} bdef
/epage {pgsv restore} bdef
/bplot /gsave ldef
/eplot {stroke grestore} bdef
% orientation switch
/portraitMode 0 def /landscapeMode 1 def /rotateMode 2 def
% coordinate system mappings
/dpi2point 0 def
% font control
/FontSize 0 def
/FMS {/FontSize xstore findfont [FontSize 0 0 FontSize neg 0 0]
  makefont setfont} bdef
/ISOLatin1Encoding where {pop /WindowsLatin1Encoding 256 array bdef
ISOLatin1Encoding WindowsLatin1Encoding copy pop
/.notdef/.notdef/quotesinglbase/florin/quotedblbase/ellipsis/dagger
/daggerdbl/circumflex/perthousand/Scaron/guilsinglleft/OE/.notdef/.notdef
/.notdef/.notdef/quoteleft/quoteright/quotedblleft/quotedblright/bullet
/endash/emdash/tilde/trademark/scaron/guilsinglright/oe/.notdef/.notdef
/Ydieresis WindowsLatin1Encoding 128 32 getinterval astore pop}
{/WindowsLatin1Encoding StandardEncoding bdef} ifelse
/reencode {exch dup where {pop load} {pop StandardEncoding} ifelse
  exch dup 3 1 roll findfont dup length dict begin
  { 1 index /FID ne {def}{pop pop} ifelse } forall
  /Encoding exch def currentdict end definefont pop} bdef
/isroman {findfont /CharStrings get /Agrave known} bdef
/FMSR {3 1 roll 1 index dup isroman {reencode} {pop pop} ifelse
  exch FMS} bdef
/csm {1 dpi2point div -1 dpi2point div scale neg translate
 dup landscapeMode eq {pop -90 rotate}
  {rotateMode eq {90 rotate} if} ifelse} bdef
% line types: solid, dotted, dashed, dotdash
/SO { [] 0 setdash } bdef
/DO { [.5 dpi2point mul 4 dpi2point mul] 0 setdash } bdef
/DA { [6 dpi2point mul] 0 setdash } bdef
/DD { [.5 dpi2point mul 4 dpi2point mul 6 dpi2point mul 4
  dpi2point mul] 0 setdash } bdef
% macros for lines and objects
/L {lineto stroke} bdef
/MP {3 1 roll moveto 1 sub {rlineto} repeat} bdef
/AP {{rlineto} repeat} bdef
/PDlw -1 def
/W {/PDlw currentlinewidth def setlinewidth} def
/PP {closepath eofill} bdef
/DP {closepath stroke} bdef
/MR {4 -2 roll moveto dup  0 exch rlineto exch 0 rlineto
  neg 0 exch rlineto closepath} bdef
/FR {MR stroke} bdef
/PR {MR fill} bdef
/L1i {{currentfile picstr readhexstring pop} image} bdef
/tMatrix matrix def
/MakeOval {newpath tMatrix currentmatrix pop translate scale
0 0 1 0 360 arc tMatrix setmatrix} bdef
/FO {MakeOval stroke} bdef
/PO {MakeOval fill} bdef
/PD {currentlinewidth 2 div 0 360 arc fill
   PDlw -1 eq not {PDlw w /PDlw -1 def} if} def
/FA {newpath tMatrix currentmatrix pop translate scale
  0 0 1 5 -2 roll arc tMatrix setmatrix stroke} bdef
/PA {newpath tMatrix currentmatrix pop	translate 0 0 moveto scale
  0 0 1 5 -2 roll arc closepath tMatrix setmatrix fill} bdef
/FAn {newpath tMatrix currentmatrix pop translate scale
  0 0 1 5 -2 roll arcn tMatrix setmatrix stroke} bdef
/PAn {newpath tMatrix currentmatrix pop translate 0 0 moveto scale
  0 0 1 5 -2 roll arcn closepath tMatrix setmatrix fill} bdef
/vradius 0 def /hradius 0 def /lry 0 def
/lrx 0 def /uly 0 def /ulx 0 def /rad 0 def
/MRR {/vradius xdef /hradius xdef /lry xdef /lrx xdef /uly xdef
  /ulx xdef newpath tMatrix currentmatrix pop ulx hradius add uly
  vradius add translate hradius vradius scale 0 0 1 180 270 arc 
  tMatrix setmatrix lrx hradius sub uly vradius add translate
  hradius vradius scale 0 0 1 270 360 arc tMatrix setmatrix
  lrx hradius sub lry vradius sub translate hradius vradius scale
  0 0 1 0 90 arc tMatrix setmatrix ulx hradius add lry vradius sub
  translate hradius vradius scale 0 0 1 90 180 arc tMatrix setmatrix
  closepath} bdef
/FRR {MRR stroke } bdef
/PRR {MRR fill } bdef
/MlrRR {/lry xdef /lrx xdef /uly xdef /ulx xdef /rad lry uly sub 2 div def
  newpath tMatrix currentmatrix pop ulx rad add uly rad add translate
  rad rad scale 0 0 1 90 270 arc tMatrix setmatrix lrx rad sub lry rad
  sub translate rad rad scale 0 0 1 270 90 arc tMatrix setmatrix
  closepath} bdef
/FlrRR {MlrRR stroke } bdef
/PlrRR {MlrRR fill } bdef
/MtbRR {/lry xdef /lrx xdef /uly xdef /ulx xdef /rad lrx ulx sub 2 div def
  newpath tMatrix currentmatrix pop ulx rad add uly rad add translate
  rad rad scale 0 0 1 180 360 arc tMatrix setmatrix lrx rad sub lry rad
  sub translate rad rad scale 0 0 1 0 180 arc tMatrix setmatrix
  closepath} bdef
/FtbRR {MtbRR stroke } bdef
/PtbRR {MtbRR fill } bdef
/stri 6 array def /dtri 6 array def
/smat 6 array def /dmat 6 array def
/tmat1 6 array def /tmat2 6 array def /dif 3 array def
/asub {/ind2 exch def /ind1 exch def dup dup
  ind1 get exch ind2 get sub exch } bdef
/tri_to_matrix {
  2 0 asub 3 1 asub 4 0 asub 5 1 asub
  dup 0 get exch 1 get 7 -1 roll astore } bdef
/compute_transform {
  dmat dtri tri_to_matrix tmat1 invertmatrix 
  smat stri tri_to_matrix tmat2 concatmatrix } bdef
/ds {stri astore pop} bdef
/dt {dtri astore pop} bdef
/db {2 copy /cols xdef /rows xdef mul dup 3 mul string
  currentfile 
  3 index 0 eq {/ASCIIHexDecode filter}
  {/ASCII85Decode filter 3 index 2 eq {/RunLengthDecode filter} if }
  ifelse exch readstring pop
  dup 0 3 index getinterval /rbmap xdef
  dup 2 index dup getinterval /gbmap xdef
  1 index dup 2 mul exch getinterval /bbmap xdef pop pop}bdef
/it {gs np dtri aload pop moveto lineto lineto cp c
  cols rows 8 compute_transform 
  rbmap gbmap bbmap true 3 colorimage gr}bdef
/il {newpath moveto lineto stroke}bdef
currentdict end def
%%EndProlog

%%BeginSetup
MathWorks begin

0 cap

end
%%EndSetup

%%Page: 1 1
%%BeginPageSetup
%%PageBoundingBox:    96   238   515   553
MathWorks begin
bpage
%%EndPageSetup

%%BeginObject: obj1
bplot

/dpi2point 12 def
portraitMode 1152 6636 csm

    0     0  5039  3780 rc
85 dict begin %Colortable dictionary
/c0 { 0.000000 0.000000 0.000000 sr} bdef
/c1 { 1.000000 1.000000 1.000000 sr} bdef
/c2 { 0.900000 0.000000 0.000000 sr} bdef
/c3 { 0.000000 0.820000 0.000000 sr} bdef
/c4 { 0.000000 0.000000 0.800000 sr} bdef
/c5 { 0.910000 0.820000 0.320000 sr} bdef
/c6 { 1.000000 0.260000 0.820000 sr} bdef
/c7 { 0.000000 0.820000 0.820000 sr} bdef
c0
1 j
1 sg
   0    0 5040 3781 rf
6 w
0 1703 -1696 -780 0 -1703 4560 2765 4 MP
PP
1696 780 0 1703 -1696 -780 0 -1703 4560 2765 5 MP stroke
1696 780 2209 -599 -1695 -779 2350 3363 4 MP
PP
-2210 598 1696 780 2209 -599 -1695 -779 2350 3363 5 MP stroke
0 1703 2209 -599 0 -1703 655 2584 4 MP
PP
-2209 599 0 1703 2209 -599 0 -1703 655 2584 5 MP stroke
4 w
DO
SO
6 w
0 sg
2350 3363 mt 4560 2765 L
2350 3363 mt  655 2584 L
 655 2584 mt  655  881 L
2350 3363 mt 2402 3387 L
%%IncludeResource: font Helvetica
/Helvetica /WindowsLatin1Encoding 120 FMSR

2433 3513 mt 
(0) s
2902 3214 mt 2954 3238 L
2986 3363 mt 
(2) s
3455 3064 mt 3507 3088 L
3538 3214 mt 
(4) s
4007 2915 mt 4059 2939 L
4091 3064 mt 
(6) s
4560 2765 mt 4612 2789 L
4643 2914 mt 
(8) s
2350 3363 mt 2295 3378 L
2195 3498 mt 
(0) s
1926 3169 mt 1871 3183 L
1771 3304 mt 
(2) s
1502 2974 mt 1447 2989 L
1348 3109 mt 
(4) s
1078 2779 mt 1023 2794 L
 924 2914 mt 
(6) s
 655 2584 mt  599 2599 L
 500 2719 mt 
(8) s
 655 2584 mt  602 2560 L
 505 2589 mt 
(0) s
 655 2158 mt  602 2134 L
 338 2164 mt 
(0.05) s
 655 1732 mt  602 1708 L
 405 1738 mt 
(0.1) s
 655 1307 mt  602 1283 L
 338 1312 mt 
(0.15) s
 655  881 mt  602  857 L
 405  887 mt 
(0.2) s
gs 655 282 3906 3082 rc
1 sg
277 -75 0 0 4283 2840 3 MP
PP
/c8 { 0.562500 1.000000 0.437500 sr} bdef
c8
4283 2840 mt 4283 2840 L
/c9 { 0.000000 0.000000 0.562500 sr} bdef
c9
4283 2840 mt 4560 2765 L
4560 2765 mt 4283 2840 L
1 sg
0 0 0 0 4560 2765 3 MP
PP
c8
4560 2765 mt 4560 2765 L
4560 2765 mt 4560 2765 L
4560 2765 mt 4560 2765 L
1 sg
0 0 0 0 4560 2765 3 MP
PP
c8
4560 2765 mt 4560 2765 L
4560 2765 mt 4560 2765 L
4560 2765 mt 4560 2765 L
1 sg
0 0 -212 -97 4560 2765 3 MP
PP
c8
4560 2765 mt 4348 2668 L
4348 2668 mt 4348 2668 L
4348 2668 mt 4560 2765 L
1 sg
0 0 277 -75 4283 2840 3 MP
PP
c8
4283 2840 mt 4560 2765 L
4560 2765 mt 4560 2765 L
4560 2765 mt 4283 2840 L
1 sg
277 -75 0 0 4283 2840 3 MP
PP
c8
4283 2840 mt 4283 2840 L
4283 2840 mt 4560 2765 L
4560 2765 mt 4283 2840 L
1 sg
-212 -97 0 0 4560 2765 3 MP
PP
c8
4560 2765 mt 4560 2765 L
4560 2765 mt 4348 2668 L
4348 2668 mt 4560 2765 L
1 sg
-212 -97 277 -75 4283 2840 3 MP
PP
c9
4283 2840 mt 4560 2765 L
4560 2765 mt 4348 2668 L
1 sg
0 0 0 0 4560 2765 3 MP
PP
c8
4560 2765 mt 4560 2765 L
c9
4560 2765 mt 4560 2765 L
c8
4560 2765 mt 4560 2765 L
1 sg
0 0 0 0 4560 2765 3 MP
PP
c8
4560 2765 mt 4560 2765 L
4560 2765 mt 4560 2765 L
4560 2765 mt 4560 2765 L
1 sg
0 0 0 0 4560 2765 3 MP
PP
c8
4560 2765 mt 4560 2765 L
4560 2765 mt 4560 2765 L
4560 2765 mt 4560 2765 L
1 sg
0 0 0 0 4560 2765 3 MP
PP
c8
4560 2765 mt 4560 2765 L
4560 2765 mt 4560 2765 L
4560 2765 mt 4560 2765 L
1 sg
-212 -97 0 0 4560 2765 3 MP
PP
c9
4560 2765 mt 4560 2765 L
c8
4560 2765 mt 4348 2668 L
4348 2668 mt 4560 2765 L
1 sg
0 0 -212 -97 4560 2765 3 MP
PP
c9
4560 2765 mt 4348 2668 L
4348 2668 mt 4348 2668 L
c8
4348 2668 mt 4560 2765 L
1 sg
0 0 0 0 4560 2765 3 MP
PP
c8
4560 2765 mt 4560 2765 L
4560 2765 mt 4560 2765 L
4560 2765 mt 4560 2765 L
1 sg
0 0 0 0 4560 2765 3 MP
PP
c8
4560 2765 mt 4560 2765 L
4560 2765 mt 4560 2765 L
4560 2765 mt 4560 2765 L
1 sg
0 0 277 -75 4283 2840 3 MP
PP
c8
4283 2840 mt 4560 2765 L
4560 2765 mt 4560 2765 L
c9
4560 2765 mt 4283 2840 L
1 sg
0 0 -212 -98 4348 2668 3 MP
PP
c8
4348 2668 mt 4136 2570 L
4136 2570 mt 4136 2570 L
4136 2570 mt 4348 2668 L
1 sg
0 0 -212 -98 4348 2668 3 MP
PP
c9
4348 2668 mt 4136 2570 L
4136 2570 mt 4136 2570 L
c8
4136 2570 mt 4348 2668 L
1 sg
-212 -98 0 0 4348 2668 3 MP
PP
c9
4348 2668 mt 4348 2668 L
c8
4348 2668 mt 4136 2570 L
4136 2570 mt 4348 2668 L
1 sg
277 -74 -212 -98 4283 2840 3 MP
PP
c9
4283 2840 mt 4071 2742 L
4071 2742 mt 4348 2668 L
1 sg
-212 -98 0 0 4348 2668 3 MP
PP
c8
4348 2668 mt 4348 2668 L
4348 2668 mt 4136 2570 L
4136 2570 mt 4348 2668 L
1 sg
-212 -98 277 -74 4071 2742 3 MP
PP
c9
4071 2742 mt 4348 2668 L
4348 2668 mt 4136 2570 L
1 sg
-212 -98 276 -75 4007 2915 3 MP
PP
c9
4007 2915 mt 4283 2840 L
4283 2840 mt 4071 2742 L
1 sg
0 0 276 -75 4007 2915 3 MP
PP
c8
4007 2915 mt 4283 2840 L
4283 2840 mt 4283 2840 L
4283 2840 mt 4007 2915 L
1 sg
276 -75 0 0 4007 2915 3 MP
PP
c8
4007 2915 mt 4007 2915 L
4007 2915 mt 4283 2840 L
4283 2840 mt 4007 2915 L
1 sg
0 0 276 -75 4007 2915 3 MP
PP
c8
4007 2915 mt 4283 2840 L
4283 2840 mt 4283 2840 L
c9
4283 2840 mt 4007 2915 L
1 sg
276 -75 0 0 4007 2915 3 MP
PP
c8
4007 2915 mt 4007 2915 L
c9
4007 2915 mt 4283 2840 L
4283 2840 mt 4007 2915 L
1 sg
277 -73 -212 -99 4071 2742 3 MP
PP
c9
4071 2742 mt 3859 2643 L
3859 2643 mt 4136 2570 L
1 sg
0 0 -212 -98 4136 2570 3 MP
PP
c9
4136 2570 mt 3924 2472 L
3924 2472 mt 3924 2472 L
c8
3924 2472 mt 4136 2570 L
1 sg
-212 -98 0 1 3924 2472 3 MP
PP
c8
3924 2472 mt 3924 2473 L
3924 2473 mt 3712 2375 L
3712 2375 mt 3924 2472 L
1 sg
0 1 -212 -98 4136 2570 3 MP
PP
c8
4136 2570 mt 3924 2472 L
3924 2472 mt 3924 2473 L
3924 2473 mt 4136 2570 L
1 sg
-212 -97 0 0 4136 2570 3 MP
PP
c8
4136 2570 mt 4136 2570 L
4136 2570 mt 3924 2473 L
1 sg
-212 -98 277 -73 3859 2643 3 MP
PP
c9
3859 2643 mt 4136 2570 L
4136 2570 mt 3924 2472 L
1 sg
-212 -98 0 0 4136 2570 3 MP
PP
c9
4136 2570 mt 4136 2570 L
c8
4136 2570 mt 3924 2472 L
3924 2472 mt 4136 2570 L
1 sg
276 -73 -212 -100 4007 2915 3 MP
PP
c9
4007 2915 mt 3795 2815 L
3795 2815 mt 4071 2742 L
1 sg
-212 -99 276 -73 3795 2815 3 MP
PP
c9
3795 2815 mt 4071 2742 L
4071 2742 mt 3859 2643 L
1 sg
0 0 276 -74 3731 2989 3 MP
PP
c8
3731 2989 mt 4007 2915 L
4007 2915 mt 4007 2915 L
4007 2915 mt 3731 2989 L
1 sg
-212 -100 276 -74 3731 2989 3 MP
PP
c9
3731 2989 mt 4007 2915 L
4007 2915 mt 3795 2815 L
1 sg
276 -74 0 0 3731 2989 3 MP
PP
c8
3731 2989 mt 3731 2989 L
3731 2989 mt 4007 2915 L
4007 2915 mt 3731 2989 L
1 sg
0 0 276 -74 3731 2989 3 MP
PP
c8
3731 2989 mt 4007 2915 L
4007 2915 mt 4007 2915 L
c9
4007 2915 mt 3731 2989 L
1 sg
276 -74 0 0 3731 2989 3 MP
PP
c8
3731 2989 mt 3731 2989 L
c9
3731 2989 mt 4007 2915 L
4007 2915 mt 3731 2989 L
1 sg
0 0 -212 -97 3924 2472 3 MP
PP
c8
3924 2472 mt 3712 2375 L
3712 2375 mt 3712 2375 L
1 sg
0 0 -212 -97 3924 2472 3 MP
PP
c9
3924 2472 mt 3712 2375 L
3712 2375 mt 3712 2375 L
c8
3712 2375 mt 3924 2472 L
1 sg
276 -66 -211 -105 3859 2643 3 MP
PP
c9
3859 2643 mt 3648 2538 L
3648 2538 mt 3924 2472 L
1 sg
-212 -97 0 0 3924 2472 3 MP
PP
c9
3924 2472 mt 3924 2472 L
c8
3924 2472 mt 3712 2375 L
3712 2375 mt 3924 2472 L
1 sg
-212 -97 276 -66 3648 2538 3 MP
PP
c9
3648 2538 mt 3924 2472 L
3924 2472 mt 3712 2375 L
1 sg
276 -52 -212 -120 3795 2815 3 MP
PP
c9
3795 2815 mt 3583 2695 L
/c10 { 0.000000 0.000000 0.625000 sr} bdef
c10
3583 2695 mt 3859 2643 L
1 sg
-211 -105 276 -52 3583 2695 3 MP
PP
c10
3583 2695 mt 3859 2643 L
c9
3859 2643 mt 3648 2538 L
1 sg
-212 -120 276 -68 3519 2883 3 MP
PP
c9
3519 2883 mt 3795 2815 L
3795 2815 mt 3583 2695 L
1 sg
276 -68 -212 -106 3731 2989 3 MP
PP
c9
3731 2989 mt 3519 2883 L
3519 2883 mt 3795 2815 L
1 sg
276 -75 0 0 3455 3064 3 MP
PP
c8
3455 3064 mt 3455 3064 L
3455 3064 mt 3731 2989 L
3731 2989 mt 3455 3064 L
1 sg
-212 -106 276 -75 3455 3064 3 MP
PP
c9
3455 3064 mt 3731 2989 L
3731 2989 mt 3519 2883 L
1 sg
0 0 276 -75 3455 3064 3 MP
PP
c8
3455 3064 mt 3731 2989 L
3731 2989 mt 3731 2989 L
3731 2989 mt 3455 3064 L
1 sg
0 0 276 -75 3455 3064 3 MP
PP
c8
3455 3064 mt 3731 2989 L
3731 2989 mt 3731 2989 L
c9
3731 2989 mt 3455 3064 L
1 sg
276 -75 0 0 3455 3064 3 MP
PP
c8
3455 3064 mt 3455 3064 L
c9
3455 3064 mt 3731 2989 L
3731 2989 mt 3455 3064 L
1 sg
0 1 -212 -98 3712 2375 3 MP
PP
c8
3712 2375 mt 3500 2277 L
3500 2277 mt 3500 2278 L
3500 2278 mt 3712 2375 L
1 sg
-212 -97 0 0 3712 2375 3 MP
PP
c8
3712 2375 mt 3712 2375 L
3712 2375 mt 3500 2278 L
1 sg
0 0 -212 -98 3712 2375 3 MP
PP
c9
3712 2375 mt 3500 2277 L
3500 2277 mt 3500 2277 L
c8
3500 2277 mt 3712 2375 L
1 sg
-212 -98 0 1 3500 2277 3 MP
PP
c8
3500 2277 mt 3500 2278 L
3500 2278 mt 3288 2180 L
3288 2180 mt 3500 2277 L
1 sg
-212 -98 276 -60 3436 2435 3 MP
PP
c9
3436 2435 mt 3712 2375 L
3712 2375 mt 3500 2277 L
1 sg
276 -60 -212 -103 3648 2538 3 MP
PP
c9
3648 2538 mt 3436 2435 L
3436 2435 mt 3712 2375 L
1 sg
-212 -98 0 0 3712 2375 3 MP
PP
c9
3712 2375 mt 3712 2375 L
c8
3712 2375 mt 3500 2277 L
3500 2277 mt 3712 2375 L
1 sg
277 27 -212 -184 3583 2695 3 MP
PP
c10
3583 2695 mt 3371 2511 L
/c11 { 0.000000 0.000000 0.875000 sr} bdef
c11
3371 2511 mt 3648 2538 L
1 sg
-212 -103 277 27 3371 2511 3 MP
PP
c11
3371 2511 mt 3648 2538 L
c9
3648 2538 mt 3436 2435 L
1 sg
-212 -184 276 12 3307 2683 3 MP
PP
c11
3307 2683 mt 3583 2695 L
c10
3583 2695 mt 3371 2511 L
1 sg
276 12 -212 -200 3519 2883 3 MP
PP
c9
3519 2883 mt 3307 2683 L
c11
3307 2683 mt 3583 2695 L
1 sg
276 -69 -212 -112 3455 3064 3 MP
PP
c9
3455 3064 mt 3243 2952 L
3243 2952 mt 3519 2883 L
1 sg
-212 -200 276 -69 3243 2952 3 MP
PP
c9
3243 2952 mt 3519 2883 L
3519 2883 mt 3307 2683 L
1 sg
276 -66 -212 -92 3436 2435 3 MP
PP
c9
3436 2435 mt 3224 2343 L
3224 2343 mt 3500 2277 L
1 sg
-212 -97 0 0 3500 2277 3 MP
PP
c9
3500 2277 mt 3500 2277 L
c8
3500 2277 mt 3288 2180 L
3288 2180 mt 3500 2277 L
1 sg
0 0 -212 -97 3500 2277 3 MP
PP
c9
3500 2277 mt 3288 2180 L
3288 2180 mt 3288 2180 L
c8
3288 2180 mt 3500 2277 L
1 sg
0 0 -212 -97 3500 2277 3 MP
PP
c8
3500 2277 mt 3288 2180 L
3288 2180 mt 3288 2180 L
1 sg
-212 -97 276 -66 3224 2343 3 MP
PP
c9
3224 2343 mt 3500 2277 L
3500 2277 mt 3288 2180 L
1 sg
0 0 276 -75 3179 3139 3 MP
PP
c8
3179 3139 mt 3455 3064 L
3455 3064 mt 3455 3064 L
3455 3064 mt 3179 3139 L
1 sg
276 -75 0 0 3179 3139 3 MP
PP
c8
3179 3139 mt 3179 3139 L
3179 3139 mt 3455 3064 L
3455 3064 mt 3179 3139 L
1 sg
-212 -112 276 -75 3179 3139 3 MP
PP
c9
3179 3139 mt 3455 3064 L
3455 3064 mt 3243 2952 L
1 sg
0 0 276 -75 3179 3139 3 MP
PP
c8
3179 3139 mt 3455 3064 L
3455 3064 mt 3455 3064 L
c9
3455 3064 mt 3179 3139 L
1 sg
276 -75 0 0 3179 3139 3 MP
PP
c8
3179 3139 mt 3179 3139 L
c9
3179 3139 mt 3455 3064 L
3455 3064 mt 3179 3139 L
1 sg
-212 -92 277 94 3159 2341 3 MP
PP
/c12 { 0.000000 0.062500 1.000000 sr} bdef
c12
3159 2341 mt 3436 2435 L
c9
3436 2435 mt 3224 2343 L
1 sg
277 94 -212 -170 3371 2511 3 MP
PP
c11
3371 2511 mt 3159 2341 L
c12
3159 2341 mt 3436 2435 L
1 sg
276 -52 -211 -11 2947 2316 3 MP
PP
c11
2947 2316 mt 2736 2305 L
c10
2736 2305 mt 3012 2253 L
1 sg
-212 -96 276 -52 2736 2305 3 MP
PP
c10
2736 2305 mt 3012 2253 L
c9
3012 2253 mt 2800 2157 L
1 sg
-212 -98 0 0 3076 2083 3 MP
PP
c8
3076 2083 mt 3076 2083 L
3076 2083 mt 2864 1985 L
2864 1985 mt 3076 2083 L
1 sg
0 0 -212 -98 3076 2083 3 MP
PP
c8
3076 2083 mt 2864 1985 L
2864 1985 mt 2864 1985 L
2864 1985 mt 3076 2083 L
1 sg
-212 -98 276 -74 2800 2157 3 MP
PP
c9
2800 2157 mt 3076 2083 L
3076 2083 mt 2864 1985 L
1 sg
276 -74 -212 -96 3012 2253 3 MP
PP
c9
3012 2253 mt 2800 2157 L
2800 2157 mt 3076 2083 L
1 sg
-212 -98 0 0 3076 2083 3 MP
PP
c9
3076 2083 mt 3076 2083 L
c8
3076 2083 mt 2864 1985 L
2864 1985 mt 3076 2083 L
1 sg
0 0 -212 -98 3076 2083 3 MP
PP
c9
3076 2083 mt 2864 1985 L
2864 1985 mt 2864 1985 L
c8
2864 1985 mt 3076 2083 L
1 sg
-212 -90 277 27 2947 2316 3 MP
PP
c11
2947 2316 mt 3224 2343 L
c9
3224 2343 mt 3012 2253 L
1 sg
277 27 -212 -25 3159 2341 3 MP
PP
c12
3159 2341 mt 2947 2316 L
c11
2947 2316 mt 3224 2343 L
1 sg
0 0 -212 -97 3288 2180 3 MP
PP
c8
3288 2180 mt 3076 2083 L
3076 2083 mt 3076 2083 L
3076 2083 mt 3288 2180 L
1 sg
-212 -97 0 0 3288 2180 3 MP
PP
c8
3288 2180 mt 3288 2180 L
3288 2180 mt 3076 2083 L
3076 2083 mt 3288 2180 L
1 sg
-212 -97 276 -73 3012 2253 3 MP
PP
c9
3012 2253 mt 3288 2180 L
3288 2180 mt 3076 2083 L
1 sg
276 -73 -212 -90 3224 2343 3 MP
PP
c9
3224 2343 mt 3012 2253 L
3012 2253 mt 3288 2180 L
1 sg
-212 -25 276 563 2883 1778 3 MP
PP
/c13 { 0.937500 1.000000 0.062500 sr} bdef
c13
2883 1778 mt 3159 2341 L
c12
3159 2341 mt 2947 2316 L
1 sg
276 563 -212 -421 3095 2199 3 MP
PP
/c14 { 0.000000 1.000000 1.000000 sr} bdef
c14
3095 2199 mt 2883 1778 L
c13
2883 1778 mt 3159 2341 L
1 sg
-212 -170 276 312 3095 2199 3 MP
PP
c14
3095 2199 mt 3371 2511 L
c11
3371 2511 mt 3159 2341 L
1 sg
276 312 -212 -484 3307 2683 3 MP
PP
c11
3307 2683 mt 3095 2199 L
c14
3095 2199 mt 3371 2511 L
1 sg
276 -3 -212 -266 3243 2952 3 MP
PP
c9
3243 2952 mt 3031 2686 L
c12
3031 2686 mt 3307 2683 L
1 sg
-212 -484 276 -3 3031 2686 3 MP
PP
c12
3031 2686 mt 3307 2683 L
c11
3307 2683 mt 3095 2199 L
1 sg
0 0 -212 -97 3288 2180 3 MP
PP
c9
3288 2180 mt 3076 2083 L
3076 2083 mt 3076 2083 L
c8
3076 2083 mt 3288 2180 L
1 sg
-212 -97 0 0 3288 2180 3 MP
PP
c9
3288 2180 mt 3288 2180 L
c8
3288 2180 mt 3076 2083 L
3076 2083 mt 3288 2180 L
1 sg
276 -80 -212 -107 3179 3139 3 MP
PP
c9
3179 3139 mt 2967 3032 L
2967 3032 mt 3243 2952 L
1 sg
-212 -266 276 -80 2967 3032 3 MP
PP
c9
2967 3032 mt 3243 2952 L
3243 2952 mt 3031 2686 L
1 sg
0 0 277 -75 2902 3214 3 MP
PP
c8
2902 3214 mt 3179 3139 L
3179 3139 mt 3179 3139 L
3179 3139 mt 2902 3214 L
1 sg
277 -75 0 0 2902 3214 3 MP
PP
c8
2902 3214 mt 2902 3214 L
2902 3214 mt 3179 3139 L
3179 3139 mt 2902 3214 L
1 sg
-212 -107 277 -75 2902 3214 3 MP
PP
c9
2902 3214 mt 3179 3139 L
3179 3139 mt 2967 3032 L
1 sg
277 -75 0 0 2902 3214 3 MP
PP
c8
2902 3214 mt 2902 3214 L
c9
2902 3214 mt 3179 3139 L
3179 3139 mt 2902 3214 L
1 sg
0 0 277 -75 2902 3214 3 MP
PP
c8
2902 3214 mt 3179 3139 L
3179 3139 mt 3179 3139 L
c9
3179 3139 mt 2902 3214 L
1 sg
0 0 0 0 2864 1985 3 MP
PP
c8
2864 1985 mt 2864 1985 L
2864 1985 mt 2864 1985 L
2864 1985 mt 2864 1985 L
1 sg
0 0 0 0 2864 1985 3 MP
PP
c8
2864 1985 mt 2864 1985 L
2864 1985 mt 2864 1985 L
2864 1985 mt 2864 1985 L
1 sg
0 0 0 0 2864 1985 3 MP
PP
c8
2864 1985 mt 2864 1985 L
2864 1985 mt 2864 1985 L
2864 1985 mt 2864 1985 L
1 sg
0 0 0 0 2864 1985 3 MP
PP
c8
2864 1985 mt 2864 1985 L
2864 1985 mt 2864 1985 L
2864 1985 mt 2864 1985 L
1 sg
0 0 0 0 2864 1985 3 MP
PP
c8
2864 1985 mt 2864 1985 L
2864 1985 mt 2864 1985 L
2864 1985 mt 2864 1985 L
1 sg
0 0 0 0 2864 1985 3 MP
PP
c8
2864 1985 mt 2864 1985 L
2864 1985 mt 2864 1985 L
2864 1985 mt 2864 1985 L
1 sg
0 0 0 0 2864 1985 3 MP
PP
c9
2864 1985 mt 2864 1985 L
c8
2864 1985 mt 2864 1985 L
2864 1985 mt 2864 1985 L
1 sg
276 -75 0 0 2588 2060 3 MP
PP
c8
2588 2060 mt 2588 2060 L
2588 2060 mt 2864 1985 L
2864 1985 mt 2588 2060 L
1 sg
276 -75 -212 -97 2800 2157 3 MP
PP
c9
2800 2157 mt 2588 2060 L
2588 2060 mt 2864 1985 L
1 sg
0 0 276 -75 2588 2060 3 MP
PP
c9
2588 2060 mt 2864 1985 L
2864 1985 mt 2864 1985 L
c8
2864 1985 mt 2588 2060 L
1 sg
0 0 276 -75 2588 2060 3 MP
PP
c8
2588 2060 mt 2864 1985 L
2864 1985 mt 2864 1985 L
2864 1985 mt 2588 2060 L
1 sg
0 0 0 0 2864 1985 3 MP
PP
c9
2864 1985 mt 2864 1985 L
c8
2864 1985 mt 2864 1985 L
2864 1985 mt 2864 1985 L
1 sg
276 -75 0 0 2588 2060 3 MP
PP
c9
2588 2060 mt 2588 2060 L
c8
2588 2060 mt 2864 1985 L
2864 1985 mt 2588 2060 L
1 sg
276 312 -212 226 2883 1778 3 MP
PP
c13
2883 1778 mt 2671 2004 L
c14
2671 2004 mt 2947 2316 L
1 sg
-212 -421 276 249 2819 1950 3 MP
PP
c13
2819 1950 mt 3095 2199 L
c14
3095 2199 mt 2883 1778 L
1 sg
276 -73 -212 -75 2736 2305 3 MP
PP
c10
2736 2305 mt 2524 2230 L
c9
2524 2230 mt 2800 2157 L
1 sg
-212 -97 276 -73 2524 2230 3 MP
PP
c9
2524 2230 mt 2800 2157 L
2800 2157 mt 2588 2060 L
1 sg
-211 -11 276 312 2671 2004 3 MP
PP
c14
2671 2004 mt 2947 2316 L
c11
2947 2316 mt 2736 2305 L
1 sg
276 249 -212 -736 3031 2686 3 MP
PP
c12
3031 2686 mt 2819 1950 L
c13
2819 1950 mt 3095 2199 L
1 sg
276 -147 -212 -199 2967 3032 3 MP
PP
c9
2967 3032 mt 2755 2833 L
c11
2755 2833 mt 3031 2686 L
1 sg
-212 -736 276 -147 2755 2833 3 MP
PP
c11
2755 2833 mt 3031 2686 L
c12
3031 2686 mt 2819 1950 L
1 sg
-212 -199 277 -82 2690 3114 3 MP
PP
c9
2690 3114 mt 2967 3032 L
2967 3032 mt 2755 2833 L
1 sg
277 -82 -212 -100 2902 3214 3 MP
PP
c9
2902 3214 mt 2690 3114 L
2690 3114 mt 2967 3032 L
1 sg
276 -75 0 0 2626 3289 3 MP
PP
c8
2626 3289 mt 2626 3289 L
c9
2626 3289 mt 2902 3214 L
2902 3214 mt 2626 3289 L
1 sg
-212 -100 276 -75 2626 3289 3 MP
PP
c9
2626 3289 mt 2902 3214 L
2902 3214 mt 2690 3114 L
1 sg
276 -75 0 0 2626 3289 3 MP
PP
c8
2626 3289 mt 2626 3289 L
2626 3289 mt 2902 3214 L
2902 3214 mt 2626 3289 L
1 sg
0 0 276 -75 2626 3289 3 MP
PP
c8
2626 3289 mt 2902 3214 L
2902 3214 mt 2902 3214 L
2902 3214 mt 2626 3289 L
1 sg
0 0 276 -75 2626 3289 3 MP
PP
c8
2626 3289 mt 2902 3214 L
2902 3214 mt 2902 3214 L
c9
2902 3214 mt 2626 3289 L
1 sg
-212 226 276 459 2607 1319 3 MP
PP
/c15 { 0.500000 0.000000 0.000000 sr} bdef
c15
2607 1319 mt 2883 1778 L
c13
2883 1778 mt 2671 2004 L
1 sg
276 459 -212 -631 2819 1950 3 MP
PP
c13
2819 1950 mt 2607 1319 L
c15
2607 1319 mt 2883 1778 L
1 sg
276 -75 0 0 2312 2135 3 MP
PP
c8
2312 2135 mt 2312 2135 L
2312 2135 mt 2588 2060 L
2588 2060 mt 2312 2135 L
1 sg
0 0 276 -75 2312 2135 3 MP
PP
c8
2312 2135 mt 2588 2060 L
2588 2060 mt 2588 2060 L
2588 2060 mt 2312 2135 L
1 sg
276 -75 0 0 2312 2135 3 MP
PP
c9
2312 2135 mt 2312 2135 L
c8
2312 2135 mt 2588 2060 L
2588 2060 mt 2312 2135 L
1 sg
276 -75 -212 -95 2524 2230 3 MP
PP
c9
2524 2230 mt 2312 2135 L
2312 2135 mt 2588 2060 L
1 sg
0 0 276 -75 2312 2135 3 MP
PP
c9
2312 2135 mt 2588 2060 L
2588 2060 mt 2588 2060 L
c8
2588 2060 mt 2312 2135 L
1 sg
277 -68 -212 5 2459 2293 3 MP
PP
c11
2459 2293 mt 2247 2298 L
c9
2247 2298 mt 2524 2230 L
1 sg
-212 -95 277 -68 2247 2298 3 MP
PP
c9
2247 2298 mt 2524 2230 L
2524 2230 mt 2312 2135 L
1 sg
-212 289 276 249 2395 1755 3 MP
PP
c13
2395 1755 mt 2671 2004 L
c14
2671 2004 mt 2459 2293 L
1 sg
276 249 -212 436 2607 1319 3 MP
PP
c15
2607 1319 mt 2395 1755 L
c13
2395 1755 mt 2671 2004 L
1 sg
-212 -75 277 12 2459 2293 3 MP
PP
c11
2459 2293 mt 2736 2305 L
c10
2736 2305 mt 2524 2230 L
1 sg
277 12 -212 289 2671 2004 3 MP
PP
c14
2671 2004 mt 2459 2293 L
c11
2459 2293 mt 2736 2305 L
1 sg
-212 -631 276 -398 2543 2348 3 MP
PP
c14
2543 2348 mt 2819 1950 L
c13
2819 1950 mt 2607 1319 L
1 sg
276 -398 -212 -485 2755 2833 3 MP
PP
c11
2755 2833 mt 2543 2348 L
c14
2543 2348 mt 2819 1950 L
1 sg
277 -161 -212 -120 2690 3114 3 MP
PP
c9
2690 3114 mt 2478 2994 L
c10
2478 2994 mt 2755 2833 L
1 sg
-212 -485 277 -161 2478 2994 3 MP
PP
c10
2478 2994 mt 2755 2833 L
c11
2755 2833 mt 2543 2348 L
1 sg
-212 -120 276 -77 2414 3191 3 MP
PP
c9
2414 3191 mt 2690 3114 L
2690 3114 mt 2478 2994 L
1 sg
276 -77 -212 -98 2626 3289 3 MP
PP
c9
2626 3289 mt 2414 3191 L
2414 3191 mt 2690 3114 L
1 sg
276 -74 0 0 2350 3363 3 MP
PP
c8
2350 3363 mt 2350 3363 L
c9
2350 3363 mt 2626 3289 L
2626 3289 mt 2350 3363 L
1 sg
276 -74 0 0 2350 3363 3 MP
PP
c8
2350 3363 mt 2350 3363 L
2350 3363 mt 2626 3289 L
2626 3289 mt 2350 3363 L
1 sg
0 0 276 -74 2350 3363 3 MP
PP
c8
2350 3363 mt 2626 3289 L
2626 3289 mt 2626 3289 L
c9
2626 3289 mt 2350 3363 L
1 sg
-212 -98 276 -74 2350 3363 3 MP
PP
c9
2350 3363 mt 2626 3289 L
2626 3289 mt 2414 3191 L
1 sg
0 0 276 -74 2350 3363 3 MP
PP
c8
2350 3363 mt 2626 3289 L
2626 3289 mt 2626 3289 L
2626 3289 mt 2350 3363 L
1 sg
276 -74 0 0 1759 2284 3 MP
PP
c8
1759 2284 mt 1759 2284 L
1759 2284 mt 2035 2210 L
1 sg
0 1 276 -75 1759 2284 3 MP
PP
c8
1759 2284 mt 2035 2209 L
2035 2209 mt 2035 2210 L
2035 2210 mt 1759 2284 L
1 sg
277 -75 0 1 2035 2209 3 MP
PP
c8
2035 2209 mt 2035 2210 L
2035 2210 mt 2312 2135 L
2312 2135 mt 2035 2209 L
1 sg
-212 -89 276 -69 1971 2367 3 MP
PP
c9
1971 2367 mt 2247 2298 L
2247 2298 mt 2035 2209 L
1 sg
0 0 277 -74 2035 2209 3 MP
PP
c8
2035 2209 mt 2312 2135 L
2312 2135 mt 2312 2135 L
1 sg
277 -74 -212 -89 2247 2298 3 MP
PP
c9
2247 2298 mt 2035 2209 L
2035 2209 mt 2312 2135 L
1 sg
0 0 277 -74 2035 2209 3 MP
PP
c9
2035 2209 mt 2312 2135 L
2312 2135 mt 2312 2135 L
c8
2312 2135 mt 2035 2209 L
1 sg
277 -74 0 0 2035 2209 3 MP
PP
c9
2035 2209 mt 2035 2209 L
c8
2035 2209 mt 2312 2135 L
2312 2135 mt 2035 2209 L
1 sg
276 -3 -212 541 2395 1755 3 MP
PP
c13
2395 1755 mt 2183 2296 L
c12
2183 2296 mt 2459 2293 L
1 sg
-212 436 276 -608 2331 1927 3 MP
PP
c13
2331 1927 mt 2607 1319 L
c15
2607 1319 mt 2395 1755 L
1 sg
276 -608 -212 -421 2543 2348 3 MP
PP
c14
2543 2348 mt 2331 1927 L
c13
2331 1927 mt 2607 1319 L
1 sg
-212 5 276 -3 2183 2296 3 MP
PP
c12
2183 2296 mt 2459 2293 L
c11
2459 2293 mt 2247 2298 L
1 sg
-212 -421 276 -462 2267 2810 3 MP
PP
c11
2267 2810 mt 2543 2348 L
c14
2543 2348 mt 2331 1927 L
1 sg
276 -462 -211 -184 2478 2994 3 MP
PP
c10
2478 2994 mt 2267 2810 L
c11
2267 2810 mt 2543 2348 L
1 sg
-211 -184 276 -98 2202 3092 3 MP
PP
c9
2202 3092 mt 2478 2994 L
c10
2478 2994 mt 2267 2810 L
1 sg
276 -98 -212 -99 2414 3191 3 MP
PP
c9
2414 3191 mt 2202 3092 L
2202 3092 mt 2478 2994 L
1 sg
0 0 -212 -97 2350 3363 3 MP
PP
c8
2350 3363 mt 2138 3266 L
2138 3266 mt 2138 3266 L
2138 3266 mt 2350 3363 L
1 sg
276 -75 -212 -97 2350 3363 3 MP
PP
c9
2350 3363 mt 2138 3266 L
2138 3266 mt 2414 3191 L
1 sg
-212 -99 276 -75 2138 3266 3 MP
PP
c9
2138 3266 mt 2414 3191 L
2414 3191 mt 2202 3092 L
1 sg
-212 541 276 -398 2119 2153 3 MP
PP
c14
2119 2153 mt 2395 1755 L
c13
2395 1755 mt 2183 2296 L
1 sg
276 -398 -212 226 2331 1927 3 MP
PP
c13
2331 1927 mt 2119 2153 L
c14
2119 2153 mt 2395 1755 L
1 sg
0 0 0 0 2350 3363 3 MP
PP
c8
2350 3363 mt 2350 3363 L
2350 3363 mt 2350 3363 L
2350 3363 mt 2350 3363 L
1 sg
0 0 0 0 2350 3363 3 MP
PP
c8
2350 3363 mt 2350 3363 L
2350 3363 mt 2350 3363 L
c9
2350 3363 mt 2350 3363 L
1 sg
-212 -97 0 0 2350 3363 3 MP
PP
c8
2350 3363 mt 2350 3363 L
c9
2350 3363 mt 2138 3266 L
2138 3266 mt 2350 3363 L
1 sg
0 0 0 0 2350 3363 3 MP
PP
c8
2350 3363 mt 2350 3363 L
2350 3363 mt 2350 3363 L
2350 3363 mt 2350 3363 L
1 sg
-212 -97 0 0 2350 3363 3 MP
PP
c8
2350 3363 mt 2350 3363 L
2350 3363 mt 2138 3266 L
2138 3266 mt 2350 3363 L
1 sg
0 0 0 0 2350 3363 3 MP
PP
c8
2350 3363 mt 2350 3363 L
2350 3363 mt 2350 3363 L
c9
2350 3363 mt 2350 3363 L
1 sg
0 0 0 0 2350 3363 3 MP
PP
c8
2350 3363 mt 2350 3363 L
2350 3363 mt 2350 3363 L
2350 3363 mt 2350 3363 L
1 sg
0 0 -212 -97 2350 3363 3 MP
PP
c8
2350 3363 mt 2138 3266 L
2138 3266 mt 2138 3266 L
c9
2138 3266 mt 2350 3363 L
1 sg
0 0 0 0 2350 3363 3 MP
PP
c8
2350 3363 mt 2350 3363 L
2350 3363 mt 2350 3363 L
2350 3363 mt 2350 3363 L
1 sg
0 0 0 0 2350 3363 3 MP
PP
c8
2350 3363 mt 2350 3363 L
2350 3363 mt 2350 3363 L
2350 3363 mt 2350 3363 L
1 sg
0 0 0 0 2350 3363 3 MP
PP
c8
2350 3363 mt 2350 3363 L
2350 3363 mt 2350 3363 L
2350 3363 mt 2350 3363 L
1 sg
276 -69 -212 71 2183 2296 3 MP
PP
c12
2183 2296 mt 1971 2367 L
c9
1971 2367 mt 2247 2298 L
1 sg
276 -714 -212 -169 2267 2810 3 MP
PP
c11
2267 2810 mt 2055 2641 L
c12
2055 2641 mt 2331 1927 L
1 sg
-212 71 276 -147 1907 2443 3 MP
PP
c11
1907 2443 mt 2183 2296 L
c12
2183 2296 mt 1971 2367 L
1 sg
276 -81 -212 5 1907 2443 3 MP
PP
c11
1907 2443 mt 1695 2448 L
c9
1695 2448 mt 1971 2367 L
1 sg
-212 -83 276 -81 1695 2448 3 MP
PP
c9
1695 2448 mt 1971 2367 L
1971 2367 mt 1759 2284 L
1 sg
276 -75 -212 -83 1971 2367 3 MP
PP
c9
1971 2367 mt 1759 2284 L
1759 2284 mt 2035 2209 L
1 sg
276 -147 -212 290 2119 2153 3 MP
PP
c14
2119 2153 mt 1907 2443 L
c11
1907 2443 mt 2183 2296 L
1 sg
-212 226 276 -714 2055 2641 3 MP
PP
c12
2055 2641 mt 2331 1927 L
c13
2331 1927 mt 2119 2153 L
1 sg
277 -177 -212 -105 2202 3092 3 MP
PP
c9
2202 3092 mt 1990 2987 L
1990 2987 mt 2267 2810 L
1 sg
-212 -169 277 -177 1990 2987 3 MP
PP
c9
1990 2987 mt 2267 2810 L
c11
2267 2810 mt 2055 2641 L
1 sg
-212 -105 276 -76 1926 3168 3 MP
PP
c9
1926 3168 mt 2202 3092 L
2202 3092 mt 1990 2987 L
1 sg
-212 -98 0 0 2138 3266 3 MP
PP
c8
2138 3266 mt 2138 3266 L
2138 3266 mt 1926 3168 L
1 sg
276 -76 -212 -98 2138 3266 3 MP
PP
c9
2138 3266 mt 1926 3168 L
1926 3168 mt 2202 3092 L
1 sg
0 -1 -212 -97 2138 3266 3 MP
PP
c8
2138 3266 mt 1926 3169 L
1926 3169 mt 1926 3168 L
1926 3168 mt 2138 3266 L
1 sg
0 0 -212 -98 2138 3266 3 MP
PP
c8
2138 3266 mt 1926 3168 L
1926 3168 mt 1926 3168 L
c9
1926 3168 mt 2138 3266 L
1 sg
-212 -98 0 0 2138 3266 3 MP
PP
c8
2138 3266 mt 2138 3266 L
c9
2138 3266 mt 1926 3168 L
1926 3168 mt 2138 3266 L
1 sg
276 -462 -212 -26 2055 2641 3 MP
PP
c12
2055 2641 mt 1843 2615 L
c11
1843 2615 mt 2119 2153 L
1 sg
-212 290 276 -462 1843 2615 3 MP
PP
c11
1843 2615 mt 2119 2153 L
c14
2119 2153 mt 1907 2443 L
1 sg
-212 -26 277 -243 1778 2884 3 MP
PP
c9
1778 2884 mt 2055 2641 L
c12
2055 2641 mt 1843 2615 L
1 sg
277 -243 -212 -103 1990 2987 3 MP
PP
c9
1990 2987 mt 1778 2884 L
1778 2884 mt 2055 2641 L
1 sg
0 0 276 -75 1759 2284 3 MP
PP
c9
1759 2284 mt 2035 2209 L
2035 2209 mt 2035 2209 L
c8
2035 2209 mt 1759 2284 L
1 sg
276 -75 0 0 1759 2284 3 MP
PP
c9
1759 2284 mt 1759 2284 L
c8
1759 2284 mt 2035 2209 L
2035 2209 mt 1759 2284 L
1 sg
276 -84 -212 -97 1926 3168 3 MP
PP
c9
1926 3168 mt 1714 3071 L
1714 3071 mt 1990 2987 L
1 sg
-212 -103 276 -84 1714 3071 3 MP
PP
c9
1714 3071 mt 1990 2987 L
1990 2987 mt 1778 2884 L
1 sg
-212 -97 0 0 1926 3168 3 MP
PP
c8
1926 3168 mt 1926 3168 L
c9
1926 3168 mt 1714 3071 L
1714 3071 mt 1926 3168 L
1 sg
0 0 -212 -98 1926 3169 3 MP
PP
c8
1926 3169 mt 1714 3071 L
1714 3071 mt 1714 3071 L
1 sg
0 0 -212 -97 1926 3168 3 MP
PP
c8
1926 3168 mt 1714 3071 L
1714 3071 mt 1714 3071 L
c9
1714 3071 mt 1926 3168 L
1 sg
-212 -97 0 -1 1926 3169 3 MP
PP
c8
1926 3169 mt 1926 3168 L
1926 3168 mt 1714 3071 L
1714 3071 mt 1926 3169 L
1 sg
-212 5 276 -161 1631 2604 3 MP
PP
c10
1631 2604 mt 1907 2443 L
c11
1907 2443 mt 1695 2448 L
1 sg
276 -161 -212 -11 1843 2615 3 MP
PP
c11
1843 2615 mt 1631 2604 L
c10
1631 2604 mt 1907 2443 L
1 sg
-212 -11 277 -177 1566 2792 3 MP
PP
c9
1566 2792 mt 1843 2615 L
c11
1843 2615 mt 1631 2604 L
1 sg
277 -177 -212 -92 1778 2884 3 MP
PP
c9
1778 2884 mt 1566 2792 L
1566 2792 mt 1843 2615 L
1 sg
-212 -98 0 0 1714 3071 3 MP
PP
c8
1714 3071 mt 1714 3071 L
1714 3071 mt 1502 2973 L
1 sg
276 -89 -212 -98 1714 3071 3 MP
PP
c9
1714 3071 mt 1502 2973 L
1502 2973 mt 1778 2884 L
1 sg
-212 -92 276 -89 1502 2973 3 MP
PP
c9
1502 2973 mt 1778 2884 L
1778 2884 mt 1566 2792 L
1 sg
0 0 276 -75 1483 2359 3 MP
PP
c8
1483 2359 mt 1759 2284 L
1759 2284 mt 1759 2284 L
1759 2284 mt 1483 2359 L
1 sg
276 -75 0 0 1483 2359 3 MP
PP
c8
1483 2359 mt 1483 2359 L
1483 2359 mt 1759 2284 L
1759 2284 mt 1483 2359 L
1 sg
276 -75 -212 -89 1695 2448 3 MP
PP
c9
1695 2448 mt 1483 2359 L
1483 2359 mt 1759 2284 L
1 sg
0 0 276 -75 1483 2359 3 MP
PP
c9
1483 2359 mt 1759 2284 L
1759 2284 mt 1759 2284 L
c8
1759 2284 mt 1483 2359 L
1 sg
276 -75 0 0 1483 2359 3 MP
PP
c9
1483 2359 mt 1483 2359 L
c8
1483 2359 mt 1759 2284 L
1759 2284 mt 1483 2359 L
1 sg
0 0 -212 -98 1714 3071 3 MP
PP
c8
1714 3071 mt 1502 2973 L
1502 2973 mt 1502 2973 L
c9
1502 2973 mt 1714 3071 L
1 sg
0 -1 -212 -97 1714 3071 3 MP
PP
c8
1714 3071 mt 1502 2974 L
1502 2974 mt 1502 2973 L
1502 2973 mt 1714 3071 L
1 sg
-212 -98 0 0 1714 3071 3 MP
PP
c8
1714 3071 mt 1714 3071 L
c9
1714 3071 mt 1502 2973 L
1502 2973 mt 1714 3071 L
1 sg
276 -81 -212 -75 1631 2604 3 MP
PP
c10
1631 2604 mt 1419 2529 L
c9
1419 2529 mt 1695 2448 L
1 sg
-212 -89 276 -81 1419 2529 3 MP
PP
c9
1419 2529 mt 1695 2448 L
1695 2448 mt 1483 2359 L
1 sg
276 -98 -211 -90 1566 2792 3 MP
PP
c9
1566 2792 mt 1355 2702 L
1355 2702 mt 1631 2604 L
1 sg
-212 -75 276 -98 1355 2702 3 MP
PP
c9
1355 2702 mt 1631 2604 L
c10
1631 2604 mt 1419 2529 L
1 sg
-211 -90 276 -84 1290 2876 3 MP
PP
c9
1290 2876 mt 1566 2792 L
1566 2792 mt 1355 2702 L
1 sg
276 -84 -212 -97 1502 2973 3 MP
PP
c9
1502 2973 mt 1290 2876 L
1290 2876 mt 1566 2792 L
1 sg
0 0 -212 -97 1502 2973 3 MP
PP
c8
1502 2973 mt 1290 2876 L
1290 2876 mt 1290 2876 L
c9
1290 2876 mt 1502 2973 L
1 sg
-212 -97 0 -1 1502 2974 3 MP
PP
c8
1502 2974 mt 1502 2973 L
1502 2973 mt 1290 2876 L
1290 2876 mt 1502 2974 L
1 sg
0 0 -212 -98 1502 2974 3 MP
PP
c8
1502 2974 mt 1290 2876 L
1290 2876 mt 1290 2876 L
1 sg
-212 -97 0 0 1502 2973 3 MP
PP
c8
1502 2973 mt 1502 2973 L
c9
1502 2973 mt 1290 2876 L
1290 2876 mt 1502 2973 L
1 sg
0 0 276 -75 1207 2434 3 MP
PP
c8
1207 2434 mt 1483 2359 L
1483 2359 mt 1483 2359 L
1483 2359 mt 1207 2434 L
1 sg
276 -75 0 0 1207 2434 3 MP
PP
c8
1207 2434 mt 1207 2434 L
1207 2434 mt 1483 2359 L
1483 2359 mt 1207 2434 L
1 sg
0 0 276 -75 1207 2434 3 MP
PP
c9
1207 2434 mt 1483 2359 L
1483 2359 mt 1483 2359 L
c8
1483 2359 mt 1207 2434 L
1 sg
276 -75 0 0 1207 2434 3 MP
PP
c9
1207 2434 mt 1207 2434 L
c8
1207 2434 mt 1483 2359 L
1483 2359 mt 1207 2434 L
1 sg
276 -75 -212 -95 1419 2529 3 MP
PP
c9
1419 2529 mt 1207 2434 L
1207 2434 mt 1483 2359 L
1 sg
276 -77 -212 -96 1355 2702 3 MP
PP
c9
1355 2702 mt 1143 2606 L
1143 2606 mt 1419 2529 L
1 sg
-212 -95 276 -77 1143 2606 3 MP
PP
c9
1143 2606 mt 1419 2529 L
1419 2529 mt 1207 2434 L
1 sg
-212 -96 277 -77 1078 2779 3 MP
PP
c9
1078 2779 mt 1355 2702 L
1355 2702 mt 1143 2606 L
1 sg
0 0 -212 -97 1290 2876 3 MP
PP
c8
1290 2876 mt 1078 2779 L
1078 2779 mt 1078 2779 L
1078 2779 mt 1290 2876 L
1 sg
-212 -97 0 0 1290 2876 3 MP
PP
c8
1290 2876 mt 1290 2876 L
1290 2876 mt 1078 2779 L
1078 2779 mt 1290 2876 L
1 sg
277 -77 -212 -97 1290 2876 3 MP
PP
c9
1290 2876 mt 1078 2779 L
1078 2779 mt 1355 2702 L
1 sg
-212 -97 0 0 1290 2876 3 MP
PP
c8
1290 2876 mt 1290 2876 L
c9
1290 2876 mt 1078 2779 L
1078 2779 mt 1290 2876 L
1 sg
0 0 -212 -97 1290 2876 3 MP
PP
c8
1290 2876 mt 1078 2779 L
1078 2779 mt 1078 2779 L
c9
1078 2779 mt 1290 2876 L
1 sg
276 -75 0 0 931 2509 3 MP
PP
c9
 931 2509 mt  931 2509 L
c8
 931 2509 mt 1207 2434 L
1207 2434 mt  931 2509 L
1 sg
0 0 276 -75 931 2509 3 MP
PP
c9
 931 2509 mt 1207 2434 L
1207 2434 mt 1207 2434 L
c8
1207 2434 mt  931 2509 L
1 sg
0 0 276 -75 931 2509 3 MP
PP
c8
 931 2509 mt 1207 2434 L
1207 2434 mt 1207 2434 L
1207 2434 mt  931 2509 L
1 sg
276 -75 0 0 931 2509 3 MP
PP
c8
 931 2509 mt  931 2509 L
 931 2509 mt 1207 2434 L
1207 2434 mt  931 2509 L
1 sg
276 -75 -212 -97 1143 2606 3 MP
PP
c9
1143 2606 mt  931 2509 L
 931 2509 mt 1207 2434 L
1 sg
-212 -98 0 0 1078 2779 3 MP
PP
c8
1078 2779 mt 1078 2779 L
1078 2779 mt  866 2681 L
 866 2681 mt 1078 2779 L
1 sg
0 0 -212 -98 1078 2779 3 MP
PP
c8
1078 2779 mt  866 2681 L
 866 2681 mt  866 2681 L
 866 2681 mt 1078 2779 L
1 sg
277 -75 -212 -98 1078 2779 3 MP
PP
c9
1078 2779 mt  866 2681 L
 866 2681 mt 1143 2606 L
1 sg
-212 -97 277 -75 866 2681 3 MP
PP
c9
 866 2681 mt 1143 2606 L
1143 2606 mt  931 2509 L
1 sg
-212 -98 0 0 1078 2779 3 MP
PP
c8
1078 2779 mt 1078 2779 L
c9
1078 2779 mt  866 2681 L
 866 2681 mt 1078 2779 L
1 sg
0 0 -212 -98 1078 2779 3 MP
PP
c8
1078 2779 mt  866 2681 L
 866 2681 mt  866 2681 L
c9
 866 2681 mt 1078 2779 L
1 sg
276 -75 0 0 655 2584 3 MP
PP
c9
 655 2584 mt  655 2584 L
c8
 655 2584 mt  931 2509 L
 931 2509 mt  655 2584 L
1 sg
0 0 276 -75 655 2584 3 MP
PP
c9
 655 2584 mt  931 2509 L
 931 2509 mt  931 2509 L
c8
 931 2509 mt  655 2584 L
1 sg
0 0 -211 -97 866 2681 3 MP
PP
c8
 866 2681 mt  655 2584 L
 655 2584 mt  655 2584 L
 655 2584 mt  866 2681 L
1 sg
-211 -97 0 0 866 2681 3 MP
PP
c8
 866 2681 mt  866 2681 L
 866 2681 mt  655 2584 L
 655 2584 mt  866 2681 L
1 sg
276 -75 0 0 655 2584 3 MP
PP
c8
 655 2584 mt  655 2584 L
 655 2584 mt  931 2509 L
 931 2509 mt  655 2584 L
1 sg
0 0 276 -75 655 2584 3 MP
PP
c8
 655 2584 mt  931 2509 L
 931 2509 mt  931 2509 L
 931 2509 mt  655 2584 L
1 sg
276 -75 -211 -97 866 2681 3 MP
PP
c9
 866 2681 mt  655 2584 L
 655 2584 mt  931 2509 L
1 sg
0 0 -211 -97 866 2681 3 MP
PP
c8
 866 2681 mt  655 2584 L
 655 2584 mt  655 2584 L
c9
 655 2584 mt  866 2681 L
1 sg
-211 -97 0 0 866 2681 3 MP
PP
c8
 866 2681 mt  866 2681 L
c9
 866 2681 mt  655 2584 L
 655 2584 mt  866 2681 L
1 sg
0 0 0 0 655 2584 3 MP
PP
c8
 655 2584 mt  655 2584 L
 655 2584 mt  655 2584 L
 655 2584 mt  655 2584 L
1 sg
0 0 0 0 655 2584 3 MP
PP
c8
 655 2584 mt  655 2584 L
 655 2584 mt  655 2584 L
 655 2584 mt  655 2584 L
1 sg
0 0 0 0 655 2584 3 MP
PP
c8
 655 2584 mt  655 2584 L
 655 2584 mt  655 2584 L
 655 2584 mt  655 2584 L
1 sg
0 0 0 0 655 2584 3 MP
PP
c8
 655 2584 mt  655 2584 L
 655 2584 mt  655 2584 L
 655 2584 mt  655 2584 L
1 sg
0 0 0 0 655 2584 3 MP
PP
c8
 655 2584 mt  655 2584 L
 655 2584 mt  655 2584 L
 655 2584 mt  655 2584 L
1 sg
0 0 0 0 655 2584 3 MP
PP
c8
 655 2584 mt  655 2584 L
c9
 655 2584 mt  655 2584 L
c8
 655 2584 mt  655 2584 L
1 sg
0 0 0 0 655 2584 3 MP
PP
c8
 655 2584 mt  655 2584 L
 655 2584 mt  655 2584 L
 655 2584 mt  655 2584 L
1 sg
0 0 0 0 655 2584 3 MP
PP
c8
 655 2584 mt  655 2584 L
 655 2584 mt  655 2584 L
 655 2584 mt  655 2584 L
gr

c8

end %%Color Dict

eplot
%%EndObject

epage
end

showpage

%%Trailer
%%EOF
