%!PS-Adobe-3.0 EPSF-3.0
%%Creator: MATLAB, The MathWorks, Inc. Version 7.11.0.584 (R2010b). Operating System: Microsoft Windows 7.
%%Title: D:\Dropbox\document\work\ELE747\Cours\cours3\content\matlab\profile_org.eps
%%CreationDate: 01/17/2011  16:20:07
%%DocumentNeededFonts: Helvetica
%%DocumentProcessColors: Cyan Magenta Yellow Black
%%LanguageLevel: 2
%%Pages: 1
%%BoundingBox:   169   344   442   447
%%EndComments

%%BeginProlog
% MathWorks dictionary
/MathWorks 160 dict begin
% definition operators
/bdef {bind def} bind def
/ldef {load def} bind def
/xdef {exch def} bdef
/xstore {exch store} bdef
% operator abbreviations
/c  /clip ldef
/cc /concat ldef
/cp /closepath ldef
/gr /grestore ldef
/gs /gsave ldef
/mt /moveto ldef
/np /newpath ldef
/cm /currentmatrix ldef
/sm /setmatrix ldef
/rm /rmoveto ldef
/rl /rlineto ldef
/s {show newpath} bdef
/sc {setcmykcolor} bdef
/sr /setrgbcolor ldef
/sg /setgray ldef
/w /setlinewidth ldef
/j /setlinejoin ldef
/cap /setlinecap ldef
/rc {rectclip} bdef
/rf {rectfill} bdef
% page state control
/pgsv () def
/bpage {/pgsv save def} bdef
/epage {pgsv restore} bdef
/bplot /gsave ldef
/eplot {stroke grestore} bdef
% orientation switch
/portraitMode 0 def /landscapeMode 1 def /rotateMode 2 def
% coordinate system mappings
/dpi2point 0 def
% font control
/FontSize 0 def
/FMS {/FontSize xstore findfont [FontSize 0 0 FontSize neg 0 0]
  makefont setfont} bdef
/ISOLatin1Encoding where {pop /WindowsLatin1Encoding 256 array bdef
ISOLatin1Encoding WindowsLatin1Encoding copy pop
/.notdef/.notdef/quotesinglbase/florin/quotedblbase/ellipsis/dagger
/daggerdbl/circumflex/perthousand/Scaron/guilsinglleft/OE/.notdef/.notdef
/.notdef/.notdef/quoteleft/quoteright/quotedblleft/quotedblright/bullet
/endash/emdash/tilde/trademark/scaron/guilsinglright/oe/.notdef/.notdef
/Ydieresis WindowsLatin1Encoding 128 32 getinterval astore pop}
{/WindowsLatin1Encoding StandardEncoding bdef} ifelse
/reencode {exch dup where {pop load} {pop StandardEncoding} ifelse
  exch dup 3 1 roll findfont dup length dict begin
  { 1 index /FID ne {def}{pop pop} ifelse } forall
  /Encoding exch def currentdict end definefont pop} bdef
/isroman {findfont /CharStrings get /Agrave known} bdef
/FMSR {3 1 roll 1 index dup isroman {reencode} {pop pop} ifelse
  exch FMS} bdef
/csm {1 dpi2point div -1 dpi2point div scale neg translate
 dup landscapeMode eq {pop -90 rotate}
  {rotateMode eq {90 rotate} if} ifelse} bdef
% line types: solid, dotted, dashed, dotdash
/SO { [] 0 setdash } bdef
/DO { [.5 dpi2point mul 4 dpi2point mul] 0 setdash } bdef
/DA { [6 dpi2point mul] 0 setdash } bdef
/DD { [.5 dpi2point mul 4 dpi2point mul 6 dpi2point mul 4
  dpi2point mul] 0 setdash } bdef
% macros for lines and objects
/L {lineto stroke} bdef
/MP {3 1 roll moveto 1 sub {rlineto} repeat} bdef
/AP {{rlineto} repeat} bdef
/PDlw -1 def
/W {/PDlw currentlinewidth def setlinewidth} def
/PP {closepath eofill} bdef
/DP {closepath stroke} bdef
/MR {4 -2 roll moveto dup  0 exch rlineto exch 0 rlineto
  neg 0 exch rlineto closepath} bdef
/FR {MR stroke} bdef
/PR {MR fill} bdef
/L1i {{currentfile picstr readhexstring pop} image} bdef
/tMatrix matrix def
/MakeOval {newpath tMatrix currentmatrix pop translate scale
0 0 1 0 360 arc tMatrix setmatrix} bdef
/FO {MakeOval stroke} bdef
/PO {MakeOval fill} bdef
/PD {currentlinewidth 2 div 0 360 arc fill
   PDlw -1 eq not {PDlw w /PDlw -1 def} if} def
/FA {newpath tMatrix currentmatrix pop translate scale
  0 0 1 5 -2 roll arc tMatrix setmatrix stroke} bdef
/PA {newpath tMatrix currentmatrix pop	translate 0 0 moveto scale
  0 0 1 5 -2 roll arc closepath tMatrix setmatrix fill} bdef
/FAn {newpath tMatrix currentmatrix pop translate scale
  0 0 1 5 -2 roll arcn tMatrix setmatrix stroke} bdef
/PAn {newpath tMatrix currentmatrix pop translate 0 0 moveto scale
  0 0 1 5 -2 roll arcn closepath tMatrix setmatrix fill} bdef
/vradius 0 def /hradius 0 def /lry 0 def
/lrx 0 def /uly 0 def /ulx 0 def /rad 0 def
/MRR {/vradius xdef /hradius xdef /lry xdef /lrx xdef /uly xdef
  /ulx xdef newpath tMatrix currentmatrix pop ulx hradius add uly
  vradius add translate hradius vradius scale 0 0 1 180 270 arc 
  tMatrix setmatrix lrx hradius sub uly vradius add translate
  hradius vradius scale 0 0 1 270 360 arc tMatrix setmatrix
  lrx hradius sub lry vradius sub translate hradius vradius scale
  0 0 1 0 90 arc tMatrix setmatrix ulx hradius add lry vradius sub
  translate hradius vradius scale 0 0 1 90 180 arc tMatrix setmatrix
  closepath} bdef
/FRR {MRR stroke } bdef
/PRR {MRR fill } bdef
/MlrRR {/lry xdef /lrx xdef /uly xdef /ulx xdef /rad lry uly sub 2 div def
  newpath tMatrix currentmatrix pop ulx rad add uly rad add translate
  rad rad scale 0 0 1 90 270 arc tMatrix setmatrix lrx rad sub lry rad
  sub translate rad rad scale 0 0 1 270 90 arc tMatrix setmatrix
  closepath} bdef
/FlrRR {MlrRR stroke } bdef
/PlrRR {MlrRR fill } bdef
/MtbRR {/lry xdef /lrx xdef /uly xdef /ulx xdef /rad lrx ulx sub 2 div def
  newpath tMatrix currentmatrix pop ulx rad add uly rad add translate
  rad rad scale 0 0 1 180 360 arc tMatrix setmatrix lrx rad sub lry rad
  sub translate rad rad scale 0 0 1 0 180 arc tMatrix setmatrix
  closepath} bdef
/FtbRR {MtbRR stroke } bdef
/PtbRR {MtbRR fill } bdef
/stri 6 array def /dtri 6 array def
/smat 6 array def /dmat 6 array def
/tmat1 6 array def /tmat2 6 array def /dif 3 array def
/asub {/ind2 exch def /ind1 exch def dup dup
  ind1 get exch ind2 get sub exch } bdef
/tri_to_matrix {
  2 0 asub 3 1 asub 4 0 asub 5 1 asub
  dup 0 get exch 1 get 7 -1 roll astore } bdef
/compute_transform {
  dmat dtri tri_to_matrix tmat1 invertmatrix 
  smat stri tri_to_matrix tmat2 concatmatrix } bdef
/ds {stri astore pop} bdef
/dt {dtri astore pop} bdef
/db {2 copy /cols xdef /rows xdef mul dup 3 mul string
  currentfile 
  3 index 0 eq {/ASCIIHexDecode filter}
  {/ASCII85Decode filter 3 index 2 eq {/RunLengthDecode filter} if }
  ifelse exch readstring pop
  dup 0 3 index getinterval /rbmap xdef
  dup 2 index dup getinterval /gbmap xdef
  1 index dup 2 mul exch getinterval /bbmap xdef pop pop}bdef
/it {gs np dtri aload pop moveto lineto lineto cp c
  cols rows 8 compute_transform 
  rbmap gbmap bbmap true 3 colorimage gr}bdef
/il {newpath moveto lineto stroke}bdef
currentdict end def
%%EndProlog

%%BeginSetup
MathWorks begin

0 cap

end
%%EndSetup

%%Page: 1 1
%%BeginPageSetup
%%PageBoundingBox:   169   344   442   447
MathWorks begin
bpage
%%EndPageSetup

%%BeginObject: obj1
bplot

/dpi2point 12 def
portraitMode 2028 5364 csm

    0     0  3276  1233 rc
277 dict begin %Colortable dictionary
/c0 { 0.000000 0.000000 0.000000 sr} bdef
/c1 { 1.000000 1.000000 1.000000 sr} bdef
/c2 { 0.900000 0.000000 0.000000 sr} bdef
/c3 { 0.000000 0.820000 0.000000 sr} bdef
/c4 { 0.000000 0.000000 0.800000 sr} bdef
/c5 { 0.910000 0.820000 0.320000 sr} bdef
/c6 { 1.000000 0.260000 0.820000 sr} bdef
/c7 { 0.000000 0.820000 0.820000 sr} bdef
c0
1 j
1 sg
   0    0 3277 1234 rf
6 w
0 825 2539 0 0 -825 426 916 4 MP
PP
-2539 0 0 825 2539 0 0 -825 426 916 5 MP stroke
4 w
DO
SO
6 w
0 sg
 426   91 mt 2965   91 L
 426  916 mt 2965  916 L
2965  916 mt 2965   91 L
 426  916 mt  426   91 L
 426  916 mt 2965  916 L
 426  916 mt  426   91 L
 426  916 mt  426  890 L
 426   92 mt  426  117 L
%%IncludeResource: font Helvetica
/Helvetica /WindowsLatin1Encoding 120 FMSR

 393 1061 mt 
(0) s
1060  916 mt 1060  890 L
1060   92 mt 1060  117 L
 994 1061 mt 
(50) s
1695  916 mt 1695  890 L
1695   92 mt 1695  117 L
1595 1061 mt 
(100) s
2330  916 mt 2330  890 L
2330   92 mt 2330  117 L
2230 1061 mt 
(150) s
2965  916 mt 2965  890 L
2965   92 mt 2965  117 L
2865 1061 mt 
(200) s
 426  916 mt  451  916 L
2965  916 mt 2939  916 L
 325  960 mt 
(0) s
 426  641 mt  451  641 L
2965  641 mt 2939  641 L
 191  685 mt 
(100) s
 426  366 mt  451  366 L
2965  366 mt 2939  366 L
 191  410 mt 
(200) s
 426   92 mt  451   92 L
2965   92 mt 2939   92 L
 191  136 mt 
(300) s
 426   91 mt 2965   91 L
 426  916 mt 2965  916 L
2965  916 mt 2965   91 L
 426  916 mt  426   91 L
gs 426 92 2540 825 rc
/c8 { 0.000000 0.000000 1.000000 sr} bdef
c8
13 0 13 55 12 22 13 -38 13 -19 12 -20 13 58 13 -38 
12 41 13 -61 13 0 13 0 12 66 13 -44 13 -22 12 0 
13 33 13 -33 12 0 13 17 13 44 12 -61 13 0 13 0 
13 97 12 -33 13 -64 13 25 12 83 13 -33 13 -75 12 0 
13 0 13 0 13 0 12 0 13 0 13 0 12 0 13 28 
13 -28 12 0 13 0 13 20 12 -6 13 0 13 6 13 77 
12 -97 13 0 13 0 12 0 13 0 13 0 12 0 13 11 
13 9 13 60 12 -80 13 0 13 20 12 -20 13 17 13 684 
12 0 13 -632 13 -22 12 -47 13 0 13 0 13 28 12 -28 
13 0 13 701 12 0 13 -701 13 0 12 160 13 -146 13 -14 
12 0 13 0 13 0 13 0 12 701 13 0 13 0 12 0 
13 -670 13 -31 12 0 13 39 13 -39 13 0 12 77 13 -8 
13 -69 12 701 13 0 13 0 12 0 13 -695 13 695 12 0 
13 0 13 0 13 0 12 0 13 0 13 0 12 -624 13 -52 
13 55 12 -22 13 -49 13 2 13 58 12 -69 13 3 13 99 
12 -102 13 701 13 0 12 0 13 0 13 0 12 0 13 0 
13 0 13 0 12 0 13 0 13 0 12 0 13 -701 13 17 
12 -11 13 -6 13 0 12 28 13 25 13 -53 13 9 12 -9 
13 0 13 55 12 -55 13 39 13 -22 12 30 13 -3 13 152 
13 -55 12 79 13 69 13 -11 12 99 13 -36 13 33 12 115 
13 61 13 -22 12 173 13 -22 13 -28 13 50 12 0 13 0 
13 0 12 0 13 -17 13 0 12 17 13 -33 13 33 13 -569 
12 22 13 22 13 25 12 22 13 27 13 22 12 28 13 25 
13 24 12 28 13 25 13 27 13 25 12 22 13 24 13 25 
12 22 13 22 13 22 12 19 13 19 13 20 12 13 426 254 200 MP stroke
gr

c8
0 sg
1117 1204 mt 
(Distance along profile) s

end %%Color Dict

eplot
%%EndObject

epage
end

showpage

%%Trailer
%%EOF
